%YAML 1.1
%TAG !u! tag:unity3d.com,2011:
--- !u!29 &1
OcclusionCullingSettings:
  m_ObjectHideFlags: 0
  serializedVersion: 2
  m_OcclusionBakeSettings:
    smallestOccluder: 5
    smallestHole: 0.25
    backfaceThreshold: 100
  m_SceneGUID: 00000000000000000000000000000000
  m_OcclusionCullingData: {fileID: 0}
--- !u!104 &2
RenderSettings:
  m_ObjectHideFlags: 0
  serializedVersion: 9
  m_Fog: 1
  m_FogColor: {r: 1, g: 0.51724136, b: 0, a: 1}
  m_FogMode: 2
  m_FogDensity: 0.02
  m_LinearFogStart: 0
  m_LinearFogEnd: 46.07
  m_AmbientSkyColor: {r: 0.5, g: 0.43154156, b: 0.4007353, a: 0}
  m_AmbientEquatorColor: {r: 1, g: 0, b: 0, a: 0}
  m_AmbientGroundColor: {r: 1, g: 1, b: 1, a: 0}
  m_AmbientIntensity: 0
  m_AmbientMode: 3
  m_SubtractiveShadowColor: {r: 0.42, g: 0.478, b: 0.627, a: 1}
  m_SkyboxMaterial: {fileID: 10304, guid: 0000000000000000f000000000000000, type: 0}
  m_HaloStrength: 0.5
  m_FlareStrength: 1
  m_FlareFadeSpeed: 3
  m_HaloTexture: {fileID: 0}
  m_SpotCookie: {fileID: 10001, guid: 0000000000000000e000000000000000, type: 0}
  m_DefaultReflectionMode: 1
  m_DefaultReflectionResolution: 256
  m_ReflectionBounces: 1
  m_ReflectionIntensity: 1
  m_CustomReflection: {fileID: 0}
  m_Sun: {fileID: 0}
  m_IndirectSpecularColor: {r: 0, g: 0, b: 0, a: 1}
  m_UseRadianceAmbientProbe: 0
--- !u!157 &3
LightmapSettings:
  m_ObjectHideFlags: 0
  serializedVersion: 11
  m_GIWorkflowMode: 0
  m_GISettings:
    serializedVersion: 2
    m_BounceScale: 1
    m_IndirectOutputScale: 1
    m_AlbedoBoost: 1
    m_EnvironmentLightingMode: 0
    m_EnableBakedLightmaps: 0
    m_EnableRealtimeLightmaps: 1
  m_LightmapEditorSettings:
    serializedVersion: 12
    m_Resolution: 5
    m_BakeResolution: 40
    m_AtlasSize: 1024
    m_AO: 1
    m_AOMaxDistance: 1
    m_CompAOExponent: 1
    m_CompAOExponentDirect: 0
    m_ExtractAmbientOcclusion: 0
    m_Padding: 2
    m_LightmapParameters: {fileID: 0}
    m_LightmapsBakeMode: 1
    m_TextureCompression: 1
    m_FinalGather: 0
    m_FinalGatherFiltering: 1
    m_FinalGatherRayCount: 1024
    m_ReflectionCompression: 2
    m_MixedBakeMode: 1
    m_BakeBackend: 0
    m_PVRSampling: 1
    m_PVRDirectSampleCount: 32
    m_PVRSampleCount: 500
    m_PVRBounces: 2
    m_PVREnvironmentSampleCount: 500
    m_PVREnvironmentReferencePointCount: 2048
    m_PVRFilteringMode: 2
    m_PVRDenoiserTypeDirect: 0
    m_PVRDenoiserTypeIndirect: 0
    m_PVRDenoiserTypeAO: 0
    m_PVRFilterTypeDirect: 0
    m_PVRFilterTypeIndirect: 0
    m_PVRFilterTypeAO: 0
    m_PVREnvironmentMIS: 0
    m_PVRCulling: 1
    m_PVRFilteringGaussRadiusDirect: 1
    m_PVRFilteringGaussRadiusIndirect: 5
    m_PVRFilteringGaussRadiusAO: 2
    m_PVRFilteringAtrousPositionSigmaDirect: 0.5
    m_PVRFilteringAtrousPositionSigmaIndirect: 2
    m_PVRFilteringAtrousPositionSigmaAO: 1
    m_ExportTrainingData: 0
    m_TrainingDataDestination: TrainingData
  m_LightingDataAsset: {fileID: 0}
  m_UseShadowmask: 0
--- !u!196 &4
NavMeshSettings:
  serializedVersion: 2
  m_ObjectHideFlags: 0
  m_BuildSettings:
    serializedVersion: 2
    agentTypeID: 0
    agentRadius: 0.5
    agentHeight: 2
    agentSlope: 45
    agentClimb: 0.4
    ledgeDropHeight: 0
    maxJumpAcrossDistance: 0
    minRegionArea: 2
    manualCellSize: 0
    cellSize: 0.16666667
    manualTileSize: 0
    tileSize: 256
    accuratePlacement: 0
    debug:
      m_Flags: 0
  m_NavMeshData: {fileID: 0}
--- !u!1001 &211804138
PrefabInstance:
  m_ObjectHideFlags: 0
  serializedVersion: 2
  m_Modification:
    m_TransformParent: {fileID: 0}
    m_Modifications:
    - target: {fileID: 4776181459234142, guid: 6fdea669247a16a4a905c0205db975b0, type: 3}
      propertyPath: m_LocalPosition.x
      value: -1.252
      objectReference: {fileID: 0}
    - target: {fileID: 4776181459234142, guid: 6fdea669247a16a4a905c0205db975b0, type: 3}
      propertyPath: m_LocalPosition.y
      value: 1.45
      objectReference: {fileID: 0}
    - target: {fileID: 4776181459234142, guid: 6fdea669247a16a4a905c0205db975b0, type: 3}
      propertyPath: m_LocalPosition.z
      value: 1.46
      objectReference: {fileID: 0}
    - target: {fileID: 4776181459234142, guid: 6fdea669247a16a4a905c0205db975b0, type: 3}
      propertyPath: m_LocalRotation.x
      value: 0
      objectReference: {fileID: 0}
    - target: {fileID: 4776181459234142, guid: 6fdea669247a16a4a905c0205db975b0, type: 3}
      propertyPath: m_LocalRotation.y
      value: 0.7071068
      objectReference: {fileID: 0}
    - target: {fileID: 4776181459234142, guid: 6fdea669247a16a4a905c0205db975b0, type: 3}
      propertyPath: m_LocalRotation.z
      value: 0
      objectReference: {fileID: 0}
    - target: {fileID: 4776181459234142, guid: 6fdea669247a16a4a905c0205db975b0, type: 3}
      propertyPath: m_LocalRotation.w
      value: 0.7071068
      objectReference: {fileID: 0}
    - target: {fileID: 4776181459234142, guid: 6fdea669247a16a4a905c0205db975b0, type: 3}
      propertyPath: m_RootOrder
      value: 0
      objectReference: {fileID: 0}
    - target: {fileID: 224020889027680814, guid: 6fdea669247a16a4a905c0205db975b0,
        type: 3}
      propertyPath: m_LocalPosition.x
      value: 0
      objectReference: {fileID: 0}
    - target: {fileID: 224020889027680814, guid: 6fdea669247a16a4a905c0205db975b0,
        type: 3}
      propertyPath: m_LocalPosition.y
      value: -101.25006
      objectReference: {fileID: 0}
    - target: {fileID: 224031891522530036, guid: 6fdea669247a16a4a905c0205db975b0,
        type: 3}
      propertyPath: m_LocalPosition.x
      value: 0
      objectReference: {fileID: 0}
    - target: {fileID: 224031891522530036, guid: 6fdea669247a16a4a905c0205db975b0,
        type: 3}
      propertyPath: m_LocalPosition.y
      value: 172.47998
      objectReference: {fileID: 0}
    - target: {fileID: 224052607740981082, guid: 6fdea669247a16a4a905c0205db975b0,
        type: 3}
      propertyPath: m_LocalPosition.x
      value: 10
      objectReference: {fileID: 0}
    - target: {fileID: 224052607740981082, guid: 6fdea669247a16a4a905c0205db975b0,
        type: 3}
      propertyPath: m_LocalPosition.y
      value: 0.000022888184
      objectReference: {fileID: 0}
    - target: {fileID: 224065380548709762, guid: 6fdea669247a16a4a905c0205db975b0,
        type: 3}
      propertyPath: m_LocalPosition.y
      value: -0.00024414062
      objectReference: {fileID: 0}
    - target: {fileID: 224117732302002716, guid: 6fdea669247a16a4a905c0205db975b0,
        type: 3}
      propertyPath: m_LocalPosition.x
      value: 0
      objectReference: {fileID: 0}
    - target: {fileID: 224117732302002716, guid: 6fdea669247a16a4a905c0205db975b0,
        type: 3}
      propertyPath: m_LocalPosition.y
      value: 6.4799957
      objectReference: {fileID: 0}
    - target: {fileID: 224119749075162880, guid: 6fdea669247a16a4a905c0205db975b0,
        type: 3}
      propertyPath: m_LocalPosition.x
      value: -24
      objectReference: {fileID: 0}
    - target: {fileID: 224119749075162880, guid: 6fdea669247a16a4a905c0205db975b0,
        type: 3}
      propertyPath: m_LocalPosition.y
      value: -2.499977
      objectReference: {fileID: 0}
    - target: {fileID: 224132581747479264, guid: 6fdea669247a16a4a905c0205db975b0,
        type: 3}
      propertyPath: m_LocalPosition.x
      value: 0
      objectReference: {fileID: 0}
    - target: {fileID: 224138625094974544, guid: 6fdea669247a16a4a905c0205db975b0,
        type: 3}
      propertyPath: m_LocalPosition.x
      value: 0
      objectReference: {fileID: 0}
    - target: {fileID: 224138625094974544, guid: 6fdea669247a16a4a905c0205db975b0,
        type: 3}
      propertyPath: m_LocalPosition.y
      value: 42.480057
      objectReference: {fileID: 0}
    - target: {fileID: 224154214046042264, guid: 6fdea669247a16a4a905c0205db975b0,
        type: 3}
      propertyPath: m_LocalPosition.x
      value: 0
      objectReference: {fileID: 0}
    - target: {fileID: 224154214046042264, guid: 6fdea669247a16a4a905c0205db975b0,
        type: 3}
      propertyPath: m_LocalPosition.y
      value: -54.5
      objectReference: {fileID: 0}
    - target: {fileID: 224157394003361050, guid: 6fdea669247a16a4a905c0205db975b0,
        type: 3}
      propertyPath: m_LocalPosition.x
      value: 0
      objectReference: {fileID: 0}
    - target: {fileID: 224157394003361050, guid: 6fdea669247a16a4a905c0205db975b0,
        type: 3}
      propertyPath: m_LocalPosition.y
      value: 137.75
      objectReference: {fileID: 0}
    - target: {fileID: 224168826258610042, guid: 6fdea669247a16a4a905c0205db975b0,
        type: 3}
      propertyPath: m_LocalPosition.x
      value: -10
      objectReference: {fileID: 0}
    - target: {fileID: 224175417779202100, guid: 6fdea669247a16a4a905c0205db975b0,
        type: 3}
      propertyPath: m_LocalPosition.x
      value: 0
      objectReference: {fileID: 0}
    - target: {fileID: 224175417779202100, guid: 6fdea669247a16a4a905c0205db975b0,
        type: 3}
      propertyPath: m_LocalPosition.y
      value: 206.98004
      objectReference: {fileID: 0}
    - target: {fileID: 224187337208776482, guid: 6fdea669247a16a4a905c0205db975b0,
        type: 3}
      propertyPath: m_LocalPosition.x
      value: -136.5
      objectReference: {fileID: 0}
    - target: {fileID: 224187337208776482, guid: 6fdea669247a16a4a905c0205db975b0,
        type: 3}
      propertyPath: m_LocalPosition.y
      value: -0.00024414062
      objectReference: {fileID: 0}
    - target: {fileID: 224193850602993658, guid: 6fdea669247a16a4a905c0205db975b0,
        type: 3}
      propertyPath: m_LocalPosition.x
      value: -77.5
      objectReference: {fileID: 0}
    - target: {fileID: 224204175912227344, guid: 6fdea669247a16a4a905c0205db975b0,
        type: 3}
      propertyPath: m_LocalPosition.x
      value: 0
      objectReference: {fileID: 0}
    - target: {fileID: 224204175912227344, guid: 6fdea669247a16a4a905c0205db975b0,
        type: 3}
      propertyPath: m_LocalPosition.y
      value: 6.4799957
      objectReference: {fileID: 0}
    - target: {fileID: 224222913321753642, guid: 6fdea669247a16a4a905c0205db975b0,
        type: 3}
      propertyPath: m_LocalPosition.y
      value: 0
      objectReference: {fileID: 0}
    - target: {fileID: 224222913321753642, guid: 6fdea669247a16a4a905c0205db975b0,
        type: 3}
      propertyPath: m_AnchorMin.x
      value: 0
      objectReference: {fileID: 0}
    - target: {fileID: 224222913321753642, guid: 6fdea669247a16a4a905c0205db975b0,
        type: 3}
      propertyPath: m_AnchorMin.y
      value: 0
      objectReference: {fileID: 0}
    - target: {fileID: 224222913321753642, guid: 6fdea669247a16a4a905c0205db975b0,
        type: 3}
      propertyPath: m_AnchorMax.x
      value: 0
      objectReference: {fileID: 0}
    - target: {fileID: 224222913321753642, guid: 6fdea669247a16a4a905c0205db975b0,
        type: 3}
      propertyPath: m_AnchorMax.y
      value: 0
      objectReference: {fileID: 0}
    - target: {fileID: 224228473927873872, guid: 6fdea669247a16a4a905c0205db975b0,
        type: 3}
      propertyPath: m_LocalPosition.x
      value: 0
      objectReference: {fileID: 0}
    - target: {fileID: 224228473927873872, guid: 6fdea669247a16a4a905c0205db975b0,
        type: 3}
      propertyPath: m_LocalPosition.y
      value: -239.5
      objectReference: {fileID: 0}
    - target: {fileID: 224244020170584834, guid: 6fdea669247a16a4a905c0205db975b0,
        type: 3}
      propertyPath: m_LocalPosition.x
      value: 0
      objectReference: {fileID: 0}
    - target: {fileID: 224244020170584834, guid: 6fdea669247a16a4a905c0205db975b0,
        type: 3}
      propertyPath: m_LocalPosition.y
      value: -2.5
      objectReference: {fileID: 0}
    - target: {fileID: 224258496030728248, guid: 6fdea669247a16a4a905c0205db975b0,
        type: 3}
      propertyPath: m_LocalPosition.x
      value: -45.5
      objectReference: {fileID: 0}
    - target: {fileID: 224258496030728248, guid: 6fdea669247a16a4a905c0205db975b0,
        type: 3}
      propertyPath: m_LocalPosition.y
      value: 9.499756
      objectReference: {fileID: 0}
    - target: {fileID: 224263408355386486, guid: 6fdea669247a16a4a905c0205db975b0,
        type: 3}
      propertyPath: m_LocalPosition.x
      value: 24
      objectReference: {fileID: 0}
    - target: {fileID: 224263408355386486, guid: 6fdea669247a16a4a905c0205db975b0,
        type: 3}
      propertyPath: m_LocalPosition.y
      value: -2.499977
      objectReference: {fileID: 0}
    - target: {fileID: 224273255317023112, guid: 6fdea669247a16a4a905c0205db975b0,
        type: 3}
      propertyPath: m_LocalPosition.x
      value: 0
      objectReference: {fileID: 0}
    - target: {fileID: 224273255317023112, guid: 6fdea669247a16a4a905c0205db975b0,
        type: 3}
      propertyPath: m_LocalPosition.y
      value: 105.00003
      objectReference: {fileID: 0}
    - target: {fileID: 224274021952817394, guid: 6fdea669247a16a4a905c0205db975b0,
        type: 3}
      propertyPath: m_LocalPosition.x
      value: 0
      objectReference: {fileID: 0}
    - target: {fileID: 224274021952817394, guid: 6fdea669247a16a4a905c0205db975b0,
        type: 3}
      propertyPath: m_LocalPosition.y
      value: 224.48004
      objectReference: {fileID: 0}
    - target: {fileID: 224275726075289580, guid: 6fdea669247a16a4a905c0205db975b0,
        type: 3}
      propertyPath: m_LocalPosition.x
      value: 0
      objectReference: {fileID: 0}
    - target: {fileID: 224275726075289580, guid: 6fdea669247a16a4a905c0205db975b0,
        type: 3}
      propertyPath: m_LocalPosition.y
      value: -7.4999924
      objectReference: {fileID: 0}
    - target: {fileID: 224282958126328328, guid: 6fdea669247a16a4a905c0205db975b0,
        type: 3}
      propertyPath: m_LocalPosition.x
      value: 0
      objectReference: {fileID: 0}
    - target: {fileID: 224295368517015270, guid: 6fdea669247a16a4a905c0205db975b0,
        type: 3}
      propertyPath: m_LocalPosition.x
      value: 0
      objectReference: {fileID: 0}
    - target: {fileID: 224295368517015270, guid: 6fdea669247a16a4a905c0205db975b0,
        type: 3}
      propertyPath: m_LocalPosition.y
      value: 194.48
      objectReference: {fileID: 0}
    - target: {fileID: 224311079609732128, guid: 6fdea669247a16a4a905c0205db975b0,
        type: 3}
      propertyPath: m_LocalPosition.x
      value: 0
      objectReference: {fileID: 0}
    - target: {fileID: 224311079609732128, guid: 6fdea669247a16a4a905c0205db975b0,
        type: 3}
      propertyPath: m_LocalPosition.y
      value: 57.999992
      objectReference: {fileID: 0}
    - target: {fileID: 224340852153497426, guid: 6fdea669247a16a4a905c0205db975b0,
        type: 3}
      propertyPath: m_LocalPosition.x
      value: 0
      objectReference: {fileID: 0}
    - target: {fileID: 224340852153497426, guid: 6fdea669247a16a4a905c0205db975b0,
        type: 3}
      propertyPath: m_LocalPosition.y
      value: 0
      objectReference: {fileID: 0}
    - target: {fileID: 224351522944130370, guid: 6fdea669247a16a4a905c0205db975b0,
        type: 3}
      propertyPath: m_LocalPosition.x
      value: 0
      objectReference: {fileID: 0}
    - target: {fileID: 224351522944130370, guid: 6fdea669247a16a4a905c0205db975b0,
        type: 3}
      propertyPath: m_LocalPosition.y
      value: 17.480057
      objectReference: {fileID: 0}
    - target: {fileID: 224357580367203324, guid: 6fdea669247a16a4a905c0205db975b0,
        type: 3}
      propertyPath: m_LocalPosition.x
      value: -30
      objectReference: {fileID: 0}
    - target: {fileID: 224357580367203324, guid: 6fdea669247a16a4a905c0205db975b0,
        type: 3}
      propertyPath: m_LocalPosition.y
      value: 0.000022888184
      objectReference: {fileID: 0}
    - target: {fileID: 224360323664650156, guid: 6fdea669247a16a4a905c0205db975b0,
        type: 3}
      propertyPath: m_LocalPosition.x
      value: 0
      objectReference: {fileID: 0}
    - target: {fileID: 224360323664650156, guid: 6fdea669247a16a4a905c0205db975b0,
        type: 3}
      propertyPath: m_LocalPosition.y
      value: 105.750046
      objectReference: {fileID: 0}
    - target: {fileID: 224366067967235716, guid: 6fdea669247a16a4a905c0205db975b0,
        type: 3}
      propertyPath: m_LocalPosition.x
      value: 136.5
      objectReference: {fileID: 0}
    - target: {fileID: 224366067967235716, guid: 6fdea669247a16a4a905c0205db975b0,
        type: 3}
      propertyPath: m_LocalPosition.y
      value: 9.499756
      objectReference: {fileID: 0}
    - target: {fileID: 224367340293618438, guid: 6fdea669247a16a4a905c0205db975b0,
        type: 3}
      propertyPath: m_LocalPosition.x
      value: 0
      objectReference: {fileID: 0}
    - target: {fileID: 224367340293618438, guid: 6fdea669247a16a4a905c0205db975b0,
        type: 3}
      propertyPath: m_LocalPosition.y
      value: 34.499985
      objectReference: {fileID: 0}
    - target: {fileID: 224370856591768108, guid: 6fdea669247a16a4a905c0205db975b0,
        type: 3}
      propertyPath: m_LocalPosition.x
      value: 0
      objectReference: {fileID: 0}
    - target: {fileID: 224379870020593376, guid: 6fdea669247a16a4a905c0205db975b0,
        type: 3}
      propertyPath: m_LocalPosition.y
      value: 0
      objectReference: {fileID: 0}
    - target: {fileID: 224379870020593376, guid: 6fdea669247a16a4a905c0205db975b0,
        type: 3}
      propertyPath: m_AnchorMin.x
      value: 0
      objectReference: {fileID: 0}
    - target: {fileID: 224379870020593376, guid: 6fdea669247a16a4a905c0205db975b0,
        type: 3}
      propertyPath: m_AnchorMin.y
      value: 0
      objectReference: {fileID: 0}
    - target: {fileID: 224379870020593376, guid: 6fdea669247a16a4a905c0205db975b0,
        type: 3}
      propertyPath: m_AnchorMax.x
      value: 0
      objectReference: {fileID: 0}
    - target: {fileID: 224379870020593376, guid: 6fdea669247a16a4a905c0205db975b0,
        type: 3}
      propertyPath: m_AnchorMax.y
      value: 0
      objectReference: {fileID: 0}
    - target: {fileID: 224400216963333620, guid: 6fdea669247a16a4a905c0205db975b0,
        type: 3}
      propertyPath: m_LocalPosition.x
      value: 0
      objectReference: {fileID: 0}
    - target: {fileID: 224400216963333620, guid: 6fdea669247a16a4a905c0205db975b0,
        type: 3}
      propertyPath: m_LocalPosition.y
      value: 56.750015
      objectReference: {fileID: 0}
    - target: {fileID: 224405217452625784, guid: 6fdea669247a16a4a905c0205db975b0,
        type: 3}
      propertyPath: m_LocalPosition.x
      value: 0
      objectReference: {fileID: 0}
    - target: {fileID: 224405217452625784, guid: 6fdea669247a16a4a905c0205db975b0,
        type: 3}
      propertyPath: m_LocalPosition.y
      value: 0
      objectReference: {fileID: 0}
    - target: {fileID: 224405217452625784, guid: 6fdea669247a16a4a905c0205db975b0,
        type: 3}
      propertyPath: m_AnchoredPosition.y
      value: 0.000015258789
      objectReference: {fileID: 0}
    - target: {fileID: 224440918248599620, guid: 6fdea669247a16a4a905c0205db975b0,
        type: 3}
      propertyPath: m_LocalPosition.x
      value: 0
      objectReference: {fileID: 0}
    - target: {fileID: 224440918248599620, guid: 6fdea669247a16a4a905c0205db975b0,
        type: 3}
      propertyPath: m_LocalPosition.y
      value: 184.75003
      objectReference: {fileID: 0}
    - target: {fileID: 224500084815641290, guid: 6fdea669247a16a4a905c0205db975b0,
        type: 3}
      propertyPath: m_LocalPosition.x
      value: 10
      objectReference: {fileID: 0}
    - target: {fileID: 224500084815641290, guid: 6fdea669247a16a4a905c0205db975b0,
        type: 3}
      propertyPath: m_LocalPosition.y
      value: 0.000022888184
      objectReference: {fileID: 0}
    - target: {fileID: 224535278158676812, guid: 6fdea669247a16a4a905c0205db975b0,
        type: 3}
      propertyPath: m_LocalPosition.x
      value: 0
      objectReference: {fileID: 0}
    - target: {fileID: 224535278158676812, guid: 6fdea669247a16a4a905c0205db975b0,
        type: 3}
      propertyPath: m_LocalPosition.y
      value: 0
      objectReference: {fileID: 0}
    - target: {fileID: 224553143904791820, guid: 6fdea669247a16a4a905c0205db975b0,
        type: 3}
      propertyPath: m_LocalPosition.x
      value: 0
      objectReference: {fileID: 0}
    - target: {fileID: 224553143904791820, guid: 6fdea669247a16a4a905c0205db975b0,
        type: 3}
      propertyPath: m_LocalPosition.y
      value: 0
      objectReference: {fileID: 0}
    - target: {fileID: 224574735452520956, guid: 6fdea669247a16a4a905c0205db975b0,
        type: 3}
      propertyPath: m_LocalPosition.x
      value: 0
      objectReference: {fileID: 0}
    - target: {fileID: 224574735452520956, guid: 6fdea669247a16a4a905c0205db975b0,
        type: 3}
      propertyPath: m_LocalPosition.y
      value: 206.98004
      objectReference: {fileID: 0}
    - target: {fileID: 224575856879748362, guid: 6fdea669247a16a4a905c0205db975b0,
        type: 3}
      propertyPath: m_LocalPosition.x
      value: 30
      objectReference: {fileID: 0}
    - target: {fileID: 224575856879748362, guid: 6fdea669247a16a4a905c0205db975b0,
        type: 3}
      propertyPath: m_LocalPosition.y
      value: -0.00000047683716
      objectReference: {fileID: 0}
    - target: {fileID: 224579037587696402, guid: 6fdea669247a16a4a905c0205db975b0,
        type: 3}
      propertyPath: m_LocalPosition.x
      value: 0
      objectReference: {fileID: 0}
    - target: {fileID: 224579037587696402, guid: 6fdea669247a16a4a905c0205db975b0,
        type: 3}
      propertyPath: m_LocalPosition.y
      value: 6.4799957
      objectReference: {fileID: 0}
    - target: {fileID: 224593852787725600, guid: 6fdea669247a16a4a905c0205db975b0,
        type: 3}
      propertyPath: m_LocalPosition.x
      value: 30
      objectReference: {fileID: 0}
    - target: {fileID: 224593852787725600, guid: 6fdea669247a16a4a905c0205db975b0,
        type: 3}
      propertyPath: m_LocalPosition.y
      value: 0.000019073486
      objectReference: {fileID: 0}
    - target: {fileID: 224596979716419442, guid: 6fdea669247a16a4a905c0205db975b0,
        type: 3}
      propertyPath: m_LocalPosition.x
      value: -10
      objectReference: {fileID: 0}
    - target: {fileID: 224604983345850596, guid: 6fdea669247a16a4a905c0205db975b0,
        type: 3}
      propertyPath: m_LocalPosition.x
      value: 0
      objectReference: {fileID: 0}
    - target: {fileID: 224604983345850596, guid: 6fdea669247a16a4a905c0205db975b0,
        type: 3}
      propertyPath: m_LocalPosition.y
      value: 206.98004
      objectReference: {fileID: 0}
    - target: {fileID: 224614410293427526, guid: 6fdea669247a16a4a905c0205db975b0,
        type: 3}
      propertyPath: m_LocalPosition.x
      value: 30
      objectReference: {fileID: 0}
    - target: {fileID: 224614410293427526, guid: 6fdea669247a16a4a905c0205db975b0,
        type: 3}
      propertyPath: m_LocalPosition.y
      value: -0.000012397766
      objectReference: {fileID: 0}
    - target: {fileID: 224618641779322694, guid: 6fdea669247a16a4a905c0205db975b0,
        type: 3}
      propertyPath: m_LocalPosition.y
      value: 0
      objectReference: {fileID: 0}
    - target: {fileID: 224618641779322694, guid: 6fdea669247a16a4a905c0205db975b0,
        type: 3}
      propertyPath: m_AnchorMin.x
      value: 0
      objectReference: {fileID: 0}
    - target: {fileID: 224618641779322694, guid: 6fdea669247a16a4a905c0205db975b0,
        type: 3}
      propertyPath: m_AnchorMin.y
      value: 0
      objectReference: {fileID: 0}
    - target: {fileID: 224618641779322694, guid: 6fdea669247a16a4a905c0205db975b0,
        type: 3}
      propertyPath: m_AnchorMax.x
      value: 0
      objectReference: {fileID: 0}
    - target: {fileID: 224618641779322694, guid: 6fdea669247a16a4a905c0205db975b0,
        type: 3}
      propertyPath: m_AnchorMax.y
      value: 0
      objectReference: {fileID: 0}
    - target: {fileID: 224648644201381300, guid: 6fdea669247a16a4a905c0205db975b0,
        type: 3}
      propertyPath: m_LocalPosition.x
      value: -45.5
      objectReference: {fileID: 0}
    - target: {fileID: 224648644201381300, guid: 6fdea669247a16a4a905c0205db975b0,
        type: 3}
      propertyPath: m_LocalPosition.y
      value: -0.00024414062
      objectReference: {fileID: 0}
    - target: {fileID: 224658500160131364, guid: 6fdea669247a16a4a905c0205db975b0,
        type: 3}
      propertyPath: m_LocalPosition.x
      value: 0
      objectReference: {fileID: 0}
    - target: {fileID: 224658500160131364, guid: 6fdea669247a16a4a905c0205db975b0,
        type: 3}
      propertyPath: m_LocalPosition.y
      value: -3.2499695
      objectReference: {fileID: 0}
    - target: {fileID: 224672920770636392, guid: 6fdea669247a16a4a905c0205db975b0,
        type: 3}
      propertyPath: m_LocalPosition.x
      value: 0
      objectReference: {fileID: 0}
    - target: {fileID: 224672920770636392, guid: 6fdea669247a16a4a905c0205db975b0,
        type: 3}
      propertyPath: m_LocalPosition.y
      value: 194.48
      objectReference: {fileID: 0}
    - target: {fileID: 224675653233923704, guid: 6fdea669247a16a4a905c0205db975b0,
        type: 3}
      propertyPath: m_LocalPosition.x
      value: 0
      objectReference: {fileID: 0}
    - target: {fileID: 224675653233923704, guid: 6fdea669247a16a4a905c0205db975b0,
        type: 3}
      propertyPath: m_LocalPosition.y
      value: 34.49997
      objectReference: {fileID: 0}
    - target: {fileID: 224677437514001802, guid: 6fdea669247a16a4a905c0205db975b0,
        type: 3}
      propertyPath: m_LocalPosition.x
      value: 0
      objectReference: {fileID: 0}
    - target: {fileID: 224677437514001802, guid: 6fdea669247a16a4a905c0205db975b0,
        type: 3}
      propertyPath: m_LocalPosition.y
      value: 172.47998
      objectReference: {fileID: 0}
    - target: {fileID: 224678775909107328, guid: 6fdea669247a16a4a905c0205db975b0,
        type: 3}
      propertyPath: m_LocalPosition.x
      value: 0
      objectReference: {fileID: 0}
    - target: {fileID: 224678775909107328, guid: 6fdea669247a16a4a905c0205db975b0,
        type: 3}
      propertyPath: m_LocalPosition.y
      value: 0
      objectReference: {fileID: 0}
    - target: {fileID: 224678775909107328, guid: 6fdea669247a16a4a905c0205db975b0,
        type: 3}
      propertyPath: m_LocalRotation.x
      value: 0
      objectReference: {fileID: 0}
    - target: {fileID: 224678775909107328, guid: 6fdea669247a16a4a905c0205db975b0,
        type: 3}
      propertyPath: m_LocalRotation.y
      value: 0
      objectReference: {fileID: 0}
    - target: {fileID: 224678775909107328, guid: 6fdea669247a16a4a905c0205db975b0,
        type: 3}
      propertyPath: m_LocalRotation.z
      value: 0
      objectReference: {fileID: 0}
    - target: {fileID: 224678775909107328, guid: 6fdea669247a16a4a905c0205db975b0,
        type: 3}
      propertyPath: m_LocalRotation.w
      value: 1
      objectReference: {fileID: 0}
    - target: {fileID: 224678775909107328, guid: 6fdea669247a16a4a905c0205db975b0,
        type: 3}
      propertyPath: m_LocalPosition.z
      value: 0
      objectReference: {fileID: 0}
    - target: {fileID: 224678775909107328, guid: 6fdea669247a16a4a905c0205db975b0,
        type: 3}
      propertyPath: m_LocalScale.x
      value: 0
      objectReference: {fileID: 0}
    - target: {fileID: 224678775909107328, guid: 6fdea669247a16a4a905c0205db975b0,
        type: 3}
      propertyPath: m_LocalScale.y
      value: 0
      objectReference: {fileID: 0}
    - target: {fileID: 224678775909107328, guid: 6fdea669247a16a4a905c0205db975b0,
        type: 3}
      propertyPath: m_LocalScale.z
      value: 0
      objectReference: {fileID: 0}
    - target: {fileID: 224678775909107328, guid: 6fdea669247a16a4a905c0205db975b0,
        type: 3}
      propertyPath: m_AnchoredPosition.x
      value: 0
      objectReference: {fileID: 0}
    - target: {fileID: 224678775909107328, guid: 6fdea669247a16a4a905c0205db975b0,
        type: 3}
      propertyPath: m_AnchoredPosition.y
      value: 0
      objectReference: {fileID: 0}
    - target: {fileID: 224678775909107328, guid: 6fdea669247a16a4a905c0205db975b0,
        type: 3}
      propertyPath: m_SizeDelta.x
      value: 0
      objectReference: {fileID: 0}
    - target: {fileID: 224678775909107328, guid: 6fdea669247a16a4a905c0205db975b0,
        type: 3}
      propertyPath: m_SizeDelta.y
      value: 0
      objectReference: {fileID: 0}
    - target: {fileID: 224694638602270862, guid: 6fdea669247a16a4a905c0205db975b0,
        type: 3}
      propertyPath: m_LocalPosition.x
      value: 0
      objectReference: {fileID: 0}
    - target: {fileID: 224723134054966964, guid: 6fdea669247a16a4a905c0205db975b0,
        type: 3}
      propertyPath: m_LocalPosition.y
      value: 9.499756
      objectReference: {fileID: 0}
    - target: {fileID: 224735048829777054, guid: 6fdea669247a16a4a905c0205db975b0,
        type: 3}
      propertyPath: m_LocalPosition.x
      value: 0
      objectReference: {fileID: 0}
    - target: {fileID: 224735048829777054, guid: 6fdea669247a16a4a905c0205db975b0,
        type: 3}
      propertyPath: m_LocalPosition.y
      value: -52.250015
      objectReference: {fileID: 0}
    - target: {fileID: 224749926919874388, guid: 6fdea669247a16a4a905c0205db975b0,
        type: 3}
      propertyPath: m_LocalPosition.x
      value: 0
      objectReference: {fileID: 0}
    - target: {fileID: 224749926919874388, guid: 6fdea669247a16a4a905c0205db975b0,
        type: 3}
      propertyPath: m_LocalPosition.y
      value: 154.75
      objectReference: {fileID: 0}
    - target: {fileID: 224764903818661034, guid: 6fdea669247a16a4a905c0205db975b0,
        type: 3}
      propertyPath: m_LocalPosition.x
      value: 10
      objectReference: {fileID: 0}
    - target: {fileID: 224764903818661034, guid: 6fdea669247a16a4a905c0205db975b0,
        type: 3}
      propertyPath: m_LocalPosition.y
      value: 0.000022888184
      objectReference: {fileID: 0}
    - target: {fileID: 224773081249002374, guid: 6fdea669247a16a4a905c0205db975b0,
        type: 3}
      propertyPath: m_LocalPosition.x
      value: 0
      objectReference: {fileID: 0}
    - target: {fileID: 224773081249002374, guid: 6fdea669247a16a4a905c0205db975b0,
        type: 3}
      propertyPath: m_LocalPosition.y
      value: 105.00002
      objectReference: {fileID: 0}
    - target: {fileID: 224791132743439150, guid: 6fdea669247a16a4a905c0205db975b0,
        type: 3}
      propertyPath: m_AnchorMin.x
      value: 0
      objectReference: {fileID: 0}
    - target: {fileID: 224791132743439150, guid: 6fdea669247a16a4a905c0205db975b0,
        type: 3}
      propertyPath: m_AnchorMin.y
      value: 0
      objectReference: {fileID: 0}
    - target: {fileID: 224791132743439150, guid: 6fdea669247a16a4a905c0205db975b0,
        type: 3}
      propertyPath: m_AnchorMax.x
      value: 0
      objectReference: {fileID: 0}
    - target: {fileID: 224791132743439150, guid: 6fdea669247a16a4a905c0205db975b0,
        type: 3}
      propertyPath: m_AnchorMax.y
      value: 0
      objectReference: {fileID: 0}
    - target: {fileID: 224805127880884810, guid: 6fdea669247a16a4a905c0205db975b0,
        type: 3}
      propertyPath: m_LocalPosition.x
      value: 0
      objectReference: {fileID: 0}
    - target: {fileID: 224805127880884810, guid: 6fdea669247a16a4a905c0205db975b0,
        type: 3}
      propertyPath: m_LocalPosition.y
      value: 89.47999
      objectReference: {fileID: 0}
    - target: {fileID: 224809015380722616, guid: 6fdea669247a16a4a905c0205db975b0,
        type: 3}
      propertyPath: m_LocalPosition.x
      value: 0
      objectReference: {fileID: 0}
    - target: {fileID: 224809015380722616, guid: 6fdea669247a16a4a905c0205db975b0,
        type: 3}
      propertyPath: m_LocalPosition.y
      value: 89.47999
      objectReference: {fileID: 0}
    - target: {fileID: 224820021146621764, guid: 6fdea669247a16a4a905c0205db975b0,
        type: 3}
      propertyPath: m_LocalPosition.x
      value: 0
      objectReference: {fileID: 0}
    - target: {fileID: 224823374183294946, guid: 6fdea669247a16a4a905c0205db975b0,
        type: 3}
      propertyPath: m_LocalPosition.x
      value: -30
      objectReference: {fileID: 0}
    - target: {fileID: 224823374183294946, guid: 6fdea669247a16a4a905c0205db975b0,
        type: 3}
      propertyPath: m_LocalPosition.y
      value: 0.000022888184
      objectReference: {fileID: 0}
    - target: {fileID: 224826126068896182, guid: 6fdea669247a16a4a905c0205db975b0,
        type: 3}
      propertyPath: m_LocalPosition.x
      value: 0
      objectReference: {fileID: 0}
    - target: {fileID: 224826126068896182, guid: 6fdea669247a16a4a905c0205db975b0,
        type: 3}
      propertyPath: m_LocalPosition.y
      value: 8.500015
      objectReference: {fileID: 0}
    - target: {fileID: 224845528504871312, guid: 6fdea669247a16a4a905c0205db975b0,
        type: 3}
      propertyPath: m_LocalPosition.x
      value: 0
      objectReference: {fileID: 0}
    - target: {fileID: 224845528504871312, guid: 6fdea669247a16a4a905c0205db975b0,
        type: 3}
      propertyPath: m_LocalPosition.y
      value: 0
      objectReference: {fileID: 0}
    - target: {fileID: 224849595222085774, guid: 6fdea669247a16a4a905c0205db975b0,
        type: 3}
      propertyPath: m_LocalPosition.x
      value: -10
      objectReference: {fileID: 0}
    - target: {fileID: 224853848161060666, guid: 6fdea669247a16a4a905c0205db975b0,
        type: 3}
      propertyPath: m_LocalPosition.x
      value: 0
      objectReference: {fileID: 0}
    - target: {fileID: 224853848161060666, guid: 6fdea669247a16a4a905c0205db975b0,
        type: 3}
      propertyPath: m_LocalPosition.y
      value: 150.24997
      objectReference: {fileID: 0}
    - target: {fileID: 224872106517017568, guid: 6fdea669247a16a4a905c0205db975b0,
        type: 3}
      propertyPath: m_LocalPosition.x
      value: -30
      objectReference: {fileID: 0}
    - target: {fileID: 224872106517017568, guid: 6fdea669247a16a4a905c0205db975b0,
        type: 3}
      propertyPath: m_LocalPosition.y
      value: 0.000022888184
      objectReference: {fileID: 0}
    - target: {fileID: 224875933252592406, guid: 6fdea669247a16a4a905c0205db975b0,
        type: 3}
      propertyPath: m_LocalPosition.x
      value: -121
      objectReference: {fileID: 0}
    - target: {fileID: 224875933252592406, guid: 6fdea669247a16a4a905c0205db975b0,
        type: 3}
      propertyPath: m_LocalPosition.y
      value: 12.5000305
      objectReference: {fileID: 0}
    - target: {fileID: 224903685516316414, guid: 6fdea669247a16a4a905c0205db975b0,
        type: 3}
      propertyPath: m_LocalPosition.x
      value: 136.5
      objectReference: {fileID: 0}
    - target: {fileID: 224903685516316414, guid: 6fdea669247a16a4a905c0205db975b0,
        type: 3}
      propertyPath: m_LocalPosition.y
      value: -0.00024414062
      objectReference: {fileID: 0}
    - target: {fileID: 224912736538028344, guid: 6fdea669247a16a4a905c0205db975b0,
        type: 3}
      propertyPath: m_LocalPosition.x
      value: 0
      objectReference: {fileID: 0}
    - target: {fileID: 224912736538028344, guid: 6fdea669247a16a4a905c0205db975b0,
        type: 3}
      propertyPath: m_LocalPosition.y
      value: -21.00003
      objectReference: {fileID: 0}
    - target: {fileID: 224913994874275938, guid: 6fdea669247a16a4a905c0205db975b0,
        type: 3}
      propertyPath: m_LocalPosition.x
      value: 0
      objectReference: {fileID: 0}
    - target: {fileID: 224917480724335732, guid: 6fdea669247a16a4a905c0205db975b0,
        type: 3}
      propertyPath: m_LocalPosition.x
      value: 0
      objectReference: {fileID: 0}
    - target: {fileID: 224917480724335732, guid: 6fdea669247a16a4a905c0205db975b0,
        type: 3}
      propertyPath: m_LocalPosition.y
      value: 0
      objectReference: {fileID: 0}
    - target: {fileID: 224927940200697782, guid: 6fdea669247a16a4a905c0205db975b0,
        type: 3}
      propertyPath: m_LocalPosition.x
      value: 0
      objectReference: {fileID: 0}
    - target: {fileID: 224927940200697782, guid: 6fdea669247a16a4a905c0205db975b0,
        type: 3}
      propertyPath: m_LocalPosition.y
      value: 70.49997
      objectReference: {fileID: 0}
    - target: {fileID: 224941524783770896, guid: 6fdea669247a16a4a905c0205db975b0,
        type: 3}
      propertyPath: m_LocalPosition.x
      value: -136.5
      objectReference: {fileID: 0}
    - target: {fileID: 224941524783770896, guid: 6fdea669247a16a4a905c0205db975b0,
        type: 3}
      propertyPath: m_LocalPosition.y
      value: 9.499756
      objectReference: {fileID: 0}
    - target: {fileID: 224984366459031448, guid: 6fdea669247a16a4a905c0205db975b0,
        type: 3}
      propertyPath: m_LocalPosition.x
      value: 0
      objectReference: {fileID: 0}
    - target: {fileID: 224984366459031448, guid: 6fdea669247a16a4a905c0205db975b0,
        type: 3}
      propertyPath: m_LocalPosition.y
      value: 206.98004
      objectReference: {fileID: 0}
    m_RemovedComponents: []
  m_SourcePrefab: {fileID: 100100000, guid: 6fdea669247a16a4a905c0205db975b0, type: 3}
--- !u!1 &548819826
GameObject:
  m_ObjectHideFlags: 0
  m_CorrespondingSourceObject: {fileID: 0}
  m_PrefabInstance: {fileID: 0}
  m_PrefabAsset: {fileID: 0}
  serializedVersion: 6
  m_Component:
  - component: {fileID: 548819828}
  - component: {fileID: 548819827}
  m_Layer: 0
  m_Name: Reflection Probe
  m_TagString: Untagged
  m_Icon: {fileID: 0}
  m_NavMeshLayer: 0
  m_StaticEditorFlags: 0
  m_IsActive: 1
--- !u!215 &548819827
ReflectionProbe:
  m_ObjectHideFlags: 0
  m_CorrespondingSourceObject: {fileID: 0}
  m_PrefabInstance: {fileID: 0}
  m_PrefabAsset: {fileID: 0}
  m_GameObject: {fileID: 548819826}
  m_Enabled: 1
  serializedVersion: 2
  m_Type: 0
  m_Mode: 0
  m_RefreshMode: 0
  m_TimeSlicingMode: 0
  m_Resolution: 128
  m_UpdateFrequency: 0
  m_BoxSize: {x: 25, y: 6, z: 25}
  m_BoxOffset: {x: 0, y: 0, z: 0}
  m_NearClip: 0.3
  m_FarClip: 1000
  m_ShadowDistance: 100
  m_ClearFlags: 1
  m_BackGroundColor: {r: 1, g: 1, b: 1, a: 0}
  m_CullingMask:
    serializedVersion: 2
    m_Bits: 4294967295
  m_IntensityMultiplier: 1
  m_BlendDistance: 1
  m_HDR: 1
  m_BoxProjection: 1
  m_RenderDynamicObjects: 0
  m_UseOcclusionCulling: 1
  m_Importance: 1
  m_CustomBakedTexture: {fileID: 0}
--- !u!4 &548819828
Transform:
  m_ObjectHideFlags: 0
  m_CorrespondingSourceObject: {fileID: 0}
  m_PrefabInstance: {fileID: 0}
  m_PrefabAsset: {fileID: 0}
  m_GameObject: {fileID: 548819826}
  m_LocalRotation: {x: -0, y: -0, z: -0, w: 1}
  m_LocalPosition: {x: -4.99, y: 2.5, z: 2.64}
  m_LocalScale: {x: 1, y: 1, z: 1}
  m_Children: []
  m_Father: {fileID: 1443702071}
  m_RootOrder: 1
  m_LocalEulerAnglesHint: {x: 0, y: 0, z: 0}
--- !u!1 &696735662
GameObject:
  m_ObjectHideFlags: 0
  m_CorrespondingSourceObject: {fileID: 0}
  m_PrefabInstance: {fileID: 0}
  m_PrefabAsset: {fileID: 0}
  serializedVersion: 6
  m_Component:
  - component: {fileID: 696735663}
  - component: {fileID: 696735666}
  - component: {fileID: 696735664}
  m_Layer: 0
  m_Name: Wall (3)
  m_TagString: Untagged
  m_Icon: {fileID: 0}
  m_NavMeshLayer: 0
  m_StaticEditorFlags: 0
  m_IsActive: 1
--- !u!4 &696735663
Transform:
  m_ObjectHideFlags: 0
  m_CorrespondingSourceObject: {fileID: 0}
  m_PrefabInstance: {fileID: 0}
  m_PrefabAsset: {fileID: 0}
  m_GameObject: {fileID: 696735662}
  m_LocalRotation: {x: 0.7071068, y: -0, z: -0, w: 0.7071068}
  m_LocalPosition: {x: -4.99, y: 2.45, z: 20.804605}
  m_LocalScale: {x: 25, y: 0.10000005, z: 5}
  m_Children: []
  m_Father: {fileID: 1212966189}
  m_RootOrder: 4
  m_LocalEulerAnglesHint: {x: 90, y: 0, z: 0}
--- !u!23 &696735664
MeshRenderer:
  m_ObjectHideFlags: 0
  m_CorrespondingSourceObject: {fileID: 0}
  m_PrefabInstance: {fileID: 0}
  m_PrefabAsset: {fileID: 0}
  m_GameObject: {fileID: 696735662}
  m_Enabled: 1
  m_CastShadows: 1
  m_ReceiveShadows: 1
  m_DynamicOccludee: 1
  m_MotionVectors: 1
  m_LightProbeUsage: 1
  m_ReflectionProbeUsage: 1
  m_RenderingLayerMask: 1
  m_RendererPriority: 0
  m_Materials:
  - {fileID: 2100000, guid: 8403a058daf0578439c78de21780e482, type: 2}
  m_StaticBatchInfo:
    firstSubMesh: 0
    subMeshCount: 0
  m_StaticBatchRoot: {fileID: 0}
  m_ProbeAnchor: {fileID: 0}
  m_LightProbeVolumeOverride: {fileID: 0}
  m_ScaleInLightmap: 1
  m_ReceiveGI: 1
  m_PreserveUVs: 1
  m_IgnoreNormalsForChartDetection: 0
  m_ImportantGI: 0
  m_StitchLightmapSeams: 0
  m_SelectedEditorRenderState: 3
  m_MinimumChartSize: 4
  m_AutoUVMaxDistance: 0.5
  m_AutoUVMaxAngle: 89
  m_LightmapParameters: {fileID: 0}
  m_SortingLayerID: 0
  m_SortingLayer: 0
  m_SortingOrder: 0
--- !u!33 &696735666
MeshFilter:
  m_ObjectHideFlags: 0
  m_CorrespondingSourceObject: {fileID: 0}
  m_PrefabInstance: {fileID: 0}
  m_PrefabAsset: {fileID: 0}
  m_GameObject: {fileID: 696735662}
  m_Mesh: {fileID: 10202, guid: 0000000000000000e000000000000000, type: 0}
--- !u!1 &1065394058
GameObject:
  m_ObjectHideFlags: 0
  m_CorrespondingSourceObject: {fileID: 0}
  m_PrefabInstance: {fileID: 0}
  m_PrefabAsset: {fileID: 0}
  serializedVersion: 6
  m_Component:
  - component: {fileID: 1065394059}
  - component: {fileID: 1065394062}
  - component: {fileID: 1065394060}
  m_Layer: 0
  m_Name: Wall (1)
  m_TagString: Untagged
  m_Icon: {fileID: 0}
  m_NavMeshLayer: 0
  m_StaticEditorFlags: 0
  m_IsActive: 1
--- !u!4 &1065394059
Transform:
  m_ObjectHideFlags: 0
  m_CorrespondingSourceObject: {fileID: 0}
  m_PrefabInstance: {fileID: 0}
  m_PrefabAsset: {fileID: 0}
  m_GameObject: {fileID: 1065394058}
  m_LocalRotation: {x: 0.7071068, y: -0, z: -0, w: 0.7071068}
  m_LocalPosition: {x: -5.09, y: 2.45, z: -4.0953956}
  m_LocalScale: {x: 25, y: 0.10000005, z: 5}
  m_Children: []
  m_Father: {fileID: 1212966189}
  m_RootOrder: 2
  m_LocalEulerAnglesHint: {x: 90, y: 0, z: 0}
--- !u!23 &1065394060
MeshRenderer:
  m_ObjectHideFlags: 0
  m_CorrespondingSourceObject: {fileID: 0}
  m_PrefabInstance: {fileID: 0}
  m_PrefabAsset: {fileID: 0}
  m_GameObject: {fileID: 1065394058}
  m_Enabled: 1
  m_CastShadows: 1
  m_ReceiveShadows: 1
  m_DynamicOccludee: 1
  m_MotionVectors: 1
  m_LightProbeUsage: 1
  m_ReflectionProbeUsage: 1
  m_RenderingLayerMask: 1
  m_RendererPriority: 0
  m_Materials:
  - {fileID: 2100000, guid: 8403a058daf0578439c78de21780e482, type: 2}
  m_StaticBatchInfo:
    firstSubMesh: 0
    subMeshCount: 0
  m_StaticBatchRoot: {fileID: 0}
  m_ProbeAnchor: {fileID: 0}
  m_LightProbeVolumeOverride: {fileID: 0}
  m_ScaleInLightmap: 1
  m_ReceiveGI: 1
  m_PreserveUVs: 1
  m_IgnoreNormalsForChartDetection: 0
  m_ImportantGI: 0
  m_StitchLightmapSeams: 0
  m_SelectedEditorRenderState: 3
  m_MinimumChartSize: 4
  m_AutoUVMaxDistance: 0.5
  m_AutoUVMaxAngle: 89
  m_LightmapParameters: {fileID: 0}
  m_SortingLayerID: 0
  m_SortingLayer: 0
  m_SortingOrder: 0
--- !u!33 &1065394062
MeshFilter:
  m_ObjectHideFlags: 0
  m_CorrespondingSourceObject: {fileID: 0}
  m_PrefabInstance: {fileID: 0}
  m_PrefabAsset: {fileID: 0}
  m_GameObject: {fileID: 1065394058}
  m_Mesh: {fileID: 10202, guid: 0000000000000000e000000000000000, type: 0}
--- !u!1 &1212966188
GameObject:
  m_ObjectHideFlags: 0
  m_CorrespondingSourceObject: {fileID: 0}
  m_PrefabInstance: {fileID: 0}
  m_PrefabAsset: {fileID: 0}
  serializedVersion: 6
  m_Component:
  - component: {fileID: 1212966189}
  m_Layer: 0
  m_Name: Base
  m_TagString: Untagged
  m_Icon: {fileID: 0}
  m_NavMeshLayer: 0
  m_StaticEditorFlags: 0
  m_IsActive: 1
--- !u!4 &1212966189
Transform:
  m_ObjectHideFlags: 0
  m_CorrespondingSourceObject: {fileID: 0}
  m_PrefabInstance: {fileID: 0}
  m_PrefabAsset: {fileID: 0}
  m_GameObject: {fileID: 1212966188}
  m_LocalRotation: {x: -0, y: -0, z: -0, w: 1}
  m_LocalPosition: {x: 0, y: 0, z: -5.714605}
  m_LocalScale: {x: 1, y: 1, z: 1}
  m_Children:
  - {fileID: 1553742881}
  - {fileID: 1703797291}
  - {fileID: 1065394059}
  - {fileID: 2092413385}
  - {fileID: 696735663}
  - {fileID: 1261156320}
  m_Father: {fileID: 1443702071}
  m_RootOrder: 0
  m_LocalEulerAnglesHint: {x: 0, y: 0, z: 0}
--- !u!1 &1261156319
GameObject:
  m_ObjectHideFlags: 0
  m_CorrespondingSourceObject: {fileID: 0}
  m_PrefabInstance: {fileID: 0}
  m_PrefabAsset: {fileID: 0}
  serializedVersion: 6
  m_Component:
  - component: {fileID: 1261156320}
  - component: {fileID: 1261156323}
  - component: {fileID: 1261156321}
  m_Layer: 0
  m_Name: Top
  m_TagString: Untagged
  m_Icon: {fileID: 0}
  m_NavMeshLayer: 0
  m_StaticEditorFlags: 0
  m_IsActive: 1
--- !u!4 &1261156320
Transform:
  m_ObjectHideFlags: 0
  m_CorrespondingSourceObject: {fileID: 0}
  m_PrefabInstance: {fileID: 0}
  m_PrefabAsset: {fileID: 0}
  m_GameObject: {fileID: 1261156319}
  m_LocalRotation: {x: -0, y: -0, z: -0, w: 1}
  m_LocalPosition: {x: -4.95, y: 5, z: 8.35}
  m_LocalScale: {x: 25, y: 0.099999994, z: 25}
  m_Children: []
  m_Father: {fileID: 1212966189}
  m_RootOrder: 5
  m_LocalEulerAnglesHint: {x: 0, y: 0, z: 0}
--- !u!23 &1261156321
MeshRenderer:
  m_ObjectHideFlags: 0
  m_CorrespondingSourceObject: {fileID: 0}
  m_PrefabInstance: {fileID: 0}
  m_PrefabAsset: {fileID: 0}
  m_GameObject: {fileID: 1261156319}
  m_Enabled: 1
  m_CastShadows: 1
  m_ReceiveShadows: 1
  m_DynamicOccludee: 1
  m_MotionVectors: 1
  m_LightProbeUsage: 1
  m_ReflectionProbeUsage: 1
  m_RenderingLayerMask: 1
  m_RendererPriority: 0
  m_Materials:
  - {fileID: 2100000, guid: 8403a058daf0578439c78de21780e482, type: 2}
  m_StaticBatchInfo:
    firstSubMesh: 0
    subMeshCount: 0
  m_StaticBatchRoot: {fileID: 0}
  m_ProbeAnchor: {fileID: 0}
  m_LightProbeVolumeOverride: {fileID: 0}
  m_ScaleInLightmap: 1
  m_ReceiveGI: 1
  m_PreserveUVs: 1
  m_IgnoreNormalsForChartDetection: 0
  m_ImportantGI: 0
  m_StitchLightmapSeams: 0
  m_SelectedEditorRenderState: 3
  m_MinimumChartSize: 4
  m_AutoUVMaxDistance: 0.5
  m_AutoUVMaxAngle: 89
  m_LightmapParameters: {fileID: 0}
  m_SortingLayerID: 0
  m_SortingLayer: 0
  m_SortingOrder: 0
--- !u!33 &1261156323
MeshFilter:
  m_ObjectHideFlags: 0
  m_CorrespondingSourceObject: {fileID: 0}
  m_PrefabInstance: {fileID: 0}
  m_PrefabAsset: {fileID: 0}
  m_GameObject: {fileID: 1261156319}
  m_Mesh: {fileID: 10202, guid: 0000000000000000e000000000000000, type: 0}
--- !u!1 &1443702070
GameObject:
  m_ObjectHideFlags: 0
  m_CorrespondingSourceObject: {fileID: 0}
  m_PrefabInstance: {fileID: 0}
  m_PrefabAsset: {fileID: 0}
  serializedVersion: 6
  m_Component:
  - component: {fileID: 1443702071}
  m_Layer: 0
  m_Name: Environment
  m_TagString: Untagged
  m_Icon: {fileID: 0}
  m_NavMeshLayer: 0
  m_StaticEditorFlags: 0
  m_IsActive: 1
--- !u!4 &1443702071
Transform:
  m_ObjectHideFlags: 0
  m_CorrespondingSourceObject: {fileID: 0}
  m_PrefabInstance: {fileID: 0}
  m_PrefabAsset: {fileID: 0}
  m_GameObject: {fileID: 1443702070}
  m_LocalRotation: {x: 0, y: 0, z: 0, w: 1}
  m_LocalPosition: {x: 4.99, y: 0, z: -2.64}
  m_LocalScale: {x: 1, y: 1, z: 1}
  m_Children:
  - {fileID: 1212966189}
  - {fileID: 548819828}
  m_Father: {fileID: 0}
  m_RootOrder: 1
  m_LocalEulerAnglesHint: {x: 0, y: 0, z: 0}
--- !u!1 &1553742880
GameObject:
  m_ObjectHideFlags: 0
  m_CorrespondingSourceObject: {fileID: 0}
  m_PrefabInstance: {fileID: 0}
  m_PrefabAsset: {fileID: 0}
  serializedVersion: 6
  m_Component:
  - component: {fileID: 1553742881}
  - component: {fileID: 1553742884}
  - component: {fileID: 1553742882}
  m_Layer: 0
  m_Name: Ground
  m_TagString: Untagged
  m_Icon: {fileID: 0}
  m_NavMeshLayer: 0
  m_StaticEditorFlags: 0
  m_IsActive: 1
--- !u!4 &1553742881
Transform:
  m_ObjectHideFlags: 0
  m_CorrespondingSourceObject: {fileID: 0}
  m_PrefabInstance: {fileID: 0}
  m_PrefabAsset: {fileID: 0}
  m_GameObject: {fileID: 1553742880}
  m_LocalRotation: {x: -0, y: -0, z: -0, w: 1}
  m_LocalPosition: {x: -4.99, y: 0, z: 8.354605}
  m_LocalScale: {x: 25, y: 0.1, z: 25}
  m_Children: []
  m_Father: {fileID: 1212966189}
  m_RootOrder: 0
  m_LocalEulerAnglesHint: {x: 0, y: 0, z: 0}
--- !u!23 &1553742882
MeshRenderer:
  m_ObjectHideFlags: 0
  m_CorrespondingSourceObject: {fileID: 0}
  m_PrefabInstance: {fileID: 0}
  m_PrefabAsset: {fileID: 0}
  m_GameObject: {fileID: 1553742880}
  m_Enabled: 1
  m_CastShadows: 1
  m_ReceiveShadows: 1
  m_DynamicOccludee: 1
  m_MotionVectors: 1
  m_LightProbeUsage: 1
  m_ReflectionProbeUsage: 1
  m_RenderingLayerMask: 1
  m_RendererPriority: 0
  m_Materials:
  - {fileID: 2100000, guid: 8403a058daf0578439c78de21780e482, type: 2}
  m_StaticBatchInfo:
    firstSubMesh: 0
    subMeshCount: 0
  m_StaticBatchRoot: {fileID: 0}
  m_ProbeAnchor: {fileID: 0}
  m_LightProbeVolumeOverride: {fileID: 0}
  m_ScaleInLightmap: 1
  m_ReceiveGI: 1
  m_PreserveUVs: 1
  m_IgnoreNormalsForChartDetection: 0
  m_ImportantGI: 0
  m_StitchLightmapSeams: 0
  m_SelectedEditorRenderState: 3
  m_MinimumChartSize: 4
  m_AutoUVMaxDistance: 0.5
  m_AutoUVMaxAngle: 89
  m_LightmapParameters: {fileID: 0}
  m_SortingLayerID: 0
  m_SortingLayer: 0
  m_SortingOrder: 0
--- !u!33 &1553742884
MeshFilter:
  m_ObjectHideFlags: 0
  m_CorrespondingSourceObject: {fileID: 0}
  m_PrefabInstance: {fileID: 0}
  m_PrefabAsset: {fileID: 0}
  m_GameObject: {fileID: 1553742880}
  m_Mesh: {fileID: 10202, guid: 0000000000000000e000000000000000, type: 0}
--- !u!1 &1703797290
GameObject:
  m_ObjectHideFlags: 0
  m_CorrespondingSourceObject: {fileID: 0}
  m_PrefabInstance: {fileID: 0}
  m_PrefabAsset: {fileID: 0}
  serializedVersion: 6
  m_Component:
  - component: {fileID: 1703797291}
  - component: {fileID: 1703797294}
  - component: {fileID: 1703797292}
  m_Layer: 0
  m_Name: Wall
  m_TagString: Untagged
  m_Icon: {fileID: 0}
  m_NavMeshLayer: 0
  m_StaticEditorFlags: 0
  m_IsActive: 1
--- !u!4 &1703797291
Transform:
  m_ObjectHideFlags: 0
  m_CorrespondingSourceObject: {fileID: 0}
  m_PrefabInstance: {fileID: 0}
  m_PrefabAsset: {fileID: 0}
  m_GameObject: {fileID: 1703797290}
  m_LocalRotation: {x: 0.5, y: 0.5, z: -0.5, w: 0.5}
  m_LocalPosition: {x: 7.46, y: 2.45, z: 8.354605}
  m_LocalScale: {x: 25, y: 0.1, z: 5}
  m_Children: []
  m_Father: {fileID: 1212966189}
  m_RootOrder: 1
  m_LocalEulerAnglesHint: {x: 90, y: 90, z: 0}
--- !u!23 &1703797292
MeshRenderer:
  m_ObjectHideFlags: 0
  m_CorrespondingSourceObject: {fileID: 0}
  m_PrefabInstance: {fileID: 0}
  m_PrefabAsset: {fileID: 0}
  m_GameObject: {fileID: 1703797290}
  m_Enabled: 1
  m_CastShadows: 1
  m_ReceiveShadows: 1
  m_DynamicOccludee: 1
  m_MotionVectors: 1
  m_LightProbeUsage: 1
  m_ReflectionProbeUsage: 1
  m_RenderingLayerMask: 1
  m_RendererPriority: 0
  m_Materials:
  - {fileID: 2100000, guid: 8403a058daf0578439c78de21780e482, type: 2}
  m_StaticBatchInfo:
    firstSubMesh: 0
    subMeshCount: 0
  m_StaticBatchRoot: {fileID: 0}
  m_ProbeAnchor: {fileID: 0}
  m_LightProbeVolumeOverride: {fileID: 0}
  m_ScaleInLightmap: 1
  m_ReceiveGI: 1
  m_PreserveUVs: 1
  m_IgnoreNormalsForChartDetection: 0
  m_ImportantGI: 0
  m_StitchLightmapSeams: 0
  m_SelectedEditorRenderState: 3
  m_MinimumChartSize: 4
  m_AutoUVMaxDistance: 0.5
  m_AutoUVMaxAngle: 89
  m_LightmapParameters: {fileID: 0}
  m_SortingLayerID: 0
  m_SortingLayer: 0
  m_SortingOrder: 0
--- !u!33 &1703797294
MeshFilter:
  m_ObjectHideFlags: 0
  m_CorrespondingSourceObject: {fileID: 0}
  m_PrefabInstance: {fileID: 0}
  m_PrefabAsset: {fileID: 0}
  m_GameObject: {fileID: 1703797290}
  m_Mesh: {fileID: 10202, guid: 0000000000000000e000000000000000, type: 0}
--- !u!1 &2092413384
GameObject:
  m_ObjectHideFlags: 0
  m_CorrespondingSourceObject: {fileID: 0}
  m_PrefabInstance: {fileID: 0}
  m_PrefabAsset: {fileID: 0}
  serializedVersion: 6
  m_Component:
  - component: {fileID: 2092413385}
  - component: {fileID: 2092413388}
  - component: {fileID: 2092413386}
  m_Layer: 0
  m_Name: Wall (2)
  m_TagString: Untagged
  m_Icon: {fileID: 0}
  m_NavMeshLayer: 0
  m_StaticEditorFlags: 0
  m_IsActive: 1
--- !u!4 &2092413385
Transform:
  m_ObjectHideFlags: 0
  m_CorrespondingSourceObject: {fileID: 0}
  m_PrefabInstance: {fileID: 0}
  m_PrefabAsset: {fileID: 0}
  m_GameObject: {fileID: 2092413384}
  m_LocalRotation: {x: 0.5, y: 0.5, z: -0.5, w: 0.5}
  m_LocalPosition: {x: -17.44, y: 2.45, z: 8.354605}
  m_LocalScale: {x: 25, y: 0.10000005, z: 5}
  m_Children: []
  m_Father: {fileID: 1212966189}
  m_RootOrder: 3
  m_LocalEulerAnglesHint: {x: 90, y: 90, z: 0}
--- !u!23 &2092413386
MeshRenderer:
  m_ObjectHideFlags: 0
  m_CorrespondingSourceObject: {fileID: 0}
  m_PrefabInstance: {fileID: 0}
  m_PrefabAsset: {fileID: 0}
  m_GameObject: {fileID: 2092413384}
  m_Enabled: 1
  m_CastShadows: 1
  m_ReceiveShadows: 1
  m_DynamicOccludee: 1
  m_MotionVectors: 1
  m_LightProbeUsage: 1
  m_ReflectionProbeUsage: 1
  m_RenderingLayerMask: 1
  m_RendererPriority: 0
  m_Materials:
  - {fileID: 2100000, guid: 8403a058daf0578439c78de21780e482, type: 2}
  m_StaticBatchInfo:
    firstSubMesh: 0
    subMeshCount: 0
  m_StaticBatchRoot: {fileID: 0}
  m_ProbeAnchor: {fileID: 0}
  m_LightProbeVolumeOverride: {fileID: 0}
  m_ScaleInLightmap: 1
  m_ReceiveGI: 1
  m_PreserveUVs: 1
  m_IgnoreNormalsForChartDetection: 0
  m_ImportantGI: 0
  m_StitchLightmapSeams: 0
  m_SelectedEditorRenderState: 3
  m_MinimumChartSize: 4
  m_AutoUVMaxDistance: 0.5
  m_AutoUVMaxAngle: 89
  m_LightmapParameters: {fileID: 0}
  m_SortingLayerID: 0
  m_SortingLayer: 0
  m_SortingOrder: 0
--- !u!33 &2092413388
MeshFilter:
  m_ObjectHideFlags: 0
  m_CorrespondingSourceObject: {fileID: 0}
  m_PrefabInstance: {fileID: 0}
  m_PrefabAsset: {fileID: 0}
  m_GameObject: {fileID: 2092413384}
  m_Mesh: {fileID: 10202, guid: 0000000000000000e000000000000000, type: 0}
