%YAML 1.1
%TAG !u! tag:unity3d.com,2011:
--- !u!29 &1
OcclusionCullingSettings:
  m_ObjectHideFlags: 0
  serializedVersion: 2
  m_OcclusionBakeSettings:
    smallestOccluder: 5
    smallestHole: 0.25
    backfaceThreshold: 100
  m_SceneGUID: 00000000000000000000000000000000
  m_OcclusionCullingData: {fileID: 0}
--- !u!104 &2
RenderSettings:
  m_ObjectHideFlags: 0
  serializedVersion: 9
  m_Fog: 0
  m_FogColor: {r: 0.5, g: 0.5, b: 0.5, a: 1}
  m_FogMode: 3
  m_FogDensity: 0.01
  m_LinearFogStart: 0
  m_LinearFogEnd: 300
  m_AmbientSkyColor: {r: 1, g: 1, b: 1, a: 1}
  m_AmbientEquatorColor: {r: 0.114, g: 0.125, b: 0.133, a: 1}
  m_AmbientGroundColor: {r: 0.047, g: 0.043, b: 0.035, a: 1}
  m_AmbientIntensity: 1
  m_AmbientMode: 3
  m_SubtractiveShadowColor: {r: 0.42, g: 0.478, b: 0.627, a: 1}
  m_SkyboxMaterial: {fileID: 0}
  m_HaloStrength: 0.5
  m_FlareStrength: 1
  m_FlareFadeSpeed: 3
  m_HaloTexture: {fileID: 0}
  m_SpotCookie: {fileID: 10001, guid: 0000000000000000e000000000000000, type: 0}
  m_DefaultReflectionMode: 0
  m_DefaultReflectionResolution: 128
  m_ReflectionBounces: 1
  m_ReflectionIntensity: 1
  m_CustomReflection: {fileID: 0}
  m_Sun: {fileID: 0}
  m_IndirectSpecularColor: {r: 0, g: 0, b: 0, a: 1}
  m_UseRadianceAmbientProbe: 0
--- !u!157 &3
LightmapSettings:
  m_ObjectHideFlags: 0
  serializedVersion: 11
  m_GIWorkflowMode: 1
  m_GISettings:
    serializedVersion: 2
    m_BounceScale: 1
    m_IndirectOutputScale: 1
    m_AlbedoBoost: 1
    m_EnvironmentLightingMode: 0
    m_EnableBakedLightmaps: 1
    m_EnableRealtimeLightmaps: 1
  m_LightmapEditorSettings:
    serializedVersion: 12
    m_Resolution: 2
    m_BakeResolution: 40
    m_AtlasSize: 1024
    m_AO: 0
    m_AOMaxDistance: 1
    m_CompAOExponent: 1
    m_CompAOExponentDirect: 0
    m_ExtractAmbientOcclusion: 0
    m_Padding: 2
    m_LightmapParameters: {fileID: 0}
    m_LightmapsBakeMode: 1
    m_TextureCompression: 1
    m_FinalGather: 0
    m_FinalGatherFiltering: 1
    m_FinalGatherRayCount: 256
    m_ReflectionCompression: 2
    m_MixedBakeMode: 1
    m_BakeBackend: 0
    m_PVRSampling: 1
    m_PVRDirectSampleCount: 32
    m_PVRSampleCount: 500
    m_PVRBounces: 2
    m_PVREnvironmentSampleCount: 500
    m_PVREnvironmentReferencePointCount: 2048
    m_PVRFilteringMode: 2
    m_PVRDenoiserTypeDirect: 0
    m_PVRDenoiserTypeIndirect: 0
    m_PVRDenoiserTypeAO: 0
    m_PVRFilterTypeDirect: 0
    m_PVRFilterTypeIndirect: 0
    m_PVRFilterTypeAO: 0
    m_PVREnvironmentMIS: 0
    m_PVRCulling: 1
    m_PVRFilteringGaussRadiusDirect: 1
    m_PVRFilteringGaussRadiusIndirect: 5
    m_PVRFilteringGaussRadiusAO: 2
    m_PVRFilteringAtrousPositionSigmaDirect: 0.5
    m_PVRFilteringAtrousPositionSigmaIndirect: 2
    m_PVRFilteringAtrousPositionSigmaAO: 1
    m_ExportTrainingData: 0
    m_TrainingDataDestination: TrainingData
  m_LightingDataAsset: {fileID: 0}
  m_UseShadowmask: 0
--- !u!196 &4
NavMeshSettings:
  serializedVersion: 2
  m_ObjectHideFlags: 0
  m_BuildSettings:
    serializedVersion: 2
    agentTypeID: 0
    agentRadius: 0.5
    agentHeight: 2
    agentSlope: 45
    agentClimb: 0.4
    ledgeDropHeight: 0
    maxJumpAcrossDistance: 0
    minRegionArea: 2
    manualCellSize: 0
    cellSize: 0.16666667
    manualTileSize: 0
    tileSize: 256
    accuratePlacement: 0
    debug:
      m_Flags: 0
  m_NavMeshData: {fileID: 0}
--- !u!1001 &1210210176
PrefabInstance:
  m_ObjectHideFlags: 0
  serializedVersion: 2
  m_Modification:
    m_TransformParent: {fileID: 0}
    m_Modifications:
    - target: {fileID: 4736473637254670, guid: da130a2f9740d9b4eb9ac5d181a703e7, type: 3}
      propertyPath: m_LocalPosition.x
      value: 0
      objectReference: {fileID: 0}
    - target: {fileID: 4736473637254670, guid: da130a2f9740d9b4eb9ac5d181a703e7, type: 3}
      propertyPath: m_LocalPosition.y
      value: 0
      objectReference: {fileID: 0}
    - target: {fileID: 4736473637254670, guid: da130a2f9740d9b4eb9ac5d181a703e7, type: 3}
      propertyPath: m_LocalPosition.z
      value: 0
      objectReference: {fileID: 0}
    - target: {fileID: 4736473637254670, guid: da130a2f9740d9b4eb9ac5d181a703e7, type: 3}
      propertyPath: m_LocalRotation.x
      value: 0
      objectReference: {fileID: 0}
    - target: {fileID: 4736473637254670, guid: da130a2f9740d9b4eb9ac5d181a703e7, type: 3}
      propertyPath: m_LocalRotation.y
      value: 0
      objectReference: {fileID: 0}
    - target: {fileID: 4736473637254670, guid: da130a2f9740d9b4eb9ac5d181a703e7, type: 3}
      propertyPath: m_LocalRotation.z
      value: 0
      objectReference: {fileID: 0}
    - target: {fileID: 4736473637254670, guid: da130a2f9740d9b4eb9ac5d181a703e7, type: 3}
      propertyPath: m_LocalRotation.w
      value: 1
      objectReference: {fileID: 0}
    - target: {fileID: 4736473637254670, guid: da130a2f9740d9b4eb9ac5d181a703e7, type: 3}
      propertyPath: m_RootOrder
      value: 0
      objectReference: {fileID: 0}
    - target: {fileID: 95105121372560496, guid: da130a2f9740d9b4eb9ac5d181a703e7,
        type: 3}
      propertyPath: m_Controller
      value: 
      objectReference: {fileID: 9100000, guid: 66731b75903010e4994748ecdc62d1ea, type: 2}
    - target: {fileID: 224000501035160440, guid: da130a2f9740d9b4eb9ac5d181a703e7,
        type: 3}
      propertyPath: m_AnchorMin.y
      value: 0
      objectReference: {fileID: 0}
    - target: {fileID: 224000501035160440, guid: da130a2f9740d9b4eb9ac5d181a703e7,
        type: 3}
      propertyPath: m_AnchorMax.y
      value: 0
      objectReference: {fileID: 0}
    - target: {fileID: 224000501035160440, guid: da130a2f9740d9b4eb9ac5d181a703e7,
        type: 3}
      propertyPath: m_AnchoredPosition.x
      value: 0
      objectReference: {fileID: 0}
    - target: {fileID: 224000501035160440, guid: da130a2f9740d9b4eb9ac5d181a703e7,
        type: 3}
      propertyPath: m_AnchoredPosition.y
      value: 0
      objectReference: {fileID: 0}
    - target: {fileID: 224000896518639866, guid: da130a2f9740d9b4eb9ac5d181a703e7,
        type: 3}
      propertyPath: m_AnchorMin.y
      value: 0
      objectReference: {fileID: 0}
    - target: {fileID: 224000896518639866, guid: da130a2f9740d9b4eb9ac5d181a703e7,
        type: 3}
      propertyPath: m_AnchorMax.y
      value: 0
      objectReference: {fileID: 0}
    - target: {fileID: 224000896518639866, guid: da130a2f9740d9b4eb9ac5d181a703e7,
        type: 3}
      propertyPath: m_AnchoredPosition.x
      value: 0
      objectReference: {fileID: 0}
    - target: {fileID: 224000896518639866, guid: da130a2f9740d9b4eb9ac5d181a703e7,
        type: 3}
      propertyPath: m_AnchoredPosition.y
      value: 0
      objectReference: {fileID: 0}
    - target: {fileID: 224009213198973178, guid: da130a2f9740d9b4eb9ac5d181a703e7,
        type: 3}
      propertyPath: m_AnchorMin.y
      value: 0
      objectReference: {fileID: 0}
    - target: {fileID: 224009213198973178, guid: da130a2f9740d9b4eb9ac5d181a703e7,
        type: 3}
      propertyPath: m_AnchorMax.y
      value: 0
      objectReference: {fileID: 0}
    - target: {fileID: 224009213198973178, guid: da130a2f9740d9b4eb9ac5d181a703e7,
        type: 3}
      propertyPath: m_AnchoredPosition.x
      value: 0
      objectReference: {fileID: 0}
    - target: {fileID: 224009213198973178, guid: da130a2f9740d9b4eb9ac5d181a703e7,
        type: 3}
      propertyPath: m_AnchoredPosition.y
      value: 0
      objectReference: {fileID: 0}
    - target: {fileID: 224032677505634336, guid: da130a2f9740d9b4eb9ac5d181a703e7,
        type: 3}
      propertyPath: m_AnchorMin.y
      value: 0
      objectReference: {fileID: 0}
    - target: {fileID: 224032677505634336, guid: da130a2f9740d9b4eb9ac5d181a703e7,
        type: 3}
      propertyPath: m_AnchorMax.y
      value: 0
      objectReference: {fileID: 0}
    - target: {fileID: 224032677505634336, guid: da130a2f9740d9b4eb9ac5d181a703e7,
        type: 3}
      propertyPath: m_AnchoredPosition.x
      value: 0
      objectReference: {fileID: 0}
    - target: {fileID: 224032677505634336, guid: da130a2f9740d9b4eb9ac5d181a703e7,
        type: 3}
      propertyPath: m_AnchoredPosition.y
      value: 0
      objectReference: {fileID: 0}
    - target: {fileID: 224043182613059434, guid: da130a2f9740d9b4eb9ac5d181a703e7,
        type: 3}
      propertyPath: m_AnchorMin.y
      value: 0
      objectReference: {fileID: 0}
    - target: {fileID: 224043182613059434, guid: da130a2f9740d9b4eb9ac5d181a703e7,
        type: 3}
      propertyPath: m_AnchorMax.y
      value: 0
      objectReference: {fileID: 0}
    - target: {fileID: 224043182613059434, guid: da130a2f9740d9b4eb9ac5d181a703e7,
        type: 3}
      propertyPath: m_AnchoredPosition.x
      value: 0
      objectReference: {fileID: 0}
    - target: {fileID: 224043182613059434, guid: da130a2f9740d9b4eb9ac5d181a703e7,
        type: 3}
      propertyPath: m_AnchoredPosition.y
      value: 0
      objectReference: {fileID: 0}
    - target: {fileID: 224050050688384118, guid: da130a2f9740d9b4eb9ac5d181a703e7,
        type: 3}
      propertyPath: m_AnchorMin.y
      value: 0
      objectReference: {fileID: 0}
    - target: {fileID: 224050050688384118, guid: da130a2f9740d9b4eb9ac5d181a703e7,
        type: 3}
      propertyPath: m_AnchorMax.y
      value: 0
      objectReference: {fileID: 0}
    - target: {fileID: 224050050688384118, guid: da130a2f9740d9b4eb9ac5d181a703e7,
        type: 3}
      propertyPath: m_AnchoredPosition.x
      value: 0
      objectReference: {fileID: 0}
    - target: {fileID: 224050050688384118, guid: da130a2f9740d9b4eb9ac5d181a703e7,
        type: 3}
      propertyPath: m_AnchoredPosition.y
      value: 0
      objectReference: {fileID: 0}
    - target: {fileID: 224056956648003102, guid: da130a2f9740d9b4eb9ac5d181a703e7,
        type: 3}
      propertyPath: m_AnchoredPosition.y
      value: 0
      objectReference: {fileID: 0}
    - target: {fileID: 224060932187619094, guid: da130a2f9740d9b4eb9ac5d181a703e7,
        type: 3}
      propertyPath: m_AnchorMin.y
      value: 0
      objectReference: {fileID: 0}
    - target: {fileID: 224060932187619094, guid: da130a2f9740d9b4eb9ac5d181a703e7,
        type: 3}
      propertyPath: m_AnchorMax.y
      value: 0
      objectReference: {fileID: 0}
    - target: {fileID: 224060932187619094, guid: da130a2f9740d9b4eb9ac5d181a703e7,
        type: 3}
      propertyPath: m_AnchoredPosition.x
      value: 0
      objectReference: {fileID: 0}
    - target: {fileID: 224060932187619094, guid: da130a2f9740d9b4eb9ac5d181a703e7,
        type: 3}
      propertyPath: m_AnchoredPosition.y
      value: 0
      objectReference: {fileID: 0}
    - target: {fileID: 224068984755792470, guid: da130a2f9740d9b4eb9ac5d181a703e7,
        type: 3}
      propertyPath: m_AnchorMin.y
      value: 0
      objectReference: {fileID: 0}
    - target: {fileID: 224068984755792470, guid: da130a2f9740d9b4eb9ac5d181a703e7,
        type: 3}
      propertyPath: m_AnchorMax.y
      value: 0
      objectReference: {fileID: 0}
    - target: {fileID: 224068984755792470, guid: da130a2f9740d9b4eb9ac5d181a703e7,
        type: 3}
      propertyPath: m_AnchoredPosition.x
      value: 0
      objectReference: {fileID: 0}
    - target: {fileID: 224068984755792470, guid: da130a2f9740d9b4eb9ac5d181a703e7,
        type: 3}
      propertyPath: m_AnchoredPosition.y
      value: 0
      objectReference: {fileID: 0}
    - target: {fileID: 224069127358233938, guid: da130a2f9740d9b4eb9ac5d181a703e7,
        type: 3}
      propertyPath: m_AnchorMin.y
      value: 0
      objectReference: {fileID: 0}
    - target: {fileID: 224069127358233938, guid: da130a2f9740d9b4eb9ac5d181a703e7,
        type: 3}
      propertyPath: m_AnchorMax.y
      value: 0
      objectReference: {fileID: 0}
    - target: {fileID: 224069127358233938, guid: da130a2f9740d9b4eb9ac5d181a703e7,
        type: 3}
      propertyPath: m_AnchoredPosition.x
      value: 0
      objectReference: {fileID: 0}
    - target: {fileID: 224069127358233938, guid: da130a2f9740d9b4eb9ac5d181a703e7,
        type: 3}
      propertyPath: m_AnchoredPosition.y
      value: 0
      objectReference: {fileID: 0}
    - target: {fileID: 224069127358233938, guid: da130a2f9740d9b4eb9ac5d181a703e7,
        type: 3}
      propertyPath: m_SizeDelta.y
      value: 0
      objectReference: {fileID: 0}
    - target: {fileID: 224091880791248186, guid: da130a2f9740d9b4eb9ac5d181a703e7,
        type: 3}
      propertyPath: m_AnchorMin.y
      value: 0
      objectReference: {fileID: 0}
    - target: {fileID: 224091880791248186, guid: da130a2f9740d9b4eb9ac5d181a703e7,
        type: 3}
      propertyPath: m_AnchorMax.y
      value: 0
      objectReference: {fileID: 0}
    - target: {fileID: 224091880791248186, guid: da130a2f9740d9b4eb9ac5d181a703e7,
        type: 3}
      propertyPath: m_AnchoredPosition.x
      value: 0
      objectReference: {fileID: 0}
    - target: {fileID: 224091880791248186, guid: da130a2f9740d9b4eb9ac5d181a703e7,
        type: 3}
      propertyPath: m_AnchoredPosition.y
      value: 0
      objectReference: {fileID: 0}
    - target: {fileID: 224095573416826956, guid: da130a2f9740d9b4eb9ac5d181a703e7,
        type: 3}
      propertyPath: m_AnchoredPosition.y
      value: 0
      objectReference: {fileID: 0}
    - target: {fileID: 224108834666865042, guid: da130a2f9740d9b4eb9ac5d181a703e7,
        type: 3}
      propertyPath: m_AnchorMin.y
      value: 0
      objectReference: {fileID: 0}
    - target: {fileID: 224108834666865042, guid: da130a2f9740d9b4eb9ac5d181a703e7,
        type: 3}
      propertyPath: m_AnchorMax.y
      value: 0
      objectReference: {fileID: 0}
    - target: {fileID: 224108834666865042, guid: da130a2f9740d9b4eb9ac5d181a703e7,
        type: 3}
      propertyPath: m_AnchoredPosition.x
      value: 0
      objectReference: {fileID: 0}
    - target: {fileID: 224108834666865042, guid: da130a2f9740d9b4eb9ac5d181a703e7,
        type: 3}
      propertyPath: m_AnchoredPosition.y
      value: 0
      objectReference: {fileID: 0}
    - target: {fileID: 224159043705786432, guid: da130a2f9740d9b4eb9ac5d181a703e7,
        type: 3}
      propertyPath: m_AnchorMin.y
      value: 0
      objectReference: {fileID: 0}
    - target: {fileID: 224159043705786432, guid: da130a2f9740d9b4eb9ac5d181a703e7,
        type: 3}
      propertyPath: m_AnchorMax.y
      value: 0
      objectReference: {fileID: 0}
    - target: {fileID: 224159043705786432, guid: da130a2f9740d9b4eb9ac5d181a703e7,
        type: 3}
      propertyPath: m_AnchoredPosition.x
      value: 0
      objectReference: {fileID: 0}
    - target: {fileID: 224159043705786432, guid: da130a2f9740d9b4eb9ac5d181a703e7,
        type: 3}
      propertyPath: m_AnchoredPosition.y
      value: 0
      objectReference: {fileID: 0}
    - target: {fileID: 224163062464485596, guid: da130a2f9740d9b4eb9ac5d181a703e7,
        type: 3}
      propertyPath: m_AnchorMin.y
      value: 0
      objectReference: {fileID: 0}
    - target: {fileID: 224163062464485596, guid: da130a2f9740d9b4eb9ac5d181a703e7,
        type: 3}
      propertyPath: m_AnchorMax.y
      value: 0
      objectReference: {fileID: 0}
    - target: {fileID: 224163062464485596, guid: da130a2f9740d9b4eb9ac5d181a703e7,
        type: 3}
      propertyPath: m_AnchoredPosition.x
      value: 0
      objectReference: {fileID: 0}
    - target: {fileID: 224163062464485596, guid: da130a2f9740d9b4eb9ac5d181a703e7,
        type: 3}
      propertyPath: m_AnchoredPosition.y
      value: 0
      objectReference: {fileID: 0}
    - target: {fileID: 224164606959120772, guid: da130a2f9740d9b4eb9ac5d181a703e7,
        type: 3}
      propertyPath: m_AnchorMin.y
      value: 0
      objectReference: {fileID: 0}
    - target: {fileID: 224164606959120772, guid: da130a2f9740d9b4eb9ac5d181a703e7,
        type: 3}
      propertyPath: m_AnchorMax.y
      value: 0
      objectReference: {fileID: 0}
    - target: {fileID: 224164606959120772, guid: da130a2f9740d9b4eb9ac5d181a703e7,
        type: 3}
      propertyPath: m_AnchoredPosition.x
      value: 0
      objectReference: {fileID: 0}
    - target: {fileID: 224164606959120772, guid: da130a2f9740d9b4eb9ac5d181a703e7,
        type: 3}
      propertyPath: m_AnchoredPosition.y
      value: 0
      objectReference: {fileID: 0}
    - target: {fileID: 224171144008504320, guid: da130a2f9740d9b4eb9ac5d181a703e7,
        type: 3}
      propertyPath: m_AnchorMin.y
      value: 0
      objectReference: {fileID: 0}
    - target: {fileID: 224171144008504320, guid: da130a2f9740d9b4eb9ac5d181a703e7,
        type: 3}
      propertyPath: m_AnchorMax.y
      value: 0
      objectReference: {fileID: 0}
    - target: {fileID: 224171144008504320, guid: da130a2f9740d9b4eb9ac5d181a703e7,
        type: 3}
      propertyPath: m_AnchoredPosition.x
      value: 0
      objectReference: {fileID: 0}
    - target: {fileID: 224171144008504320, guid: da130a2f9740d9b4eb9ac5d181a703e7,
        type: 3}
      propertyPath: m_AnchoredPosition.y
      value: 0
      objectReference: {fileID: 0}
    - target: {fileID: 224200359462785840, guid: da130a2f9740d9b4eb9ac5d181a703e7,
        type: 3}
      propertyPath: m_AnchorMin.y
      value: 0
      objectReference: {fileID: 0}
    - target: {fileID: 224200359462785840, guid: da130a2f9740d9b4eb9ac5d181a703e7,
        type: 3}
      propertyPath: m_AnchorMax.y
      value: 0
      objectReference: {fileID: 0}
    - target: {fileID: 224200359462785840, guid: da130a2f9740d9b4eb9ac5d181a703e7,
        type: 3}
      propertyPath: m_AnchoredPosition.x
      value: 0
      objectReference: {fileID: 0}
    - target: {fileID: 224200359462785840, guid: da130a2f9740d9b4eb9ac5d181a703e7,
        type: 3}
      propertyPath: m_AnchoredPosition.y
      value: 0
      objectReference: {fileID: 0}
    - target: {fileID: 224220282842127390, guid: da130a2f9740d9b4eb9ac5d181a703e7,
        type: 3}
      propertyPath: m_AnchorMin.y
      value: 0
      objectReference: {fileID: 0}
    - target: {fileID: 224220282842127390, guid: da130a2f9740d9b4eb9ac5d181a703e7,
        type: 3}
      propertyPath: m_AnchorMax.y
      value: 0
      objectReference: {fileID: 0}
    - target: {fileID: 224220282842127390, guid: da130a2f9740d9b4eb9ac5d181a703e7,
        type: 3}
      propertyPath: m_AnchoredPosition.x
      value: 0
      objectReference: {fileID: 0}
    - target: {fileID: 224220282842127390, guid: da130a2f9740d9b4eb9ac5d181a703e7,
        type: 3}
      propertyPath: m_AnchoredPosition.y
      value: 0
      objectReference: {fileID: 0}
    - target: {fileID: 224232279662862360, guid: da130a2f9740d9b4eb9ac5d181a703e7,
        type: 3}
      propertyPath: m_AnchorMin.y
      value: 0
      objectReference: {fileID: 0}
    - target: {fileID: 224232279662862360, guid: da130a2f9740d9b4eb9ac5d181a703e7,
        type: 3}
      propertyPath: m_AnchorMax.y
      value: 0
      objectReference: {fileID: 0}
    - target: {fileID: 224232279662862360, guid: da130a2f9740d9b4eb9ac5d181a703e7,
        type: 3}
      propertyPath: m_AnchoredPosition.x
      value: 0
      objectReference: {fileID: 0}
    - target: {fileID: 224232279662862360, guid: da130a2f9740d9b4eb9ac5d181a703e7,
        type: 3}
      propertyPath: m_AnchoredPosition.y
      value: 0
      objectReference: {fileID: 0}
    - target: {fileID: 224264137022224012, guid: da130a2f9740d9b4eb9ac5d181a703e7,
        type: 3}
      propertyPath: m_AnchorMin.y
      value: 0
      objectReference: {fileID: 0}
    - target: {fileID: 224264137022224012, guid: da130a2f9740d9b4eb9ac5d181a703e7,
        type: 3}
      propertyPath: m_AnchorMax.y
      value: 0
      objectReference: {fileID: 0}
    - target: {fileID: 224264137022224012, guid: da130a2f9740d9b4eb9ac5d181a703e7,
        type: 3}
      propertyPath: m_AnchoredPosition.x
      value: 0
      objectReference: {fileID: 0}
    - target: {fileID: 224264137022224012, guid: da130a2f9740d9b4eb9ac5d181a703e7,
        type: 3}
      propertyPath: m_AnchoredPosition.y
      value: 0
      objectReference: {fileID: 0}
    - target: {fileID: 224276300039868846, guid: da130a2f9740d9b4eb9ac5d181a703e7,
        type: 3}
      propertyPath: m_AnchorMin.y
      value: 0
      objectReference: {fileID: 0}
    - target: {fileID: 224276300039868846, guid: da130a2f9740d9b4eb9ac5d181a703e7,
        type: 3}
      propertyPath: m_AnchorMax.y
      value: 0
      objectReference: {fileID: 0}
    - target: {fileID: 224276300039868846, guid: da130a2f9740d9b4eb9ac5d181a703e7,
        type: 3}
      propertyPath: m_AnchoredPosition.x
      value: 0
      objectReference: {fileID: 0}
    - target: {fileID: 224276300039868846, guid: da130a2f9740d9b4eb9ac5d181a703e7,
        type: 3}
      propertyPath: m_AnchoredPosition.y
      value: 0
      objectReference: {fileID: 0}
    - target: {fileID: 224294469913115402, guid: da130a2f9740d9b4eb9ac5d181a703e7,
        type: 3}
      propertyPath: m_AnchorMin.y
      value: 0
      objectReference: {fileID: 0}
    - target: {fileID: 224294469913115402, guid: da130a2f9740d9b4eb9ac5d181a703e7,
        type: 3}
      propertyPath: m_AnchorMax.y
      value: 0
      objectReference: {fileID: 0}
    - target: {fileID: 224294469913115402, guid: da130a2f9740d9b4eb9ac5d181a703e7,
        type: 3}
      propertyPath: m_AnchoredPosition.x
      value: 0
      objectReference: {fileID: 0}
    - target: {fileID: 224294469913115402, guid: da130a2f9740d9b4eb9ac5d181a703e7,
        type: 3}
      propertyPath: m_AnchoredPosition.y
      value: 0
      objectReference: {fileID: 0}
    - target: {fileID: 224300313359161000, guid: da130a2f9740d9b4eb9ac5d181a703e7,
        type: 3}
      propertyPath: m_AnchorMin.y
      value: 0
      objectReference: {fileID: 0}
    - target: {fileID: 224300313359161000, guid: da130a2f9740d9b4eb9ac5d181a703e7,
        type: 3}
      propertyPath: m_AnchorMax.y
      value: 0
      objectReference: {fileID: 0}
    - target: {fileID: 224300313359161000, guid: da130a2f9740d9b4eb9ac5d181a703e7,
        type: 3}
      propertyPath: m_AnchoredPosition.x
      value: 0
      objectReference: {fileID: 0}
    - target: {fileID: 224300313359161000, guid: da130a2f9740d9b4eb9ac5d181a703e7,
        type: 3}
      propertyPath: m_AnchoredPosition.y
      value: 0
      objectReference: {fileID: 0}
    - target: {fileID: 224324696304882224, guid: da130a2f9740d9b4eb9ac5d181a703e7,
        type: 3}
      propertyPath: m_AnchorMin.y
      value: 0
      objectReference: {fileID: 0}
    - target: {fileID: 224324696304882224, guid: da130a2f9740d9b4eb9ac5d181a703e7,
        type: 3}
      propertyPath: m_AnchorMax.y
      value: 0
      objectReference: {fileID: 0}
    - target: {fileID: 224324696304882224, guid: da130a2f9740d9b4eb9ac5d181a703e7,
        type: 3}
      propertyPath: m_AnchoredPosition.x
      value: 0
      objectReference: {fileID: 0}
    - target: {fileID: 224324696304882224, guid: da130a2f9740d9b4eb9ac5d181a703e7,
        type: 3}
      propertyPath: m_AnchoredPosition.y
      value: 0
      objectReference: {fileID: 0}
    - target: {fileID: 224333289776699918, guid: da130a2f9740d9b4eb9ac5d181a703e7,
        type: 3}
      propertyPath: m_AnchorMin.y
      value: 0
      objectReference: {fileID: 0}
    - target: {fileID: 224333289776699918, guid: da130a2f9740d9b4eb9ac5d181a703e7,
        type: 3}
      propertyPath: m_AnchorMax.y
      value: 0
      objectReference: {fileID: 0}
    - target: {fileID: 224333289776699918, guid: da130a2f9740d9b4eb9ac5d181a703e7,
        type: 3}
      propertyPath: m_AnchoredPosition.x
      value: 0
      objectReference: {fileID: 0}
    - target: {fileID: 224333289776699918, guid: da130a2f9740d9b4eb9ac5d181a703e7,
        type: 3}
      propertyPath: m_AnchoredPosition.y
      value: 0
      objectReference: {fileID: 0}
    - target: {fileID: 224367177449128850, guid: da130a2f9740d9b4eb9ac5d181a703e7,
        type: 3}
      propertyPath: m_AnchorMin.y
      value: 0
      objectReference: {fileID: 0}
    - target: {fileID: 224367177449128850, guid: da130a2f9740d9b4eb9ac5d181a703e7,
        type: 3}
      propertyPath: m_AnchorMax.y
      value: 0
      objectReference: {fileID: 0}
    - target: {fileID: 224367177449128850, guid: da130a2f9740d9b4eb9ac5d181a703e7,
        type: 3}
      propertyPath: m_AnchoredPosition.x
      value: 0
      objectReference: {fileID: 0}
    - target: {fileID: 224367177449128850, guid: da130a2f9740d9b4eb9ac5d181a703e7,
        type: 3}
      propertyPath: m_AnchoredPosition.y
      value: 0
      objectReference: {fileID: 0}
    - target: {fileID: 224379782949715640, guid: da130a2f9740d9b4eb9ac5d181a703e7,
        type: 3}
      propertyPath: m_AnchorMin.y
      value: 0
      objectReference: {fileID: 0}
    - target: {fileID: 224379782949715640, guid: da130a2f9740d9b4eb9ac5d181a703e7,
        type: 3}
      propertyPath: m_AnchorMax.y
      value: 0
      objectReference: {fileID: 0}
    - target: {fileID: 224379782949715640, guid: da130a2f9740d9b4eb9ac5d181a703e7,
        type: 3}
      propertyPath: m_AnchoredPosition.x
      value: 0
      objectReference: {fileID: 0}
    - target: {fileID: 224379782949715640, guid: da130a2f9740d9b4eb9ac5d181a703e7,
        type: 3}
      propertyPath: m_AnchoredPosition.y
      value: 0
      objectReference: {fileID: 0}
    - target: {fileID: 224402528929555216, guid: da130a2f9740d9b4eb9ac5d181a703e7,
        type: 3}
      propertyPath: m_AnchorMin.y
      value: 0
      objectReference: {fileID: 0}
    - target: {fileID: 224402528929555216, guid: da130a2f9740d9b4eb9ac5d181a703e7,
        type: 3}
      propertyPath: m_AnchorMax.y
      value: 0
      objectReference: {fileID: 0}
    - target: {fileID: 224402528929555216, guid: da130a2f9740d9b4eb9ac5d181a703e7,
        type: 3}
      propertyPath: m_AnchoredPosition.x
      value: 0
      objectReference: {fileID: 0}
    - target: {fileID: 224402528929555216, guid: da130a2f9740d9b4eb9ac5d181a703e7,
        type: 3}
      propertyPath: m_AnchoredPosition.y
      value: 0
      objectReference: {fileID: 0}
    - target: {fileID: 224408376246369002, guid: da130a2f9740d9b4eb9ac5d181a703e7,
        type: 3}
      propertyPath: m_AnchorMin.y
      value: 0
      objectReference: {fileID: 0}
    - target: {fileID: 224408376246369002, guid: da130a2f9740d9b4eb9ac5d181a703e7,
        type: 3}
      propertyPath: m_AnchorMax.y
      value: 0
      objectReference: {fileID: 0}
    - target: {fileID: 224408376246369002, guid: da130a2f9740d9b4eb9ac5d181a703e7,
        type: 3}
      propertyPath: m_AnchoredPosition.x
      value: 0
      objectReference: {fileID: 0}
    - target: {fileID: 224408376246369002, guid: da130a2f9740d9b4eb9ac5d181a703e7,
        type: 3}
      propertyPath: m_AnchoredPosition.y
      value: 0
      objectReference: {fileID: 0}
    - target: {fileID: 224429538816853758, guid: da130a2f9740d9b4eb9ac5d181a703e7,
        type: 3}
      propertyPath: m_AnchoredPosition.y
      value: 0
      objectReference: {fileID: 0}
    - target: {fileID: 224449012002645304, guid: da130a2f9740d9b4eb9ac5d181a703e7,
        type: 3}
      propertyPath: m_AnchorMin.y
      value: 0
      objectReference: {fileID: 0}
    - target: {fileID: 224449012002645304, guid: da130a2f9740d9b4eb9ac5d181a703e7,
        type: 3}
      propertyPath: m_AnchorMax.y
      value: 0
      objectReference: {fileID: 0}
    - target: {fileID: 224449012002645304, guid: da130a2f9740d9b4eb9ac5d181a703e7,
        type: 3}
      propertyPath: m_AnchoredPosition.x
      value: 0
      objectReference: {fileID: 0}
    - target: {fileID: 224449012002645304, guid: da130a2f9740d9b4eb9ac5d181a703e7,
        type: 3}
      propertyPath: m_AnchoredPosition.y
      value: 0
      objectReference: {fileID: 0}
    - target: {fileID: 224465985435237712, guid: da130a2f9740d9b4eb9ac5d181a703e7,
        type: 3}
      propertyPath: m_AnchorMin.y
      value: 0
      objectReference: {fileID: 0}
    - target: {fileID: 224465985435237712, guid: da130a2f9740d9b4eb9ac5d181a703e7,
        type: 3}
      propertyPath: m_AnchorMax.y
      value: 0
      objectReference: {fileID: 0}
    - target: {fileID: 224465985435237712, guid: da130a2f9740d9b4eb9ac5d181a703e7,
        type: 3}
      propertyPath: m_AnchoredPosition.x
      value: 0
      objectReference: {fileID: 0}
    - target: {fileID: 224465985435237712, guid: da130a2f9740d9b4eb9ac5d181a703e7,
        type: 3}
      propertyPath: m_AnchoredPosition.y
      value: 0
      objectReference: {fileID: 0}
    - target: {fileID: 224473980519669606, guid: da130a2f9740d9b4eb9ac5d181a703e7,
        type: 3}
      propertyPath: m_AnchorMin.y
      value: 0
      objectReference: {fileID: 0}
    - target: {fileID: 224473980519669606, guid: da130a2f9740d9b4eb9ac5d181a703e7,
        type: 3}
      propertyPath: m_AnchorMax.y
      value: 0
      objectReference: {fileID: 0}
    - target: {fileID: 224473980519669606, guid: da130a2f9740d9b4eb9ac5d181a703e7,
        type: 3}
      propertyPath: m_AnchoredPosition.x
      value: 0
      objectReference: {fileID: 0}
    - target: {fileID: 224473980519669606, guid: da130a2f9740d9b4eb9ac5d181a703e7,
        type: 3}
      propertyPath: m_AnchoredPosition.y
      value: 0
      objectReference: {fileID: 0}
    - target: {fileID: 224473980519669606, guid: da130a2f9740d9b4eb9ac5d181a703e7,
        type: 3}
      propertyPath: m_SizeDelta.y
      value: 0
      objectReference: {fileID: 0}
    - target: {fileID: 224483027586754522, guid: da130a2f9740d9b4eb9ac5d181a703e7,
        type: 3}
      propertyPath: m_AnchorMin.y
      value: 0
      objectReference: {fileID: 0}
    - target: {fileID: 224483027586754522, guid: da130a2f9740d9b4eb9ac5d181a703e7,
        type: 3}
      propertyPath: m_AnchorMax.y
      value: 0
      objectReference: {fileID: 0}
    - target: {fileID: 224483027586754522, guid: da130a2f9740d9b4eb9ac5d181a703e7,
        type: 3}
      propertyPath: m_AnchoredPosition.x
      value: 0
      objectReference: {fileID: 0}
    - target: {fileID: 224483027586754522, guid: da130a2f9740d9b4eb9ac5d181a703e7,
        type: 3}
      propertyPath: m_AnchoredPosition.y
      value: 0
      objectReference: {fileID: 0}
    - target: {fileID: 224488641974893636, guid: da130a2f9740d9b4eb9ac5d181a703e7,
        type: 3}
      propertyPath: m_AnchorMin.y
      value: 0
      objectReference: {fileID: 0}
    - target: {fileID: 224488641974893636, guid: da130a2f9740d9b4eb9ac5d181a703e7,
        type: 3}
      propertyPath: m_AnchorMax.y
      value: 0
      objectReference: {fileID: 0}
    - target: {fileID: 224488641974893636, guid: da130a2f9740d9b4eb9ac5d181a703e7,
        type: 3}
      propertyPath: m_AnchoredPosition.x
      value: 0
      objectReference: {fileID: 0}
    - target: {fileID: 224488641974893636, guid: da130a2f9740d9b4eb9ac5d181a703e7,
        type: 3}
      propertyPath: m_AnchoredPosition.y
      value: 0
      objectReference: {fileID: 0}
    - target: {fileID: 224493870249281556, guid: da130a2f9740d9b4eb9ac5d181a703e7,
        type: 3}
      propertyPath: m_AnchorMin.y
      value: 0
      objectReference: {fileID: 0}
    - target: {fileID: 224493870249281556, guid: da130a2f9740d9b4eb9ac5d181a703e7,
        type: 3}
      propertyPath: m_AnchorMax.y
      value: 0
      objectReference: {fileID: 0}
    - target: {fileID: 224493870249281556, guid: da130a2f9740d9b4eb9ac5d181a703e7,
        type: 3}
      propertyPath: m_AnchoredPosition.x
      value: 0
      objectReference: {fileID: 0}
    - target: {fileID: 224493870249281556, guid: da130a2f9740d9b4eb9ac5d181a703e7,
        type: 3}
      propertyPath: m_AnchoredPosition.y
      value: 0
      objectReference: {fileID: 0}
    - target: {fileID: 224507924939488544, guid: da130a2f9740d9b4eb9ac5d181a703e7,
        type: 3}
      propertyPath: m_AnchorMin.y
      value: 0
      objectReference: {fileID: 0}
    - target: {fileID: 224507924939488544, guid: da130a2f9740d9b4eb9ac5d181a703e7,
        type: 3}
      propertyPath: m_AnchorMax.y
      value: 0
      objectReference: {fileID: 0}
    - target: {fileID: 224507924939488544, guid: da130a2f9740d9b4eb9ac5d181a703e7,
        type: 3}
      propertyPath: m_AnchoredPosition.x
      value: 0
      objectReference: {fileID: 0}
    - target: {fileID: 224507924939488544, guid: da130a2f9740d9b4eb9ac5d181a703e7,
        type: 3}
      propertyPath: m_AnchoredPosition.y
      value: 0
      objectReference: {fileID: 0}
    - target: {fileID: 224529164685537832, guid: da130a2f9740d9b4eb9ac5d181a703e7,
        type: 3}
      propertyPath: m_AnchorMin.y
      value: 0
      objectReference: {fileID: 0}
    - target: {fileID: 224529164685537832, guid: da130a2f9740d9b4eb9ac5d181a703e7,
        type: 3}
      propertyPath: m_AnchorMax.y
      value: 0
      objectReference: {fileID: 0}
    - target: {fileID: 224529164685537832, guid: da130a2f9740d9b4eb9ac5d181a703e7,
        type: 3}
      propertyPath: m_AnchoredPosition.x
      value: 0
      objectReference: {fileID: 0}
    - target: {fileID: 224529164685537832, guid: da130a2f9740d9b4eb9ac5d181a703e7,
        type: 3}
      propertyPath: m_AnchoredPosition.y
      value: 0
      objectReference: {fileID: 0}
    - target: {fileID: 224537786231417312, guid: da130a2f9740d9b4eb9ac5d181a703e7,
        type: 3}
      propertyPath: m_AnchorMin.y
      value: 0
      objectReference: {fileID: 0}
    - target: {fileID: 224537786231417312, guid: da130a2f9740d9b4eb9ac5d181a703e7,
        type: 3}
      propertyPath: m_AnchorMax.y
      value: 0
      objectReference: {fileID: 0}
    - target: {fileID: 224537786231417312, guid: da130a2f9740d9b4eb9ac5d181a703e7,
        type: 3}
      propertyPath: m_AnchoredPosition.x
      value: 0
      objectReference: {fileID: 0}
    - target: {fileID: 224537786231417312, guid: da130a2f9740d9b4eb9ac5d181a703e7,
        type: 3}
      propertyPath: m_AnchoredPosition.y
      value: 0
      objectReference: {fileID: 0}
    - target: {fileID: 224551570474348748, guid: da130a2f9740d9b4eb9ac5d181a703e7,
        type: 3}
      propertyPath: m_AnchoredPosition.y
      value: 0
      objectReference: {fileID: 0}
    - target: {fileID: 224555530822139010, guid: da130a2f9740d9b4eb9ac5d181a703e7,
        type: 3}
      propertyPath: m_AnchorMin.y
      value: 0
      objectReference: {fileID: 0}
    - target: {fileID: 224555530822139010, guid: da130a2f9740d9b4eb9ac5d181a703e7,
        type: 3}
      propertyPath: m_AnchorMax.y
      value: 0
      objectReference: {fileID: 0}
    - target: {fileID: 224555530822139010, guid: da130a2f9740d9b4eb9ac5d181a703e7,
        type: 3}
      propertyPath: m_AnchoredPosition.x
      value: 0
      objectReference: {fileID: 0}
    - target: {fileID: 224555530822139010, guid: da130a2f9740d9b4eb9ac5d181a703e7,
        type: 3}
      propertyPath: m_AnchoredPosition.y
      value: 0
      objectReference: {fileID: 0}
    - target: {fileID: 224563262150769098, guid: da130a2f9740d9b4eb9ac5d181a703e7,
        type: 3}
      propertyPath: m_AnchoredPosition.y
      value: 0
      objectReference: {fileID: 0}
    - target: {fileID: 224568615708660354, guid: da130a2f9740d9b4eb9ac5d181a703e7,
        type: 3}
      propertyPath: m_AnchorMin.y
      value: 0
      objectReference: {fileID: 0}
    - target: {fileID: 224568615708660354, guid: da130a2f9740d9b4eb9ac5d181a703e7,
        type: 3}
      propertyPath: m_AnchorMax.y
      value: 0
      objectReference: {fileID: 0}
    - target: {fileID: 224568615708660354, guid: da130a2f9740d9b4eb9ac5d181a703e7,
        type: 3}
      propertyPath: m_AnchoredPosition.x
      value: 0
      objectReference: {fileID: 0}
    - target: {fileID: 224568615708660354, guid: da130a2f9740d9b4eb9ac5d181a703e7,
        type: 3}
      propertyPath: m_AnchoredPosition.y
      value: 0
      objectReference: {fileID: 0}
    - target: {fileID: 224570631915500626, guid: da130a2f9740d9b4eb9ac5d181a703e7,
        type: 3}
      propertyPath: m_AnchorMin.y
      value: 0
      objectReference: {fileID: 0}
    - target: {fileID: 224570631915500626, guid: da130a2f9740d9b4eb9ac5d181a703e7,
        type: 3}
      propertyPath: m_AnchorMax.y
      value: 0
      objectReference: {fileID: 0}
    - target: {fileID: 224570631915500626, guid: da130a2f9740d9b4eb9ac5d181a703e7,
        type: 3}
      propertyPath: m_AnchoredPosition.x
      value: 0
      objectReference: {fileID: 0}
    - target: {fileID: 224570631915500626, guid: da130a2f9740d9b4eb9ac5d181a703e7,
        type: 3}
      propertyPath: m_AnchoredPosition.y
      value: 0
      objectReference: {fileID: 0}
    - target: {fileID: 224581732002608438, guid: da130a2f9740d9b4eb9ac5d181a703e7,
        type: 3}
      propertyPath: m_AnchorMin.y
      value: 0
      objectReference: {fileID: 0}
    - target: {fileID: 224581732002608438, guid: da130a2f9740d9b4eb9ac5d181a703e7,
        type: 3}
      propertyPath: m_AnchorMax.y
      value: 0
      objectReference: {fileID: 0}
    - target: {fileID: 224581732002608438, guid: da130a2f9740d9b4eb9ac5d181a703e7,
        type: 3}
      propertyPath: m_AnchoredPosition.x
      value: 0
      objectReference: {fileID: 0}
    - target: {fileID: 224581732002608438, guid: da130a2f9740d9b4eb9ac5d181a703e7,
        type: 3}
      propertyPath: m_AnchoredPosition.y
      value: 0
      objectReference: {fileID: 0}
    - target: {fileID: 224583907003879968, guid: da130a2f9740d9b4eb9ac5d181a703e7,
        type: 3}
      propertyPath: m_AnchoredPosition.y
      value: 0
      objectReference: {fileID: 0}
    - target: {fileID: 224585542759802630, guid: da130a2f9740d9b4eb9ac5d181a703e7,
        type: 3}
      propertyPath: m_AnchorMin.y
      value: 0
      objectReference: {fileID: 0}
    - target: {fileID: 224585542759802630, guid: da130a2f9740d9b4eb9ac5d181a703e7,
        type: 3}
      propertyPath: m_AnchorMax.y
      value: 0
      objectReference: {fileID: 0}
    - target: {fileID: 224585542759802630, guid: da130a2f9740d9b4eb9ac5d181a703e7,
        type: 3}
      propertyPath: m_AnchoredPosition.x
      value: 0
      objectReference: {fileID: 0}
    - target: {fileID: 224585542759802630, guid: da130a2f9740d9b4eb9ac5d181a703e7,
        type: 3}
      propertyPath: m_AnchoredPosition.y
      value: 0
      objectReference: {fileID: 0}
    - target: {fileID: 224589937449423150, guid: da130a2f9740d9b4eb9ac5d181a703e7,
        type: 3}
      propertyPath: m_AnchorMin.y
      value: 0
      objectReference: {fileID: 0}
    - target: {fileID: 224589937449423150, guid: da130a2f9740d9b4eb9ac5d181a703e7,
        type: 3}
      propertyPath: m_AnchorMax.y
      value: 0
      objectReference: {fileID: 0}
    - target: {fileID: 224589937449423150, guid: da130a2f9740d9b4eb9ac5d181a703e7,
        type: 3}
      propertyPath: m_AnchoredPosition.x
      value: 0
      objectReference: {fileID: 0}
    - target: {fileID: 224589937449423150, guid: da130a2f9740d9b4eb9ac5d181a703e7,
        type: 3}
      propertyPath: m_AnchoredPosition.y
      value: 0
      objectReference: {fileID: 0}
    - target: {fileID: 224589937449423150, guid: da130a2f9740d9b4eb9ac5d181a703e7,
        type: 3}
      propertyPath: m_SizeDelta.y
      value: 0
      objectReference: {fileID: 0}
    - target: {fileID: 224595536579215104, guid: da130a2f9740d9b4eb9ac5d181a703e7,
        type: 3}
      propertyPath: m_AnchoredPosition.y
      value: 0
      objectReference: {fileID: 0}
    - target: {fileID: 224598241176974566, guid: da130a2f9740d9b4eb9ac5d181a703e7,
        type: 3}
      propertyPath: m_AnchorMin.y
      value: 0
      objectReference: {fileID: 0}
    - target: {fileID: 224598241176974566, guid: da130a2f9740d9b4eb9ac5d181a703e7,
        type: 3}
      propertyPath: m_AnchorMax.y
      value: 0
      objectReference: {fileID: 0}
    - target: {fileID: 224598241176974566, guid: da130a2f9740d9b4eb9ac5d181a703e7,
        type: 3}
      propertyPath: m_AnchoredPosition.x
      value: 0
      objectReference: {fileID: 0}
    - target: {fileID: 224598241176974566, guid: da130a2f9740d9b4eb9ac5d181a703e7,
        type: 3}
      propertyPath: m_AnchoredPosition.y
      value: 0
      objectReference: {fileID: 0}
    - target: {fileID: 224598901831782966, guid: da130a2f9740d9b4eb9ac5d181a703e7,
        type: 3}
      propertyPath: m_AnchorMin.y
      value: 0
      objectReference: {fileID: 0}
    - target: {fileID: 224598901831782966, guid: da130a2f9740d9b4eb9ac5d181a703e7,
        type: 3}
      propertyPath: m_AnchorMax.y
      value: 0
      objectReference: {fileID: 0}
    - target: {fileID: 224598901831782966, guid: da130a2f9740d9b4eb9ac5d181a703e7,
        type: 3}
      propertyPath: m_AnchoredPosition.x
      value: 0
      objectReference: {fileID: 0}
    - target: {fileID: 224598901831782966, guid: da130a2f9740d9b4eb9ac5d181a703e7,
        type: 3}
      propertyPath: m_AnchoredPosition.y
      value: 0
      objectReference: {fileID: 0}
    - target: {fileID: 224601646001754334, guid: da130a2f9740d9b4eb9ac5d181a703e7,
        type: 3}
      propertyPath: m_AnchoredPosition.y
      value: 0
      objectReference: {fileID: 0}
    - target: {fileID: 224606278234471180, guid: da130a2f9740d9b4eb9ac5d181a703e7,
        type: 3}
      propertyPath: m_AnchorMin.y
      value: 0
      objectReference: {fileID: 0}
    - target: {fileID: 224606278234471180, guid: da130a2f9740d9b4eb9ac5d181a703e7,
        type: 3}
      propertyPath: m_AnchorMax.y
      value: 0
      objectReference: {fileID: 0}
    - target: {fileID: 224606278234471180, guid: da130a2f9740d9b4eb9ac5d181a703e7,
        type: 3}
      propertyPath: m_AnchoredPosition.x
      value: 0
      objectReference: {fileID: 0}
    - target: {fileID: 224606278234471180, guid: da130a2f9740d9b4eb9ac5d181a703e7,
        type: 3}
      propertyPath: m_AnchoredPosition.y
      value: 0
      objectReference: {fileID: 0}
    - target: {fileID: 224620304924332322, guid: da130a2f9740d9b4eb9ac5d181a703e7,
        type: 3}
      propertyPath: m_AnchorMin.y
      value: 0
      objectReference: {fileID: 0}
    - target: {fileID: 224620304924332322, guid: da130a2f9740d9b4eb9ac5d181a703e7,
        type: 3}
      propertyPath: m_AnchorMax.y
      value: 0
      objectReference: {fileID: 0}
    - target: {fileID: 224620304924332322, guid: da130a2f9740d9b4eb9ac5d181a703e7,
        type: 3}
      propertyPath: m_AnchoredPosition.x
      value: 0
      objectReference: {fileID: 0}
    - target: {fileID: 224620304924332322, guid: da130a2f9740d9b4eb9ac5d181a703e7,
        type: 3}
      propertyPath: m_AnchoredPosition.y
      value: 0
      objectReference: {fileID: 0}
    - target: {fileID: 224659245788172006, guid: da130a2f9740d9b4eb9ac5d181a703e7,
        type: 3}
      propertyPath: m_AnchorMin.y
      value: 0
      objectReference: {fileID: 0}
    - target: {fileID: 224659245788172006, guid: da130a2f9740d9b4eb9ac5d181a703e7,
        type: 3}
      propertyPath: m_AnchorMax.y
      value: 0
      objectReference: {fileID: 0}
    - target: {fileID: 224659245788172006, guid: da130a2f9740d9b4eb9ac5d181a703e7,
        type: 3}
      propertyPath: m_AnchoredPosition.x
      value: 0
      objectReference: {fileID: 0}
    - target: {fileID: 224659245788172006, guid: da130a2f9740d9b4eb9ac5d181a703e7,
        type: 3}
      propertyPath: m_AnchoredPosition.y
      value: 0
      objectReference: {fileID: 0}
    - target: {fileID: 224667539394540068, guid: da130a2f9740d9b4eb9ac5d181a703e7,
        type: 3}
      propertyPath: m_AnchorMin.y
      value: 0
      objectReference: {fileID: 0}
    - target: {fileID: 224667539394540068, guid: da130a2f9740d9b4eb9ac5d181a703e7,
        type: 3}
      propertyPath: m_AnchorMax.y
      value: 0
      objectReference: {fileID: 0}
    - target: {fileID: 224667539394540068, guid: da130a2f9740d9b4eb9ac5d181a703e7,
        type: 3}
      propertyPath: m_AnchoredPosition.x
      value: 0
      objectReference: {fileID: 0}
    - target: {fileID: 224667539394540068, guid: da130a2f9740d9b4eb9ac5d181a703e7,
        type: 3}
      propertyPath: m_AnchoredPosition.y
      value: 0
      objectReference: {fileID: 0}
    - target: {fileID: 224702670309056214, guid: da130a2f9740d9b4eb9ac5d181a703e7,
        type: 3}
      propertyPath: m_AnchorMin.y
      value: 0
      objectReference: {fileID: 0}
    - target: {fileID: 224702670309056214, guid: da130a2f9740d9b4eb9ac5d181a703e7,
        type: 3}
      propertyPath: m_AnchorMax.y
      value: 0
      objectReference: {fileID: 0}
    - target: {fileID: 224702670309056214, guid: da130a2f9740d9b4eb9ac5d181a703e7,
        type: 3}
      propertyPath: m_AnchoredPosition.x
      value: 0
      objectReference: {fileID: 0}
    - target: {fileID: 224702670309056214, guid: da130a2f9740d9b4eb9ac5d181a703e7,
        type: 3}
      propertyPath: m_AnchoredPosition.y
      value: 0
      objectReference: {fileID: 0}
    - target: {fileID: 224720672862580292, guid: da130a2f9740d9b4eb9ac5d181a703e7,
        type: 3}
      propertyPath: m_AnchorMin.y
      value: 0
      objectReference: {fileID: 0}
    - target: {fileID: 224720672862580292, guid: da130a2f9740d9b4eb9ac5d181a703e7,
        type: 3}
      propertyPath: m_AnchorMax.y
      value: 0
      objectReference: {fileID: 0}
    - target: {fileID: 224720672862580292, guid: da130a2f9740d9b4eb9ac5d181a703e7,
        type: 3}
      propertyPath: m_AnchoredPosition.x
      value: 0
      objectReference: {fileID: 0}
    - target: {fileID: 224720672862580292, guid: da130a2f9740d9b4eb9ac5d181a703e7,
        type: 3}
      propertyPath: m_AnchoredPosition.y
      value: 0
      objectReference: {fileID: 0}
    - target: {fileID: 224748633335084262, guid: da130a2f9740d9b4eb9ac5d181a703e7,
        type: 3}
      propertyPath: m_AnchorMin.y
      value: 0
      objectReference: {fileID: 0}
    - target: {fileID: 224748633335084262, guid: da130a2f9740d9b4eb9ac5d181a703e7,
        type: 3}
      propertyPath: m_AnchorMax.y
      value: 0
      objectReference: {fileID: 0}
    - target: {fileID: 224748633335084262, guid: da130a2f9740d9b4eb9ac5d181a703e7,
        type: 3}
      propertyPath: m_AnchoredPosition.x
      value: 0
      objectReference: {fileID: 0}
    - target: {fileID: 224748633335084262, guid: da130a2f9740d9b4eb9ac5d181a703e7,
        type: 3}
      propertyPath: m_AnchoredPosition.y
      value: 0
      objectReference: {fileID: 0}
    - target: {fileID: 224813371362547640, guid: da130a2f9740d9b4eb9ac5d181a703e7,
        type: 3}
      propertyPath: m_AnchorMin.y
      value: 0
      objectReference: {fileID: 0}
    - target: {fileID: 224813371362547640, guid: da130a2f9740d9b4eb9ac5d181a703e7,
        type: 3}
      propertyPath: m_AnchorMax.y
      value: 0
      objectReference: {fileID: 0}
    - target: {fileID: 224813371362547640, guid: da130a2f9740d9b4eb9ac5d181a703e7,
        type: 3}
      propertyPath: m_AnchoredPosition.x
      value: 0
      objectReference: {fileID: 0}
    - target: {fileID: 224813371362547640, guid: da130a2f9740d9b4eb9ac5d181a703e7,
        type: 3}
      propertyPath: m_AnchoredPosition.y
      value: 0
      objectReference: {fileID: 0}
    - target: {fileID: 224817586406667344, guid: da130a2f9740d9b4eb9ac5d181a703e7,
        type: 3}
      propertyPath: m_AnchorMin.y
      value: 0
      objectReference: {fileID: 0}
    - target: {fileID: 224817586406667344, guid: da130a2f9740d9b4eb9ac5d181a703e7,
        type: 3}
      propertyPath: m_AnchorMax.y
      value: 0
      objectReference: {fileID: 0}
    - target: {fileID: 224817586406667344, guid: da130a2f9740d9b4eb9ac5d181a703e7,
        type: 3}
      propertyPath: m_AnchoredPosition.x
      value: 0
      objectReference: {fileID: 0}
    - target: {fileID: 224817586406667344, guid: da130a2f9740d9b4eb9ac5d181a703e7,
        type: 3}
      propertyPath: m_AnchoredPosition.y
      value: 0
      objectReference: {fileID: 0}
    - target: {fileID: 224844171941449260, guid: da130a2f9740d9b4eb9ac5d181a703e7,
        type: 3}
      propertyPath: m_AnchoredPosition.y
      value: 0
      objectReference: {fileID: 0}
    - target: {fileID: 224847379358352548, guid: da130a2f9740d9b4eb9ac5d181a703e7,
        type: 3}
      propertyPath: m_AnchoredPosition.y
      value: 0
      objectReference: {fileID: 0}
    - target: {fileID: 224848876830748644, guid: da130a2f9740d9b4eb9ac5d181a703e7,
        type: 3}
      propertyPath: m_AnchorMin.y
      value: 0
      objectReference: {fileID: 0}
    - target: {fileID: 224848876830748644, guid: da130a2f9740d9b4eb9ac5d181a703e7,
        type: 3}
      propertyPath: m_AnchorMax.y
      value: 0
      objectReference: {fileID: 0}
    - target: {fileID: 224848876830748644, guid: da130a2f9740d9b4eb9ac5d181a703e7,
        type: 3}
      propertyPath: m_AnchoredPosition.x
      value: 0
      objectReference: {fileID: 0}
    - target: {fileID: 224848876830748644, guid: da130a2f9740d9b4eb9ac5d181a703e7,
        type: 3}
      propertyPath: m_AnchoredPosition.y
      value: 0
      objectReference: {fileID: 0}
    - target: {fileID: 224857542083760096, guid: da130a2f9740d9b4eb9ac5d181a703e7,
        type: 3}
      propertyPath: m_AnchorMin.y
      value: 0
      objectReference: {fileID: 0}
    - target: {fileID: 224857542083760096, guid: da130a2f9740d9b4eb9ac5d181a703e7,
        type: 3}
      propertyPath: m_AnchorMax.y
      value: 0
      objectReference: {fileID: 0}
    - target: {fileID: 224857542083760096, guid: da130a2f9740d9b4eb9ac5d181a703e7,
        type: 3}
      propertyPath: m_AnchoredPosition.x
      value: 0
      objectReference: {fileID: 0}
    - target: {fileID: 224857542083760096, guid: da130a2f9740d9b4eb9ac5d181a703e7,
        type: 3}
      propertyPath: m_AnchoredPosition.y
      value: 0
      objectReference: {fileID: 0}
    - target: {fileID: 224874767937719908, guid: da130a2f9740d9b4eb9ac5d181a703e7,
        type: 3}
      propertyPath: m_AnchorMin.y
      value: 0
      objectReference: {fileID: 0}
    - target: {fileID: 224874767937719908, guid: da130a2f9740d9b4eb9ac5d181a703e7,
        type: 3}
      propertyPath: m_AnchorMax.y
      value: 0
      objectReference: {fileID: 0}
    - target: {fileID: 224874767937719908, guid: da130a2f9740d9b4eb9ac5d181a703e7,
        type: 3}
      propertyPath: m_AnchoredPosition.x
      value: 0
      objectReference: {fileID: 0}
    - target: {fileID: 224874767937719908, guid: da130a2f9740d9b4eb9ac5d181a703e7,
        type: 3}
      propertyPath: m_AnchoredPosition.y
      value: 0
      objectReference: {fileID: 0}
    - target: {fileID: 224880397202787408, guid: da130a2f9740d9b4eb9ac5d181a703e7,
        type: 3}
      propertyPath: m_AnchorMin.y
      value: 0
      objectReference: {fileID: 0}
    - target: {fileID: 224880397202787408, guid: da130a2f9740d9b4eb9ac5d181a703e7,
        type: 3}
      propertyPath: m_AnchorMax.y
      value: 0
      objectReference: {fileID: 0}
    - target: {fileID: 224880397202787408, guid: da130a2f9740d9b4eb9ac5d181a703e7,
        type: 3}
      propertyPath: m_AnchoredPosition.x
      value: 0
      objectReference: {fileID: 0}
    - target: {fileID: 224880397202787408, guid: da130a2f9740d9b4eb9ac5d181a703e7,
        type: 3}
      propertyPath: m_AnchoredPosition.y
      value: 0
      objectReference: {fileID: 0}
    - target: {fileID: 224885984307096912, guid: da130a2f9740d9b4eb9ac5d181a703e7,
        type: 3}
      propertyPath: m_AnchorMin.y
      value: 0
      objectReference: {fileID: 0}
    - target: {fileID: 224885984307096912, guid: da130a2f9740d9b4eb9ac5d181a703e7,
        type: 3}
      propertyPath: m_AnchorMax.y
      value: 0
      objectReference: {fileID: 0}
    - target: {fileID: 224885984307096912, guid: da130a2f9740d9b4eb9ac5d181a703e7,
        type: 3}
      propertyPath: m_AnchoredPosition.x
      value: 0
      objectReference: {fileID: 0}
    - target: {fileID: 224885984307096912, guid: da130a2f9740d9b4eb9ac5d181a703e7,
        type: 3}
      propertyPath: m_AnchoredPosition.y
      value: 0
      objectReference: {fileID: 0}
    - target: {fileID: 224889309803062144, guid: da130a2f9740d9b4eb9ac5d181a703e7,
        type: 3}
      propertyPath: m_AnchorMin.y
      value: 0
      objectReference: {fileID: 0}
    - target: {fileID: 224889309803062144, guid: da130a2f9740d9b4eb9ac5d181a703e7,
        type: 3}
      propertyPath: m_AnchorMax.y
      value: 0
      objectReference: {fileID: 0}
    - target: {fileID: 224889309803062144, guid: da130a2f9740d9b4eb9ac5d181a703e7,
        type: 3}
      propertyPath: m_AnchoredPosition.x
      value: 0
      objectReference: {fileID: 0}
    - target: {fileID: 224889309803062144, guid: da130a2f9740d9b4eb9ac5d181a703e7,
        type: 3}
      propertyPath: m_AnchoredPosition.y
      value: 0
      objectReference: {fileID: 0}
    - target: {fileID: 224902241844179462, guid: da130a2f9740d9b4eb9ac5d181a703e7,
        type: 3}
      propertyPath: m_AnchorMin.y
      value: 0
      objectReference: {fileID: 0}
    - target: {fileID: 224902241844179462, guid: da130a2f9740d9b4eb9ac5d181a703e7,
        type: 3}
      propertyPath: m_AnchorMax.y
      value: 0
      objectReference: {fileID: 0}
    - target: {fileID: 224902241844179462, guid: da130a2f9740d9b4eb9ac5d181a703e7,
        type: 3}
      propertyPath: m_AnchoredPosition.x
      value: 0
      objectReference: {fileID: 0}
    - target: {fileID: 224902241844179462, guid: da130a2f9740d9b4eb9ac5d181a703e7,
        type: 3}
      propertyPath: m_AnchoredPosition.y
      value: 0
      objectReference: {fileID: 0}
    - target: {fileID: 224916782972917084, guid: da130a2f9740d9b4eb9ac5d181a703e7,
        type: 3}
      propertyPath: m_AnchorMin.y
      value: 0
      objectReference: {fileID: 0}
    - target: {fileID: 224916782972917084, guid: da130a2f9740d9b4eb9ac5d181a703e7,
        type: 3}
      propertyPath: m_AnchorMax.y
      value: 0
      objectReference: {fileID: 0}
    - target: {fileID: 224916782972917084, guid: da130a2f9740d9b4eb9ac5d181a703e7,
        type: 3}
      propertyPath: m_AnchoredPosition.x
      value: 0
      objectReference: {fileID: 0}
    - target: {fileID: 224916782972917084, guid: da130a2f9740d9b4eb9ac5d181a703e7,
        type: 3}
      propertyPath: m_AnchoredPosition.y
      value: 0
      objectReference: {fileID: 0}
    - target: {fileID: 224918202965432524, guid: da130a2f9740d9b4eb9ac5d181a703e7,
        type: 3}
      propertyPath: m_AnchorMin.y
      value: 0
      objectReference: {fileID: 0}
    - target: {fileID: 224918202965432524, guid: da130a2f9740d9b4eb9ac5d181a703e7,
        type: 3}
      propertyPath: m_AnchorMax.y
      value: 0
      objectReference: {fileID: 0}
    - target: {fileID: 224918202965432524, guid: da130a2f9740d9b4eb9ac5d181a703e7,
        type: 3}
      propertyPath: m_AnchoredPosition.x
      value: 0
      objectReference: {fileID: 0}
    - target: {fileID: 224918202965432524, guid: da130a2f9740d9b4eb9ac5d181a703e7,
        type: 3}
      propertyPath: m_AnchoredPosition.y
      value: 0
      objectReference: {fileID: 0}
    - target: {fileID: 224932817161886814, guid: da130a2f9740d9b4eb9ac5d181a703e7,
        type: 3}
      propertyPath: m_AnchoredPosition.y
      value: 0
      objectReference: {fileID: 0}
    - target: {fileID: 224934765158261972, guid: da130a2f9740d9b4eb9ac5d181a703e7,
        type: 3}
      propertyPath: m_AnchorMin.y
      value: 0
      objectReference: {fileID: 0}
    - target: {fileID: 224934765158261972, guid: da130a2f9740d9b4eb9ac5d181a703e7,
        type: 3}
      propertyPath: m_AnchorMax.y
      value: 0
      objectReference: {fileID: 0}
    - target: {fileID: 224934765158261972, guid: da130a2f9740d9b4eb9ac5d181a703e7,
        type: 3}
      propertyPath: m_AnchoredPosition.x
      value: 0
      objectReference: {fileID: 0}
    - target: {fileID: 224934765158261972, guid: da130a2f9740d9b4eb9ac5d181a703e7,
        type: 3}
      propertyPath: m_AnchoredPosition.y
      value: 0
      objectReference: {fileID: 0}
    - target: {fileID: 224942732835840390, guid: da130a2f9740d9b4eb9ac5d181a703e7,
        type: 3}
      propertyPath: m_AnchorMin.y
      value: 0
      objectReference: {fileID: 0}
    - target: {fileID: 224942732835840390, guid: da130a2f9740d9b4eb9ac5d181a703e7,
        type: 3}
      propertyPath: m_AnchorMax.y
      value: 0
      objectReference: {fileID: 0}
    - target: {fileID: 224942732835840390, guid: da130a2f9740d9b4eb9ac5d181a703e7,
        type: 3}
      propertyPath: m_AnchoredPosition.x
      value: 0
      objectReference: {fileID: 0}
    - target: {fileID: 224942732835840390, guid: da130a2f9740d9b4eb9ac5d181a703e7,
        type: 3}
      propertyPath: m_AnchoredPosition.y
      value: 0
      objectReference: {fileID: 0}
    - target: {fileID: 224946124143211090, guid: da130a2f9740d9b4eb9ac5d181a703e7,
        type: 3}
      propertyPath: m_AnchorMin.y
      value: 0
      objectReference: {fileID: 0}
    - target: {fileID: 224946124143211090, guid: da130a2f9740d9b4eb9ac5d181a703e7,
        type: 3}
      propertyPath: m_AnchorMax.y
      value: 0
      objectReference: {fileID: 0}
    - target: {fileID: 224946124143211090, guid: da130a2f9740d9b4eb9ac5d181a703e7,
        type: 3}
      propertyPath: m_AnchoredPosition.x
      value: 0
      objectReference: {fileID: 0}
    - target: {fileID: 224946124143211090, guid: da130a2f9740d9b4eb9ac5d181a703e7,
        type: 3}
      propertyPath: m_AnchoredPosition.y
      value: 0
      objectReference: {fileID: 0}
    - target: {fileID: 224955325731826682, guid: da130a2f9740d9b4eb9ac5d181a703e7,
        type: 3}
      propertyPath: m_AnchorMin.y
      value: 0
      objectReference: {fileID: 0}
    - target: {fileID: 224955325731826682, guid: da130a2f9740d9b4eb9ac5d181a703e7,
        type: 3}
      propertyPath: m_AnchorMax.y
      value: 0
      objectReference: {fileID: 0}
    - target: {fileID: 224955325731826682, guid: da130a2f9740d9b4eb9ac5d181a703e7,
        type: 3}
      propertyPath: m_AnchoredPosition.x
      value: 0
      objectReference: {fileID: 0}
    - target: {fileID: 224955325731826682, guid: da130a2f9740d9b4eb9ac5d181a703e7,
        type: 3}
      propertyPath: m_AnchoredPosition.y
      value: 0
      objectReference: {fileID: 0}
    - target: {fileID: 224959084927588366, guid: da130a2f9740d9b4eb9ac5d181a703e7,
        type: 3}
      propertyPath: m_AnchorMin.y
      value: 0
      objectReference: {fileID: 0}
    - target: {fileID: 224959084927588366, guid: da130a2f9740d9b4eb9ac5d181a703e7,
        type: 3}
      propertyPath: m_AnchorMax.y
      value: 0
      objectReference: {fileID: 0}
    - target: {fileID: 224959084927588366, guid: da130a2f9740d9b4eb9ac5d181a703e7,
        type: 3}
      propertyPath: m_AnchoredPosition.x
      value: 0
      objectReference: {fileID: 0}
    - target: {fileID: 224959084927588366, guid: da130a2f9740d9b4eb9ac5d181a703e7,
        type: 3}
      propertyPath: m_AnchoredPosition.y
      value: 0
      objectReference: {fileID: 0}
    - target: {fileID: 224959084927588366, guid: da130a2f9740d9b4eb9ac5d181a703e7,
        type: 3}
      propertyPath: m_SizeDelta.y
      value: 0
      objectReference: {fileID: 0}
    - target: {fileID: 224966100451187110, guid: da130a2f9740d9b4eb9ac5d181a703e7,
        type: 3}
      propertyPath: m_AnchorMin.y
      value: 0
      objectReference: {fileID: 0}
    - target: {fileID: 224966100451187110, guid: da130a2f9740d9b4eb9ac5d181a703e7,
        type: 3}
      propertyPath: m_AnchorMax.y
      value: 0
      objectReference: {fileID: 0}
    - target: {fileID: 224966100451187110, guid: da130a2f9740d9b4eb9ac5d181a703e7,
        type: 3}
      propertyPath: m_AnchoredPosition.x
      value: 0
      objectReference: {fileID: 0}
    - target: {fileID: 224966100451187110, guid: da130a2f9740d9b4eb9ac5d181a703e7,
        type: 3}
      propertyPath: m_AnchoredPosition.y
      value: 0
      objectReference: {fileID: 0}
    m_RemovedComponents: []
  m_SourcePrefab: {fileID: 100100000, guid: da130a2f9740d9b4eb9ac5d181a703e7, type: 3}
