%YAML 1.1
%TAG !u! tag:unity3d.com,2011:
--- !u!29 &1
OcclusionCullingSettings:
  m_ObjectHideFlags: 0
  serializedVersion: 2
  m_OcclusionBakeSettings:
    smallestOccluder: 5
    smallestHole: 0.25
    backfaceThreshold: 100
  m_SceneGUID: 00000000000000000000000000000000
  m_OcclusionCullingData: {fileID: 0}
--- !u!104 &2
RenderSettings:
  m_ObjectHideFlags: 0
  serializedVersion: 9
  m_Fog: 0
  m_FogColor: {r: 0.5, g: 0.5, b: 0.5, a: 1}
  m_FogMode: 3
  m_FogDensity: 0.01
  m_LinearFogStart: 0
  m_LinearFogEnd: 300
  m_AmbientSkyColor: {r: 1, g: 1, b: 1, a: 1}
  m_AmbientEquatorColor: {r: 0.114, g: 0.125, b: 0.133, a: 1}
  m_AmbientGroundColor: {r: 0.047, g: 0.043, b: 0.035, a: 1}
  m_AmbientIntensity: 1
  m_AmbientMode: 3
  m_SubtractiveShadowColor: {r: 0.42, g: 0.478, b: 0.627, a: 1}
  m_SkyboxMaterial: {fileID: 0}
  m_HaloStrength: 0.5
  m_FlareStrength: 1
  m_FlareFadeSpeed: 3
  m_HaloTexture: {fileID: 0}
  m_SpotCookie: {fileID: 10001, guid: 0000000000000000e000000000000000, type: 0}
  m_DefaultReflectionMode: 0
  m_DefaultReflectionResolution: 128
  m_ReflectionBounces: 1
  m_ReflectionIntensity: 1
  m_CustomReflection: {fileID: 0}
  m_Sun: {fileID: 0}
  m_IndirectSpecularColor: {r: 0, g: 0, b: 0, a: 1}
  m_UseRadianceAmbientProbe: 0
--- !u!157 &3
LightmapSettings:
  m_ObjectHideFlags: 0
  serializedVersion: 11
  m_GIWorkflowMode: 1
  m_GISettings:
    serializedVersion: 2
    m_BounceScale: 1
    m_IndirectOutputScale: 1
    m_AlbedoBoost: 1
    m_EnvironmentLightingMode: 0
    m_EnableBakedLightmaps: 1
    m_EnableRealtimeLightmaps: 1
  m_LightmapEditorSettings:
    serializedVersion: 12
    m_Resolution: 2
    m_BakeResolution: 40
    m_AtlasSize: 1024
    m_AO: 0
    m_AOMaxDistance: 1
    m_CompAOExponent: 1
    m_CompAOExponentDirect: 0
    m_ExtractAmbientOcclusion: 0
    m_Padding: 2
    m_LightmapParameters: {fileID: 0}
    m_LightmapsBakeMode: 1
    m_TextureCompression: 1
    m_FinalGather: 0
    m_FinalGatherFiltering: 1
    m_FinalGatherRayCount: 256
    m_ReflectionCompression: 2
    m_MixedBakeMode: 1
    m_BakeBackend: 0
    m_PVRSampling: 1
    m_PVRDirectSampleCount: 32
    m_PVRSampleCount: 500
    m_PVRBounces: 2
    m_PVREnvironmentSampleCount: 500
    m_PVREnvironmentReferencePointCount: 2048
    m_PVRFilteringMode: 2
    m_PVRDenoiserTypeDirect: 0
    m_PVRDenoiserTypeIndirect: 0
    m_PVRDenoiserTypeAO: 0
    m_PVRFilterTypeDirect: 0
    m_PVRFilterTypeIndirect: 0
    m_PVRFilterTypeAO: 0
    m_PVREnvironmentMIS: 0
    m_PVRCulling: 1
    m_PVRFilteringGaussRadiusDirect: 1
    m_PVRFilteringGaussRadiusIndirect: 5
    m_PVRFilteringGaussRadiusAO: 2
    m_PVRFilteringAtrousPositionSigmaDirect: 0.5
    m_PVRFilteringAtrousPositionSigmaIndirect: 2
    m_PVRFilteringAtrousPositionSigmaAO: 1
    m_ExportTrainingData: 0
    m_TrainingDataDestination: TrainingData
  m_LightingDataAsset: {fileID: 0}
  m_UseShadowmask: 0
--- !u!196 &4
NavMeshSettings:
  serializedVersion: 2
  m_ObjectHideFlags: 0
  m_BuildSettings:
    serializedVersion: 2
    agentTypeID: 0
    agentRadius: 0.5
    agentHeight: 2
    agentSlope: 45
    agentClimb: 0.4
    ledgeDropHeight: 0
    maxJumpAcrossDistance: 0
    minRegionArea: 2
    manualCellSize: 0
    cellSize: 0.16666667
    manualTileSize: 0
    tileSize: 256
    accuratePlacement: 0
    debug:
      m_Flags: 0
  m_NavMeshData: {fileID: 0}
--- !u!1001 &1841386207
PrefabInstance:
  m_ObjectHideFlags: 0
  serializedVersion: 2
  m_Modification:
    m_TransformParent: {fileID: 0}
    m_Modifications:
    - target: {fileID: 4171501436713570, guid: a66d0760ed7c35b44b83a8fc76a18c6d, type: 3}
      propertyPath: m_LocalPosition.x
      value: 0
      objectReference: {fileID: 0}
    - target: {fileID: 4171501436713570, guid: a66d0760ed7c35b44b83a8fc76a18c6d, type: 3}
      propertyPath: m_LocalPosition.y
      value: 0
      objectReference: {fileID: 0}
    - target: {fileID: 4171501436713570, guid: a66d0760ed7c35b44b83a8fc76a18c6d, type: 3}
      propertyPath: m_LocalPosition.z
      value: 0
      objectReference: {fileID: 0}
    - target: {fileID: 4171501436713570, guid: a66d0760ed7c35b44b83a8fc76a18c6d, type: 3}
      propertyPath: m_LocalRotation.x
      value: 0
      objectReference: {fileID: 0}
    - target: {fileID: 4171501436713570, guid: a66d0760ed7c35b44b83a8fc76a18c6d, type: 3}
      propertyPath: m_LocalRotation.y
      value: 0
      objectReference: {fileID: 0}
    - target: {fileID: 4171501436713570, guid: a66d0760ed7c35b44b83a8fc76a18c6d, type: 3}
      propertyPath: m_LocalRotation.z
      value: 0
      objectReference: {fileID: 0}
    - target: {fileID: 4171501436713570, guid: a66d0760ed7c35b44b83a8fc76a18c6d, type: 3}
      propertyPath: m_LocalRotation.w
      value: 1
      objectReference: {fileID: 0}
    - target: {fileID: 4171501436713570, guid: a66d0760ed7c35b44b83a8fc76a18c6d, type: 3}
      propertyPath: m_RootOrder
      value: 0
      objectReference: {fileID: 0}
    - target: {fileID: 224001138727295284, guid: a66d0760ed7c35b44b83a8fc76a18c6d,
        type: 3}
      propertyPath: m_LocalPosition.x
      value: 0
      objectReference: {fileID: 0}
    - target: {fileID: 224001138727295284, guid: a66d0760ed7c35b44b83a8fc76a18c6d,
        type: 3}
      propertyPath: m_LocalPosition.y
      value: 57.999992
      objectReference: {fileID: 0}
    - target: {fileID: 224017477008062070, guid: a66d0760ed7c35b44b83a8fc76a18c6d,
        type: 3}
      propertyPath: m_LocalPosition.x
      value: 0
      objectReference: {fileID: 0}
    - target: {fileID: 224017477008062070, guid: a66d0760ed7c35b44b83a8fc76a18c6d,
        type: 3}
      propertyPath: m_LocalPosition.y
      value: 6.4799957
      objectReference: {fileID: 0}
    - target: {fileID: 224025771993600814, guid: a66d0760ed7c35b44b83a8fc76a18c6d,
        type: 3}
      propertyPath: m_LocalPosition.x
      value: -30
      objectReference: {fileID: 0}
    - target: {fileID: 224025771993600814, guid: a66d0760ed7c35b44b83a8fc76a18c6d,
        type: 3}
      propertyPath: m_LocalPosition.y
      value: 0.000022888184
      objectReference: {fileID: 0}
    - target: {fileID: 224030933012956762, guid: a66d0760ed7c35b44b83a8fc76a18c6d,
        type: 3}
      propertyPath: m_LocalPosition.x
      value: 0
      objectReference: {fileID: 0}
    - target: {fileID: 224030933012956762, guid: a66d0760ed7c35b44b83a8fc76a18c6d,
        type: 3}
      propertyPath: m_LocalPosition.y
      value: 172.47998
      objectReference: {fileID: 0}
    - target: {fileID: 224042309291997040, guid: a66d0760ed7c35b44b83a8fc76a18c6d,
        type: 3}
      propertyPath: m_LocalPosition.y
      value: 0
      objectReference: {fileID: 0}
    - target: {fileID: 224042309291997040, guid: a66d0760ed7c35b44b83a8fc76a18c6d,
        type: 3}
      propertyPath: m_AnchorMin.x
      value: 0
      objectReference: {fileID: 0}
    - target: {fileID: 224042309291997040, guid: a66d0760ed7c35b44b83a8fc76a18c6d,
        type: 3}
      propertyPath: m_AnchorMin.y
      value: 0
      objectReference: {fileID: 0}
    - target: {fileID: 224042309291997040, guid: a66d0760ed7c35b44b83a8fc76a18c6d,
        type: 3}
      propertyPath: m_AnchorMax.x
      value: 0
      objectReference: {fileID: 0}
    - target: {fileID: 224042309291997040, guid: a66d0760ed7c35b44b83a8fc76a18c6d,
        type: 3}
      propertyPath: m_AnchorMax.y
      value: 0
      objectReference: {fileID: 0}
    - target: {fileID: 224045204554125270, guid: a66d0760ed7c35b44b83a8fc76a18c6d,
        type: 3}
      propertyPath: m_LocalPosition.x
      value: 10
      objectReference: {fileID: 0}
    - target: {fileID: 224045204554125270, guid: a66d0760ed7c35b44b83a8fc76a18c6d,
        type: 3}
      propertyPath: m_LocalPosition.y
      value: 0.000022888184
      objectReference: {fileID: 0}
    - target: {fileID: 224059458926172708, guid: a66d0760ed7c35b44b83a8fc76a18c6d,
        type: 3}
      propertyPath: m_LocalPosition.x
      value: 0
      objectReference: {fileID: 0}
    - target: {fileID: 224059458926172708, guid: a66d0760ed7c35b44b83a8fc76a18c6d,
        type: 3}
      propertyPath: m_LocalPosition.y
      value: 6.4799957
      objectReference: {fileID: 0}
    - target: {fileID: 224088493970556356, guid: a66d0760ed7c35b44b83a8fc76a18c6d,
        type: 3}
      propertyPath: m_LocalPosition.x
      value: 0
      objectReference: {fileID: 0}
    - target: {fileID: 224088493970556356, guid: a66d0760ed7c35b44b83a8fc76a18c6d,
        type: 3}
      propertyPath: m_LocalPosition.y
      value: 206.98004
      objectReference: {fileID: 0}
    - target: {fileID: 224099387833835954, guid: a66d0760ed7c35b44b83a8fc76a18c6d,
        type: 3}
      propertyPath: m_LocalPosition.x
      value: 0
      objectReference: {fileID: 0}
    - target: {fileID: 224099387833835954, guid: a66d0760ed7c35b44b83a8fc76a18c6d,
        type: 3}
      propertyPath: m_LocalPosition.y
      value: -239.5
      objectReference: {fileID: 0}
    - target: {fileID: 224099424942661552, guid: a66d0760ed7c35b44b83a8fc76a18c6d,
        type: 3}
      propertyPath: m_LocalPosition.x
      value: 0
      objectReference: {fileID: 0}
    - target: {fileID: 224107819229266574, guid: a66d0760ed7c35b44b83a8fc76a18c6d,
        type: 3}
      propertyPath: m_LocalPosition.x
      value: 0
      objectReference: {fileID: 0}
    - target: {fileID: 224107819229266574, guid: a66d0760ed7c35b44b83a8fc76a18c6d,
        type: 3}
      propertyPath: m_LocalPosition.y
      value: -54.5
      objectReference: {fileID: 0}
    - target: {fileID: 224113628268556722, guid: a66d0760ed7c35b44b83a8fc76a18c6d,
        type: 3}
      propertyPath: m_LocalPosition.x
      value: 0
      objectReference: {fileID: 0}
    - target: {fileID: 224113628268556722, guid: a66d0760ed7c35b44b83a8fc76a18c6d,
        type: 3}
      propertyPath: m_LocalPosition.y
      value: -7.4999924
      objectReference: {fileID: 0}
    - target: {fileID: 224129688721163836, guid: a66d0760ed7c35b44b83a8fc76a18c6d,
        type: 3}
      propertyPath: m_LocalPosition.x
      value: 0
      objectReference: {fileID: 0}
    - target: {fileID: 224129688721163836, guid: a66d0760ed7c35b44b83a8fc76a18c6d,
        type: 3}
      propertyPath: m_LocalPosition.y
      value: -21.00003
      objectReference: {fileID: 0}
    - target: {fileID: 224158013838241994, guid: a66d0760ed7c35b44b83a8fc76a18c6d,
        type: 3}
      propertyPath: m_LocalPosition.x
      value: 0
      objectReference: {fileID: 0}
    - target: {fileID: 224158013838241994, guid: a66d0760ed7c35b44b83a8fc76a18c6d,
        type: 3}
      propertyPath: m_LocalPosition.y
      value: 70.49997
      objectReference: {fileID: 0}
    - target: {fileID: 224158135085766676, guid: a66d0760ed7c35b44b83a8fc76a18c6d,
        type: 3}
      propertyPath: m_LocalPosition.x
      value: 0
      objectReference: {fileID: 0}
    - target: {fileID: 224158135085766676, guid: a66d0760ed7c35b44b83a8fc76a18c6d,
        type: 3}
      propertyPath: m_LocalPosition.y
      value: -52.250015
      objectReference: {fileID: 0}
    - target: {fileID: 224159067108481756, guid: a66d0760ed7c35b44b83a8fc76a18c6d,
        type: 3}
      propertyPath: m_LocalPosition.x
      value: 0
      objectReference: {fileID: 0}
    - target: {fileID: 224159321248368270, guid: a66d0760ed7c35b44b83a8fc76a18c6d,
        type: 3}
      propertyPath: m_LocalPosition.x
      value: 0
      objectReference: {fileID: 0}
    - target: {fileID: 224159321248368270, guid: a66d0760ed7c35b44b83a8fc76a18c6d,
        type: 3}
      propertyPath: m_LocalPosition.y
      value: 0
      objectReference: {fileID: 0}
    - target: {fileID: 224159850378907912, guid: a66d0760ed7c35b44b83a8fc76a18c6d,
        type: 3}
      propertyPath: m_LocalPosition.x
      value: 0
      objectReference: {fileID: 0}
    - target: {fileID: 224159850378907912, guid: a66d0760ed7c35b44b83a8fc76a18c6d,
        type: 3}
      propertyPath: m_LocalPosition.y
      value: 150.24997
      objectReference: {fileID: 0}
    - target: {fileID: 224173607965417810, guid: a66d0760ed7c35b44b83a8fc76a18c6d,
        type: 3}
      propertyPath: m_LocalPosition.x
      value: -10
      objectReference: {fileID: 0}
    - target: {fileID: 224189194816777200, guid: a66d0760ed7c35b44b83a8fc76a18c6d,
        type: 3}
      propertyPath: m_LocalPosition.x
      value: 0
      objectReference: {fileID: 0}
    - target: {fileID: 224189194816777200, guid: a66d0760ed7c35b44b83a8fc76a18c6d,
        type: 3}
      propertyPath: m_LocalPosition.y
      value: 0
      objectReference: {fileID: 0}
    - target: {fileID: 224189194816777200, guid: a66d0760ed7c35b44b83a8fc76a18c6d,
        type: 3}
      propertyPath: m_LocalRotation.x
      value: 0
      objectReference: {fileID: 0}
    - target: {fileID: 224189194816777200, guid: a66d0760ed7c35b44b83a8fc76a18c6d,
        type: 3}
      propertyPath: m_LocalRotation.y
      value: 0
      objectReference: {fileID: 0}
    - target: {fileID: 224189194816777200, guid: a66d0760ed7c35b44b83a8fc76a18c6d,
        type: 3}
      propertyPath: m_LocalRotation.z
      value: 0
      objectReference: {fileID: 0}
    - target: {fileID: 224189194816777200, guid: a66d0760ed7c35b44b83a8fc76a18c6d,
        type: 3}
      propertyPath: m_LocalRotation.w
      value: 1
      objectReference: {fileID: 0}
    - target: {fileID: 224189194816777200, guid: a66d0760ed7c35b44b83a8fc76a18c6d,
        type: 3}
      propertyPath: m_LocalPosition.z
      value: 0
      objectReference: {fileID: 0}
    - target: {fileID: 224189194816777200, guid: a66d0760ed7c35b44b83a8fc76a18c6d,
        type: 3}
      propertyPath: m_LocalScale.x
      value: 0
      objectReference: {fileID: 0}
    - target: {fileID: 224189194816777200, guid: a66d0760ed7c35b44b83a8fc76a18c6d,
        type: 3}
      propertyPath: m_LocalScale.y
      value: 0
      objectReference: {fileID: 0}
    - target: {fileID: 224189194816777200, guid: a66d0760ed7c35b44b83a8fc76a18c6d,
        type: 3}
      propertyPath: m_LocalScale.z
      value: 0
      objectReference: {fileID: 0}
    - target: {fileID: 224189194816777200, guid: a66d0760ed7c35b44b83a8fc76a18c6d,
        type: 3}
      propertyPath: m_AnchoredPosition.x
      value: 0
      objectReference: {fileID: 0}
    - target: {fileID: 224189194816777200, guid: a66d0760ed7c35b44b83a8fc76a18c6d,
        type: 3}
      propertyPath: m_AnchoredPosition.y
      value: 0
      objectReference: {fileID: 0}
    - target: {fileID: 224189194816777200, guid: a66d0760ed7c35b44b83a8fc76a18c6d,
        type: 3}
      propertyPath: m_SizeDelta.x
      value: 0
      objectReference: {fileID: 0}
    - target: {fileID: 224189194816777200, guid: a66d0760ed7c35b44b83a8fc76a18c6d,
        type: 3}
      propertyPath: m_SizeDelta.y
      value: 0
      objectReference: {fileID: 0}
    - target: {fileID: 224190565465289340, guid: a66d0760ed7c35b44b83a8fc76a18c6d,
        type: 3}
      propertyPath: m_LocalPosition.x
      value: 0
      objectReference: {fileID: 0}
    - target: {fileID: 224190565465289340, guid: a66d0760ed7c35b44b83a8fc76a18c6d,
        type: 3}
      propertyPath: m_LocalPosition.y
      value: 105.750046
      objectReference: {fileID: 0}
    - target: {fileID: 224190865006008022, guid: a66d0760ed7c35b44b83a8fc76a18c6d,
        type: 3}
      propertyPath: m_LocalPosition.x
      value: 0
      objectReference: {fileID: 0}
    - target: {fileID: 224190865006008022, guid: a66d0760ed7c35b44b83a8fc76a18c6d,
        type: 3}
      propertyPath: m_LocalPosition.y
      value: 154.75
      objectReference: {fileID: 0}
    - target: {fileID: 224219801640903724, guid: a66d0760ed7c35b44b83a8fc76a18c6d,
        type: 3}
      propertyPath: m_LocalPosition.x
      value: 136.5
      objectReference: {fileID: 0}
    - target: {fileID: 224219801640903724, guid: a66d0760ed7c35b44b83a8fc76a18c6d,
        type: 3}
      propertyPath: m_LocalPosition.y
      value: -0.00024414062
      objectReference: {fileID: 0}
    - target: {fileID: 224234589321897120, guid: a66d0760ed7c35b44b83a8fc76a18c6d,
        type: 3}
      propertyPath: m_LocalPosition.x
      value: 0
      objectReference: {fileID: 0}
    - target: {fileID: 224234589321897120, guid: a66d0760ed7c35b44b83a8fc76a18c6d,
        type: 3}
      propertyPath: m_LocalPosition.y
      value: 194.48
      objectReference: {fileID: 0}
    - target: {fileID: 224253033702636810, guid: a66d0760ed7c35b44b83a8fc76a18c6d,
        type: 3}
      propertyPath: m_LocalPosition.x
      value: 0
      objectReference: {fileID: 0}
    - target: {fileID: 224253033702636810, guid: a66d0760ed7c35b44b83a8fc76a18c6d,
        type: 3}
      propertyPath: m_LocalPosition.y
      value: 42.480057
      objectReference: {fileID: 0}
    - target: {fileID: 224264097563111182, guid: a66d0760ed7c35b44b83a8fc76a18c6d,
        type: 3}
      propertyPath: m_LocalPosition.x
      value: 30
      objectReference: {fileID: 0}
    - target: {fileID: 224264097563111182, guid: a66d0760ed7c35b44b83a8fc76a18c6d,
        type: 3}
      propertyPath: m_LocalPosition.y
      value: 0.000019073486
      objectReference: {fileID: 0}
    - target: {fileID: 224266263629675162, guid: a66d0760ed7c35b44b83a8fc76a18c6d,
        type: 3}
      propertyPath: m_LocalPosition.x
      value: 0
      objectReference: {fileID: 0}
    - target: {fileID: 224266263629675162, guid: a66d0760ed7c35b44b83a8fc76a18c6d,
        type: 3}
      propertyPath: m_LocalPosition.y
      value: 224.48004
      objectReference: {fileID: 0}
    - target: {fileID: 224269631974803074, guid: a66d0760ed7c35b44b83a8fc76a18c6d,
        type: 3}
      propertyPath: m_LocalPosition.x
      value: 0
      objectReference: {fileID: 0}
    - target: {fileID: 224269631974803074, guid: a66d0760ed7c35b44b83a8fc76a18c6d,
        type: 3}
      propertyPath: m_LocalPosition.y
      value: 34.499985
      objectReference: {fileID: 0}
    - target: {fileID: 224271231334297108, guid: a66d0760ed7c35b44b83a8fc76a18c6d,
        type: 3}
      propertyPath: m_LocalPosition.x
      value: 0
      objectReference: {fileID: 0}
    - target: {fileID: 224271231334297108, guid: a66d0760ed7c35b44b83a8fc76a18c6d,
        type: 3}
      propertyPath: m_LocalPosition.y
      value: 184.75003
      objectReference: {fileID: 0}
    - target: {fileID: 224301657413073188, guid: a66d0760ed7c35b44b83a8fc76a18c6d,
        type: 3}
      propertyPath: m_LocalPosition.x
      value: 0
      objectReference: {fileID: 0}
    - target: {fileID: 224310545059686128, guid: a66d0760ed7c35b44b83a8fc76a18c6d,
        type: 3}
      propertyPath: m_LocalPosition.x
      value: -30
      objectReference: {fileID: 0}
    - target: {fileID: 224310545059686128, guid: a66d0760ed7c35b44b83a8fc76a18c6d,
        type: 3}
      propertyPath: m_LocalPosition.y
      value: 0.000022888184
      objectReference: {fileID: 0}
    - target: {fileID: 224313386940184200, guid: a66d0760ed7c35b44b83a8fc76a18c6d,
        type: 3}
      propertyPath: m_LocalPosition.x
      value: -45.5
      objectReference: {fileID: 0}
    - target: {fileID: 224313386940184200, guid: a66d0760ed7c35b44b83a8fc76a18c6d,
        type: 3}
      propertyPath: m_LocalPosition.y
      value: 9.499756
      objectReference: {fileID: 0}
    - target: {fileID: 224315870104413336, guid: a66d0760ed7c35b44b83a8fc76a18c6d,
        type: 3}
      propertyPath: m_LocalPosition.x
      value: -10
      objectReference: {fileID: 0}
    - target: {fileID: 224342817037523278, guid: a66d0760ed7c35b44b83a8fc76a18c6d,
        type: 3}
      propertyPath: m_LocalPosition.x
      value: 10
      objectReference: {fileID: 0}
    - target: {fileID: 224342817037523278, guid: a66d0760ed7c35b44b83a8fc76a18c6d,
        type: 3}
      propertyPath: m_LocalPosition.y
      value: 0.000022888184
      objectReference: {fileID: 0}
    - target: {fileID: 224345554996922988, guid: a66d0760ed7c35b44b83a8fc76a18c6d,
        type: 3}
      propertyPath: m_LocalPosition.x
      value: 136.5
      objectReference: {fileID: 0}
    - target: {fileID: 224345554996922988, guid: a66d0760ed7c35b44b83a8fc76a18c6d,
        type: 3}
      propertyPath: m_LocalPosition.y
      value: 9.499756
      objectReference: {fileID: 0}
    - target: {fileID: 224350522147316974, guid: a66d0760ed7c35b44b83a8fc76a18c6d,
        type: 3}
      propertyPath: m_LocalPosition.y
      value: -0.00024414062
      objectReference: {fileID: 0}
    - target: {fileID: 224361799991655960, guid: a66d0760ed7c35b44b83a8fc76a18c6d,
        type: 3}
      propertyPath: m_LocalPosition.x
      value: -136.5
      objectReference: {fileID: 0}
    - target: {fileID: 224361799991655960, guid: a66d0760ed7c35b44b83a8fc76a18c6d,
        type: 3}
      propertyPath: m_LocalPosition.y
      value: -0.00024414062
      objectReference: {fileID: 0}
    - target: {fileID: 224374303059666628, guid: a66d0760ed7c35b44b83a8fc76a18c6d,
        type: 3}
      propertyPath: m_LocalPosition.x
      value: 0
      objectReference: {fileID: 0}
    - target: {fileID: 224397174864259786, guid: a66d0760ed7c35b44b83a8fc76a18c6d,
        type: 3}
      propertyPath: m_LocalPosition.x
      value: 0
      objectReference: {fileID: 0}
    - target: {fileID: 224397174864259786, guid: a66d0760ed7c35b44b83a8fc76a18c6d,
        type: 3}
      propertyPath: m_LocalPosition.y
      value: 0
      objectReference: {fileID: 0}
    - target: {fileID: 224401439374370040, guid: a66d0760ed7c35b44b83a8fc76a18c6d,
        type: 3}
      propertyPath: m_LocalPosition.x
      value: 0
      objectReference: {fileID: 0}
    - target: {fileID: 224401439374370040, guid: a66d0760ed7c35b44b83a8fc76a18c6d,
        type: 3}
      propertyPath: m_LocalPosition.y
      value: 172.47998
      objectReference: {fileID: 0}
    - target: {fileID: 224413781126453038, guid: a66d0760ed7c35b44b83a8fc76a18c6d,
        type: 3}
      propertyPath: m_LocalPosition.x
      value: 0
      objectReference: {fileID: 0}
    - target: {fileID: 224413781126453038, guid: a66d0760ed7c35b44b83a8fc76a18c6d,
        type: 3}
      propertyPath: m_LocalPosition.y
      value: 34.49997
      objectReference: {fileID: 0}
    - target: {fileID: 224482427841964202, guid: a66d0760ed7c35b44b83a8fc76a18c6d,
        type: 3}
      propertyPath: m_LocalPosition.x
      value: 30
      objectReference: {fileID: 0}
    - target: {fileID: 224482427841964202, guid: a66d0760ed7c35b44b83a8fc76a18c6d,
        type: 3}
      propertyPath: m_LocalPosition.y
      value: -0.000012397766
      objectReference: {fileID: 0}
    - target: {fileID: 224507922557701362, guid: a66d0760ed7c35b44b83a8fc76a18c6d,
        type: 3}
      propertyPath: m_LocalPosition.x
      value: 0
      objectReference: {fileID: 0}
    - target: {fileID: 224507922557701362, guid: a66d0760ed7c35b44b83a8fc76a18c6d,
        type: 3}
      propertyPath: m_LocalPosition.y
      value: 105.00003
      objectReference: {fileID: 0}
    - target: {fileID: 224508562848066834, guid: a66d0760ed7c35b44b83a8fc76a18c6d,
        type: 3}
      propertyPath: m_LocalPosition.x
      value: -96.00001
      objectReference: {fileID: 0}
    - target: {fileID: 224508562848066834, guid: a66d0760ed7c35b44b83a8fc76a18c6d,
        type: 3}
      propertyPath: m_LocalPosition.y
      value: 12.5000305
      objectReference: {fileID: 0}
    - target: {fileID: 224512056433033190, guid: a66d0760ed7c35b44b83a8fc76a18c6d,
        type: 3}
      propertyPath: m_LocalPosition.x
      value: 0
      objectReference: {fileID: 0}
    - target: {fileID: 224512056433033190, guid: a66d0760ed7c35b44b83a8fc76a18c6d,
        type: 3}
      propertyPath: m_LocalPosition.y
      value: 105.00002
      objectReference: {fileID: 0}
    - target: {fileID: 224519313874721646, guid: a66d0760ed7c35b44b83a8fc76a18c6d,
        type: 3}
      propertyPath: m_LocalPosition.x
      value: 0
      objectReference: {fileID: 0}
    - target: {fileID: 224519313874721646, guid: a66d0760ed7c35b44b83a8fc76a18c6d,
        type: 3}
      propertyPath: m_LocalPosition.y
      value: 0
      objectReference: {fileID: 0}
    - target: {fileID: 224524675147105110, guid: a66d0760ed7c35b44b83a8fc76a18c6d,
        type: 3}
      propertyPath: m_LocalPosition.x
      value: 0
      objectReference: {fileID: 0}
    - target: {fileID: 224524675147105110, guid: a66d0760ed7c35b44b83a8fc76a18c6d,
        type: 3}
      propertyPath: m_LocalPosition.y
      value: 56.750015
      objectReference: {fileID: 0}
    - target: {fileID: 224525681758359150, guid: a66d0760ed7c35b44b83a8fc76a18c6d,
        type: 3}
      propertyPath: m_LocalPosition.x
      value: 0
      objectReference: {fileID: 0}
    - target: {fileID: 224525681758359150, guid: a66d0760ed7c35b44b83a8fc76a18c6d,
        type: 3}
      propertyPath: m_LocalPosition.y
      value: 17.480057
      objectReference: {fileID: 0}
    - target: {fileID: 224529095778822440, guid: a66d0760ed7c35b44b83a8fc76a18c6d,
        type: 3}
      propertyPath: m_LocalPosition.x
      value: 10
      objectReference: {fileID: 0}
    - target: {fileID: 224529095778822440, guid: a66d0760ed7c35b44b83a8fc76a18c6d,
        type: 3}
      propertyPath: m_LocalPosition.y
      value: 0.000022888184
      objectReference: {fileID: 0}
    - target: {fileID: 224537206028590804, guid: a66d0760ed7c35b44b83a8fc76a18c6d,
        type: 3}
      propertyPath: m_AnchorMin.x
      value: 0
      objectReference: {fileID: 0}
    - target: {fileID: 224537206028590804, guid: a66d0760ed7c35b44b83a8fc76a18c6d,
        type: 3}
      propertyPath: m_AnchorMin.y
      value: 0
      objectReference: {fileID: 0}
    - target: {fileID: 224537206028590804, guid: a66d0760ed7c35b44b83a8fc76a18c6d,
        type: 3}
      propertyPath: m_AnchorMax.x
      value: 0
      objectReference: {fileID: 0}
    - target: {fileID: 224537206028590804, guid: a66d0760ed7c35b44b83a8fc76a18c6d,
        type: 3}
      propertyPath: m_AnchorMax.y
      value: 0
      objectReference: {fileID: 0}
    - target: {fileID: 224549979570674328, guid: a66d0760ed7c35b44b83a8fc76a18c6d,
        type: 3}
      propertyPath: m_LocalPosition.x
      value: -30
      objectReference: {fileID: 0}
    - target: {fileID: 224549979570674328, guid: a66d0760ed7c35b44b83a8fc76a18c6d,
        type: 3}
      propertyPath: m_LocalPosition.y
      value: 0.000022888184
      objectReference: {fileID: 0}
    - target: {fileID: 224562210334228094, guid: a66d0760ed7c35b44b83a8fc76a18c6d,
        type: 3}
      propertyPath: m_LocalPosition.x
      value: 0
      objectReference: {fileID: 0}
    - target: {fileID: 224562210334228094, guid: a66d0760ed7c35b44b83a8fc76a18c6d,
        type: 3}
      propertyPath: m_LocalPosition.y
      value: 137.75
      objectReference: {fileID: 0}
    - target: {fileID: 224562219577684748, guid: a66d0760ed7c35b44b83a8fc76a18c6d,
        type: 3}
      propertyPath: m_LocalPosition.x
      value: 0
      objectReference: {fileID: 0}
    - target: {fileID: 224562219577684748, guid: a66d0760ed7c35b44b83a8fc76a18c6d,
        type: 3}
      propertyPath: m_LocalPosition.y
      value: 194.48
      objectReference: {fileID: 0}
    - target: {fileID: 224577815515414538, guid: a66d0760ed7c35b44b83a8fc76a18c6d,
        type: 3}
      propertyPath: m_LocalPosition.x
      value: 0
      objectReference: {fileID: 0}
    - target: {fileID: 224577815515414538, guid: a66d0760ed7c35b44b83a8fc76a18c6d,
        type: 3}
      propertyPath: m_LocalPosition.y
      value: -3.2499695
      objectReference: {fileID: 0}
    - target: {fileID: 224591347449047306, guid: a66d0760ed7c35b44b83a8fc76a18c6d,
        type: 3}
      propertyPath: m_LocalPosition.x
      value: 0
      objectReference: {fileID: 0}
    - target: {fileID: 224591347449047306, guid: a66d0760ed7c35b44b83a8fc76a18c6d,
        type: 3}
      propertyPath: m_LocalPosition.y
      value: 206.98004
      objectReference: {fileID: 0}
    - target: {fileID: 224599460017240346, guid: a66d0760ed7c35b44b83a8fc76a18c6d,
        type: 3}
      propertyPath: m_LocalPosition.x
      value: 0
      objectReference: {fileID: 0}
    - target: {fileID: 224607715014798922, guid: a66d0760ed7c35b44b83a8fc76a18c6d,
        type: 3}
      propertyPath: m_LocalPosition.y
      value: 0
      objectReference: {fileID: 0}
    - target: {fileID: 224607715014798922, guid: a66d0760ed7c35b44b83a8fc76a18c6d,
        type: 3}
      propertyPath: m_AnchorMin.x
      value: 0
      objectReference: {fileID: 0}
    - target: {fileID: 224607715014798922, guid: a66d0760ed7c35b44b83a8fc76a18c6d,
        type: 3}
      propertyPath: m_AnchorMin.y
      value: 0
      objectReference: {fileID: 0}
    - target: {fileID: 224607715014798922, guid: a66d0760ed7c35b44b83a8fc76a18c6d,
        type: 3}
      propertyPath: m_AnchorMax.x
      value: 0
      objectReference: {fileID: 0}
    - target: {fileID: 224607715014798922, guid: a66d0760ed7c35b44b83a8fc76a18c6d,
        type: 3}
      propertyPath: m_AnchorMax.y
      value: 0
      objectReference: {fileID: 0}
    - target: {fileID: 224627871800660030, guid: a66d0760ed7c35b44b83a8fc76a18c6d,
        type: 3}
      propertyPath: m_LocalPosition.y
      value: 9.499756
      objectReference: {fileID: 0}
    - target: {fileID: 224646448938137048, guid: a66d0760ed7c35b44b83a8fc76a18c6d,
        type: 3}
      propertyPath: m_LocalPosition.x
      value: 0
      objectReference: {fileID: 0}
    - target: {fileID: 224659721643673710, guid: a66d0760ed7c35b44b83a8fc76a18c6d,
        type: 3}
      propertyPath: m_LocalPosition.x
      value: 0
      objectReference: {fileID: 0}
    - target: {fileID: 224659721643673710, guid: a66d0760ed7c35b44b83a8fc76a18c6d,
        type: 3}
      propertyPath: m_LocalPosition.y
      value: 89.47999
      objectReference: {fileID: 0}
    - target: {fileID: 224667111935404004, guid: a66d0760ed7c35b44b83a8fc76a18c6d,
        type: 3}
      propertyPath: m_LocalPosition.x
      value: 0
      objectReference: {fileID: 0}
    - target: {fileID: 224667111935404004, guid: a66d0760ed7c35b44b83a8fc76a18c6d,
        type: 3}
      propertyPath: m_LocalPosition.y
      value: 89.47999
      objectReference: {fileID: 0}
    - target: {fileID: 224668094755600352, guid: a66d0760ed7c35b44b83a8fc76a18c6d,
        type: 3}
      propertyPath: m_LocalPosition.x
      value: 0
      objectReference: {fileID: 0}
    - target: {fileID: 224668094755600352, guid: a66d0760ed7c35b44b83a8fc76a18c6d,
        type: 3}
      propertyPath: m_LocalPosition.y
      value: -101.25006
      objectReference: {fileID: 0}
    - target: {fileID: 224693485862057440, guid: a66d0760ed7c35b44b83a8fc76a18c6d,
        type: 3}
      propertyPath: m_LocalPosition.x
      value: -136.5
      objectReference: {fileID: 0}
    - target: {fileID: 224693485862057440, guid: a66d0760ed7c35b44b83a8fc76a18c6d,
        type: 3}
      propertyPath: m_LocalPosition.y
      value: 9.499756
      objectReference: {fileID: 0}
    - target: {fileID: 224698012994477006, guid: a66d0760ed7c35b44b83a8fc76a18c6d,
        type: 3}
      propertyPath: m_LocalPosition.x
      value: 0
      objectReference: {fileID: 0}
    - target: {fileID: 224698012994477006, guid: a66d0760ed7c35b44b83a8fc76a18c6d,
        type: 3}
      propertyPath: m_LocalPosition.y
      value: 8.500015
      objectReference: {fileID: 0}
    - target: {fileID: 224720151847188578, guid: a66d0760ed7c35b44b83a8fc76a18c6d,
        type: 3}
      propertyPath: m_LocalPosition.y
      value: 0
      objectReference: {fileID: 0}
    - target: {fileID: 224720151847188578, guid: a66d0760ed7c35b44b83a8fc76a18c6d,
        type: 3}
      propertyPath: m_AnchorMin.x
      value: 0
      objectReference: {fileID: 0}
    - target: {fileID: 224720151847188578, guid: a66d0760ed7c35b44b83a8fc76a18c6d,
        type: 3}
      propertyPath: m_AnchorMin.y
      value: 0
      objectReference: {fileID: 0}
    - target: {fileID: 224720151847188578, guid: a66d0760ed7c35b44b83a8fc76a18c6d,
        type: 3}
      propertyPath: m_AnchorMax.x
      value: 0
      objectReference: {fileID: 0}
    - target: {fileID: 224720151847188578, guid: a66d0760ed7c35b44b83a8fc76a18c6d,
        type: 3}
      propertyPath: m_AnchorMax.y
      value: 0
      objectReference: {fileID: 0}
    - target: {fileID: 224721169228679080, guid: a66d0760ed7c35b44b83a8fc76a18c6d,
        type: 3}
      propertyPath: m_LocalPosition.x
      value: 0
      objectReference: {fileID: 0}
    - target: {fileID: 224721169228679080, guid: a66d0760ed7c35b44b83a8fc76a18c6d,
        type: 3}
      propertyPath: m_LocalPosition.y
      value: 206.98004
      objectReference: {fileID: 0}
    - target: {fileID: 224739294135854350, guid: a66d0760ed7c35b44b83a8fc76a18c6d,
        type: 3}
      propertyPath: m_LocalPosition.x
      value: 0
      objectReference: {fileID: 0}
    - target: {fileID: 224739294135854350, guid: a66d0760ed7c35b44b83a8fc76a18c6d,
        type: 3}
      propertyPath: m_LocalPosition.y
      value: 206.98004
      objectReference: {fileID: 0}
    - target: {fileID: 224762343071075668, guid: a66d0760ed7c35b44b83a8fc76a18c6d,
        type: 3}
      propertyPath: m_LocalPosition.x
      value: 0
      objectReference: {fileID: 0}
    - target: {fileID: 224762343071075668, guid: a66d0760ed7c35b44b83a8fc76a18c6d,
        type: 3}
      propertyPath: m_LocalPosition.y
      value: 0
      objectReference: {fileID: 0}
    - target: {fileID: 224769752988200818, guid: a66d0760ed7c35b44b83a8fc76a18c6d,
        type: 3}
      propertyPath: m_LocalPosition.x
      value: -52.500008
      objectReference: {fileID: 0}
    - target: {fileID: 224776679834653836, guid: a66d0760ed7c35b44b83a8fc76a18c6d,
        type: 3}
      propertyPath: m_LocalPosition.x
      value: 0
      objectReference: {fileID: 0}
    - target: {fileID: 224776679834653836, guid: a66d0760ed7c35b44b83a8fc76a18c6d,
        type: 3}
      propertyPath: m_LocalPosition.y
      value: 0
      objectReference: {fileID: 0}
    - target: {fileID: 224798083664729358, guid: a66d0760ed7c35b44b83a8fc76a18c6d,
        type: 3}
      propertyPath: m_LocalPosition.x
      value: 0
      objectReference: {fileID: 0}
    - target: {fileID: 224798083664729358, guid: a66d0760ed7c35b44b83a8fc76a18c6d,
        type: 3}
      propertyPath: m_LocalPosition.y
      value: 0
      objectReference: {fileID: 0}
    - target: {fileID: 224798083664729358, guid: a66d0760ed7c35b44b83a8fc76a18c6d,
        type: 3}
      propertyPath: m_AnchoredPosition.y
      value: 0.000015258789
      objectReference: {fileID: 0}
    - target: {fileID: 224836958556210224, guid: a66d0760ed7c35b44b83a8fc76a18c6d,
        type: 3}
      propertyPath: m_LocalPosition.x
      value: -10
      objectReference: {fileID: 0}
    - target: {fileID: 224850488493533974, guid: a66d0760ed7c35b44b83a8fc76a18c6d,
        type: 3}
      propertyPath: m_LocalPosition.x
      value: 0
      objectReference: {fileID: 0}
    - target: {fileID: 224850488493533974, guid: a66d0760ed7c35b44b83a8fc76a18c6d,
        type: 3}
      propertyPath: m_LocalPosition.y
      value: -2.5
      objectReference: {fileID: 0}
    - target: {fileID: 224862052051170098, guid: a66d0760ed7c35b44b83a8fc76a18c6d,
        type: 3}
      propertyPath: m_LocalPosition.x
      value: -45.5
      objectReference: {fileID: 0}
    - target: {fileID: 224862052051170098, guid: a66d0760ed7c35b44b83a8fc76a18c6d,
        type: 3}
      propertyPath: m_LocalPosition.y
      value: -0.00024414062
      objectReference: {fileID: 0}
    - target: {fileID: 224909296895900956, guid: a66d0760ed7c35b44b83a8fc76a18c6d,
        type: 3}
      propertyPath: m_LocalPosition.x
      value: 30
      objectReference: {fileID: 0}
    - target: {fileID: 224909296895900956, guid: a66d0760ed7c35b44b83a8fc76a18c6d,
        type: 3}
      propertyPath: m_LocalPosition.y
      value: -0.00000047683716
      objectReference: {fileID: 0}
    - target: {fileID: 224911720514236262, guid: a66d0760ed7c35b44b83a8fc76a18c6d,
        type: 3}
      propertyPath: m_LocalPosition.x
      value: -24
      objectReference: {fileID: 0}
    - target: {fileID: 224911720514236262, guid: a66d0760ed7c35b44b83a8fc76a18c6d,
        type: 3}
      propertyPath: m_LocalPosition.y
      value: -2.499977
      objectReference: {fileID: 0}
    - target: {fileID: 224916224088202748, guid: a66d0760ed7c35b44b83a8fc76a18c6d,
        type: 3}
      propertyPath: m_LocalPosition.x
      value: 24
      objectReference: {fileID: 0}
    - target: {fileID: 224916224088202748, guid: a66d0760ed7c35b44b83a8fc76a18c6d,
        type: 3}
      propertyPath: m_LocalPosition.y
      value: -2.499977
      objectReference: {fileID: 0}
    - target: {fileID: 224940428074723908, guid: a66d0760ed7c35b44b83a8fc76a18c6d,
        type: 3}
      propertyPath: m_LocalPosition.x
      value: 0
      objectReference: {fileID: 0}
    - target: {fileID: 224940428074723908, guid: a66d0760ed7c35b44b83a8fc76a18c6d,
        type: 3}
      propertyPath: m_LocalPosition.y
      value: 6.4799957
      objectReference: {fileID: 0}
    m_RemovedComponents: []
  m_SourcePrefab: {fileID: 100100000, guid: a66d0760ed7c35b44b83a8fc76a18c6d, type: 3}
