%YAML 1.1
%TAG !u! tag:unity3d.com,2011:
--- !u!29 &1
OcclusionCullingSettings:
  m_ObjectHideFlags: 0
  serializedVersion: 2
  m_OcclusionBakeSettings:
    smallestOccluder: 5
    smallestHole: 0.25
    backfaceThreshold: 100
  m_SceneGUID: 00000000000000000000000000000000
  m_OcclusionCullingData: {fileID: 0}
--- !u!104 &2
RenderSettings:
  m_ObjectHideFlags: 0
  serializedVersion: 9
  m_Fog: 0
  m_FogColor: {r: 0.5, g: 0.5, b: 0.5, a: 1}
  m_FogMode: 3
  m_FogDensity: 0.01
  m_LinearFogStart: 0
  m_LinearFogEnd: 300
  m_AmbientSkyColor: {r: 1, g: 1, b: 1, a: 1}
  m_AmbientEquatorColor: {r: 0.114, g: 0.125, b: 0.133, a: 1}
  m_AmbientGroundColor: {r: 0.047, g: 0.043, b: 0.035, a: 1}
  m_AmbientIntensity: 1
  m_AmbientMode: 3
  m_SubtractiveShadowColor: {r: 0.42, g: 0.478, b: 0.627, a: 1}
  m_SkyboxMaterial: {fileID: 0}
  m_HaloStrength: 0.5
  m_FlareStrength: 1
  m_FlareFadeSpeed: 3
  m_HaloTexture: {fileID: 0}
  m_SpotCookie: {fileID: 10001, guid: 0000000000000000e000000000000000, type: 0}
  m_DefaultReflectionMode: 0
  m_DefaultReflectionResolution: 128
  m_ReflectionBounces: 1
  m_ReflectionIntensity: 1
  m_CustomReflection: {fileID: 0}
  m_Sun: {fileID: 0}
  m_IndirectSpecularColor: {r: 0, g: 0, b: 0, a: 1}
  m_UseRadianceAmbientProbe: 0
--- !u!157 &3
LightmapSettings:
  m_ObjectHideFlags: 0
  serializedVersion: 11
  m_GIWorkflowMode: 1
  m_GISettings:
    serializedVersion: 2
    m_BounceScale: 1
    m_IndirectOutputScale: 1
    m_AlbedoBoost: 1
    m_EnvironmentLightingMode: 0
    m_EnableBakedLightmaps: 1
    m_EnableRealtimeLightmaps: 1
  m_LightmapEditorSettings:
    serializedVersion: 12
    m_Resolution: 2
    m_BakeResolution: 40
    m_AtlasSize: 1024
    m_AO: 0
    m_AOMaxDistance: 1
    m_CompAOExponent: 1
    m_CompAOExponentDirect: 0
    m_ExtractAmbientOcclusion: 0
    m_Padding: 2
    m_LightmapParameters: {fileID: 0}
    m_LightmapsBakeMode: 1
    m_TextureCompression: 1
    m_FinalGather: 0
    m_FinalGatherFiltering: 1
    m_FinalGatherRayCount: 256
    m_ReflectionCompression: 2
    m_MixedBakeMode: 1
    m_BakeBackend: 0
    m_PVRSampling: 1
    m_PVRDirectSampleCount: 32
    m_PVRSampleCount: 500
    m_PVRBounces: 2
    m_PVREnvironmentSampleCount: 500
    m_PVREnvironmentReferencePointCount: 2048
    m_PVRFilteringMode: 2
    m_PVRDenoiserTypeDirect: 0
    m_PVRDenoiserTypeIndirect: 0
    m_PVRDenoiserTypeAO: 0
    m_PVRFilterTypeDirect: 0
    m_PVRFilterTypeIndirect: 0
    m_PVRFilterTypeAO: 0
    m_PVREnvironmentMIS: 0
    m_PVRCulling: 1
    m_PVRFilteringGaussRadiusDirect: 1
    m_PVRFilteringGaussRadiusIndirect: 5
    m_PVRFilteringGaussRadiusAO: 2
    m_PVRFilteringAtrousPositionSigmaDirect: 0.5
    m_PVRFilteringAtrousPositionSigmaIndirect: 2
    m_PVRFilteringAtrousPositionSigmaAO: 1
    m_ExportTrainingData: 0
    m_TrainingDataDestination: TrainingData
  m_LightingDataAsset: {fileID: 0}
  m_UseShadowmask: 0
--- !u!196 &4
NavMeshSettings:
  serializedVersion: 2
  m_ObjectHideFlags: 0
  m_BuildSettings:
    serializedVersion: 2
    agentTypeID: 0
    agentRadius: 0.5
    agentHeight: 2
    agentSlope: 45
    agentClimb: 0.4
    ledgeDropHeight: 0
    maxJumpAcrossDistance: 0
    minRegionArea: 2
    manualCellSize: 0
    cellSize: 0.16666667
    manualTileSize: 0
    tileSize: 256
    accuratePlacement: 0
    debug:
      m_Flags: 0
  m_NavMeshData: {fileID: 0}
--- !u!1001 &1927473927
PrefabInstance:
  m_ObjectHideFlags: 0
  serializedVersion: 2
  m_Modification:
    m_TransformParent: {fileID: 0}
    m_Modifications:
    - target: {fileID: 4320888769077336, guid: fd744b489a6263d43a8fed568d594974, type: 3}
      propertyPath: m_LocalPosition.x
      value: 0
      objectReference: {fileID: 0}
    - target: {fileID: 4320888769077336, guid: fd744b489a6263d43a8fed568d594974, type: 3}
      propertyPath: m_LocalPosition.y
      value: 0
      objectReference: {fileID: 0}
    - target: {fileID: 4320888769077336, guid: fd744b489a6263d43a8fed568d594974, type: 3}
      propertyPath: m_LocalPosition.z
      value: 0
      objectReference: {fileID: 0}
    - target: {fileID: 4320888769077336, guid: fd744b489a6263d43a8fed568d594974, type: 3}
      propertyPath: m_LocalRotation.x
      value: 0
      objectReference: {fileID: 0}
    - target: {fileID: 4320888769077336, guid: fd744b489a6263d43a8fed568d594974, type: 3}
      propertyPath: m_LocalRotation.y
      value: 0
      objectReference: {fileID: 0}
    - target: {fileID: 4320888769077336, guid: fd744b489a6263d43a8fed568d594974, type: 3}
      propertyPath: m_LocalRotation.z
      value: 0
      objectReference: {fileID: 0}
    - target: {fileID: 4320888769077336, guid: fd744b489a6263d43a8fed568d594974, type: 3}
      propertyPath: m_LocalRotation.w
      value: 1
      objectReference: {fileID: 0}
    - target: {fileID: 4320888769077336, guid: fd744b489a6263d43a8fed568d594974, type: 3}
      propertyPath: m_RootOrder
      value: 0
      objectReference: {fileID: 0}
    - target: {fileID: 224000259697706684, guid: fd744b489a6263d43a8fed568d594974,
        type: 3}
      propertyPath: m_AnchorMin.y
      value: 0
      objectReference: {fileID: 0}
    - target: {fileID: 224000259697706684, guid: fd744b489a6263d43a8fed568d594974,
        type: 3}
      propertyPath: m_AnchorMax.y
      value: 0
      objectReference: {fileID: 0}
    - target: {fileID: 224000259697706684, guid: fd744b489a6263d43a8fed568d594974,
        type: 3}
      propertyPath: m_AnchoredPosition.x
      value: 0
      objectReference: {fileID: 0}
    - target: {fileID: 224000259697706684, guid: fd744b489a6263d43a8fed568d594974,
        type: 3}
      propertyPath: m_AnchoredPosition.y
      value: 0
      objectReference: {fileID: 0}
    - target: {fileID: 224010448370247576, guid: fd744b489a6263d43a8fed568d594974,
        type: 3}
      propertyPath: m_AnchoredPosition.y
      value: 0
      objectReference: {fileID: 0}
    - target: {fileID: 224010576671045694, guid: fd744b489a6263d43a8fed568d594974,
        type: 3}
      propertyPath: m_AnchorMin.y
      value: 0
      objectReference: {fileID: 0}
    - target: {fileID: 224010576671045694, guid: fd744b489a6263d43a8fed568d594974,
        type: 3}
      propertyPath: m_AnchorMax.y
      value: 0
      objectReference: {fileID: 0}
    - target: {fileID: 224010576671045694, guid: fd744b489a6263d43a8fed568d594974,
        type: 3}
      propertyPath: m_AnchoredPosition.x
      value: 0
      objectReference: {fileID: 0}
    - target: {fileID: 224010576671045694, guid: fd744b489a6263d43a8fed568d594974,
        type: 3}
      propertyPath: m_AnchoredPosition.y
      value: 0
      objectReference: {fileID: 0}
    - target: {fileID: 224023440437227868, guid: fd744b489a6263d43a8fed568d594974,
        type: 3}
      propertyPath: m_AnchorMin.y
      value: 0
      objectReference: {fileID: 0}
    - target: {fileID: 224023440437227868, guid: fd744b489a6263d43a8fed568d594974,
        type: 3}
      propertyPath: m_AnchorMax.y
      value: 0
      objectReference: {fileID: 0}
    - target: {fileID: 224023440437227868, guid: fd744b489a6263d43a8fed568d594974,
        type: 3}
      propertyPath: m_AnchoredPosition.x
      value: 0
      objectReference: {fileID: 0}
    - target: {fileID: 224023440437227868, guid: fd744b489a6263d43a8fed568d594974,
        type: 3}
      propertyPath: m_AnchoredPosition.y
      value: 0
      objectReference: {fileID: 0}
    - target: {fileID: 224052117496373852, guid: fd744b489a6263d43a8fed568d594974,
        type: 3}
      propertyPath: m_AnchorMin.y
      value: 0
      objectReference: {fileID: 0}
    - target: {fileID: 224052117496373852, guid: fd744b489a6263d43a8fed568d594974,
        type: 3}
      propertyPath: m_AnchorMax.y
      value: 0
      objectReference: {fileID: 0}
    - target: {fileID: 224052117496373852, guid: fd744b489a6263d43a8fed568d594974,
        type: 3}
      propertyPath: m_AnchoredPosition.x
      value: 0
      objectReference: {fileID: 0}
    - target: {fileID: 224052117496373852, guid: fd744b489a6263d43a8fed568d594974,
        type: 3}
      propertyPath: m_AnchoredPosition.y
      value: 0
      objectReference: {fileID: 0}
    - target: {fileID: 224064535487079818, guid: fd744b489a6263d43a8fed568d594974,
        type: 3}
      propertyPath: m_AnchorMin.y
      value: 0
      objectReference: {fileID: 0}
    - target: {fileID: 224064535487079818, guid: fd744b489a6263d43a8fed568d594974,
        type: 3}
      propertyPath: m_AnchorMax.y
      value: 0
      objectReference: {fileID: 0}
    - target: {fileID: 224064535487079818, guid: fd744b489a6263d43a8fed568d594974,
        type: 3}
      propertyPath: m_AnchoredPosition.x
      value: 0
      objectReference: {fileID: 0}
    - target: {fileID: 224064535487079818, guid: fd744b489a6263d43a8fed568d594974,
        type: 3}
      propertyPath: m_AnchoredPosition.y
      value: 0
      objectReference: {fileID: 0}
    - target: {fileID: 224068261181049984, guid: fd744b489a6263d43a8fed568d594974,
        type: 3}
      propertyPath: m_AnchorMin.y
      value: 0
      objectReference: {fileID: 0}
    - target: {fileID: 224068261181049984, guid: fd744b489a6263d43a8fed568d594974,
        type: 3}
      propertyPath: m_AnchorMax.y
      value: 0
      objectReference: {fileID: 0}
    - target: {fileID: 224068261181049984, guid: fd744b489a6263d43a8fed568d594974,
        type: 3}
      propertyPath: m_AnchoredPosition.x
      value: 0
      objectReference: {fileID: 0}
    - target: {fileID: 224068261181049984, guid: fd744b489a6263d43a8fed568d594974,
        type: 3}
      propertyPath: m_AnchoredPosition.y
      value: 0
      objectReference: {fileID: 0}
    - target: {fileID: 224071409650887640, guid: fd744b489a6263d43a8fed568d594974,
        type: 3}
      propertyPath: m_AnchorMin.y
      value: 0
      objectReference: {fileID: 0}
    - target: {fileID: 224071409650887640, guid: fd744b489a6263d43a8fed568d594974,
        type: 3}
      propertyPath: m_AnchorMax.y
      value: 0
      objectReference: {fileID: 0}
    - target: {fileID: 224071409650887640, guid: fd744b489a6263d43a8fed568d594974,
        type: 3}
      propertyPath: m_AnchoredPosition.x
      value: 0
      objectReference: {fileID: 0}
    - target: {fileID: 224071409650887640, guid: fd744b489a6263d43a8fed568d594974,
        type: 3}
      propertyPath: m_AnchoredPosition.y
      value: 0
      objectReference: {fileID: 0}
    - target: {fileID: 224097968547114792, guid: fd744b489a6263d43a8fed568d594974,
        type: 3}
      propertyPath: m_AnchorMin.y
      value: 0
      objectReference: {fileID: 0}
    - target: {fileID: 224097968547114792, guid: fd744b489a6263d43a8fed568d594974,
        type: 3}
      propertyPath: m_AnchorMax.y
      value: 0
      objectReference: {fileID: 0}
    - target: {fileID: 224097968547114792, guid: fd744b489a6263d43a8fed568d594974,
        type: 3}
      propertyPath: m_AnchoredPosition.x
      value: 0
      objectReference: {fileID: 0}
    - target: {fileID: 224097968547114792, guid: fd744b489a6263d43a8fed568d594974,
        type: 3}
      propertyPath: m_AnchoredPosition.y
      value: 0
      objectReference: {fileID: 0}
    - target: {fileID: 224108077120021954, guid: fd744b489a6263d43a8fed568d594974,
        type: 3}
      propertyPath: m_AnchorMin.y
      value: 0
      objectReference: {fileID: 0}
    - target: {fileID: 224108077120021954, guid: fd744b489a6263d43a8fed568d594974,
        type: 3}
      propertyPath: m_AnchorMax.y
      value: 0
      objectReference: {fileID: 0}
    - target: {fileID: 224108077120021954, guid: fd744b489a6263d43a8fed568d594974,
        type: 3}
      propertyPath: m_AnchoredPosition.y
      value: 0
      objectReference: {fileID: 0}
    - target: {fileID: 224108077120021954, guid: fd744b489a6263d43a8fed568d594974,
        type: 3}
      propertyPath: m_SizeDelta.x
      value: 0
      objectReference: {fileID: 0}
    - target: {fileID: 224108077120021954, guid: fd744b489a6263d43a8fed568d594974,
        type: 3}
      propertyPath: m_AnchoredPosition.x
      value: 42.5
      objectReference: {fileID: 0}
    - target: {fileID: 224110290628291696, guid: fd744b489a6263d43a8fed568d594974,
        type: 3}
      propertyPath: m_AnchorMin.y
      value: 0
      objectReference: {fileID: 0}
    - target: {fileID: 224110290628291696, guid: fd744b489a6263d43a8fed568d594974,
        type: 3}
      propertyPath: m_AnchorMax.y
      value: 0
      objectReference: {fileID: 0}
    - target: {fileID: 224110290628291696, guid: fd744b489a6263d43a8fed568d594974,
        type: 3}
      propertyPath: m_AnchoredPosition.x
      value: 0
      objectReference: {fileID: 0}
    - target: {fileID: 224110290628291696, guid: fd744b489a6263d43a8fed568d594974,
        type: 3}
      propertyPath: m_AnchoredPosition.y
      value: 0
      objectReference: {fileID: 0}
    - target: {fileID: 224111404993337414, guid: fd744b489a6263d43a8fed568d594974,
        type: 3}
      propertyPath: m_AnchorMin.y
      value: 0
      objectReference: {fileID: 0}
    - target: {fileID: 224111404993337414, guid: fd744b489a6263d43a8fed568d594974,
        type: 3}
      propertyPath: m_AnchorMax.y
      value: 0
      objectReference: {fileID: 0}
    - target: {fileID: 224111404993337414, guid: fd744b489a6263d43a8fed568d594974,
        type: 3}
      propertyPath: m_AnchoredPosition.x
      value: 0
      objectReference: {fileID: 0}
    - target: {fileID: 224111404993337414, guid: fd744b489a6263d43a8fed568d594974,
        type: 3}
      propertyPath: m_AnchoredPosition.y
      value: 0
      objectReference: {fileID: 0}
    - target: {fileID: 224116406976220550, guid: fd744b489a6263d43a8fed568d594974,
        type: 3}
      propertyPath: m_AnchorMin.y
      value: 0
      objectReference: {fileID: 0}
    - target: {fileID: 224116406976220550, guid: fd744b489a6263d43a8fed568d594974,
        type: 3}
      propertyPath: m_AnchorMax.y
      value: 0
      objectReference: {fileID: 0}
    - target: {fileID: 224116406976220550, guid: fd744b489a6263d43a8fed568d594974,
        type: 3}
      propertyPath: m_AnchoredPosition.x
      value: 0
      objectReference: {fileID: 0}
    - target: {fileID: 224116406976220550, guid: fd744b489a6263d43a8fed568d594974,
        type: 3}
      propertyPath: m_AnchoredPosition.y
      value: 0
      objectReference: {fileID: 0}
    - target: {fileID: 224126542378320816, guid: fd744b489a6263d43a8fed568d594974,
        type: 3}
      propertyPath: m_AnchorMin.y
      value: 0
      objectReference: {fileID: 0}
    - target: {fileID: 224126542378320816, guid: fd744b489a6263d43a8fed568d594974,
        type: 3}
      propertyPath: m_AnchorMax.y
      value: 0
      objectReference: {fileID: 0}
    - target: {fileID: 224126542378320816, guid: fd744b489a6263d43a8fed568d594974,
        type: 3}
      propertyPath: m_AnchoredPosition.x
      value: 0
      objectReference: {fileID: 0}
    - target: {fileID: 224126542378320816, guid: fd744b489a6263d43a8fed568d594974,
        type: 3}
      propertyPath: m_AnchoredPosition.y
      value: 0
      objectReference: {fileID: 0}
    - target: {fileID: 224131276625427850, guid: fd744b489a6263d43a8fed568d594974,
        type: 3}
      propertyPath: m_AnchorMin.y
      value: 0
      objectReference: {fileID: 0}
    - target: {fileID: 224131276625427850, guid: fd744b489a6263d43a8fed568d594974,
        type: 3}
      propertyPath: m_AnchorMax.y
      value: 0
      objectReference: {fileID: 0}
    - target: {fileID: 224131276625427850, guid: fd744b489a6263d43a8fed568d594974,
        type: 3}
      propertyPath: m_AnchoredPosition.x
      value: 0
      objectReference: {fileID: 0}
    - target: {fileID: 224131276625427850, guid: fd744b489a6263d43a8fed568d594974,
        type: 3}
      propertyPath: m_AnchoredPosition.y
      value: 0
      objectReference: {fileID: 0}
    - target: {fileID: 224138981374244752, guid: fd744b489a6263d43a8fed568d594974,
        type: 3}
      propertyPath: m_AnchorMin.y
      value: 0
      objectReference: {fileID: 0}
    - target: {fileID: 224138981374244752, guid: fd744b489a6263d43a8fed568d594974,
        type: 3}
      propertyPath: m_AnchorMax.y
      value: 0
      objectReference: {fileID: 0}
    - target: {fileID: 224138981374244752, guid: fd744b489a6263d43a8fed568d594974,
        type: 3}
      propertyPath: m_AnchoredPosition.x
      value: 0
      objectReference: {fileID: 0}
    - target: {fileID: 224138981374244752, guid: fd744b489a6263d43a8fed568d594974,
        type: 3}
      propertyPath: m_AnchoredPosition.y
      value: 0
      objectReference: {fileID: 0}
    - target: {fileID: 224143455771023710, guid: fd744b489a6263d43a8fed568d594974,
        type: 3}
      propertyPath: m_AnchorMin.y
      value: 0
      objectReference: {fileID: 0}
    - target: {fileID: 224143455771023710, guid: fd744b489a6263d43a8fed568d594974,
        type: 3}
      propertyPath: m_AnchorMax.y
      value: 0
      objectReference: {fileID: 0}
    - target: {fileID: 224143455771023710, guid: fd744b489a6263d43a8fed568d594974,
        type: 3}
      propertyPath: m_AnchoredPosition.x
      value: 0
      objectReference: {fileID: 0}
    - target: {fileID: 224143455771023710, guid: fd744b489a6263d43a8fed568d594974,
        type: 3}
      propertyPath: m_AnchoredPosition.y
      value: 0
      objectReference: {fileID: 0}
    - target: {fileID: 224154370690507786, guid: fd744b489a6263d43a8fed568d594974,
        type: 3}
      propertyPath: m_AnchorMin.y
      value: 0
      objectReference: {fileID: 0}
    - target: {fileID: 224154370690507786, guid: fd744b489a6263d43a8fed568d594974,
        type: 3}
      propertyPath: m_AnchorMax.y
      value: 0
      objectReference: {fileID: 0}
    - target: {fileID: 224154370690507786, guid: fd744b489a6263d43a8fed568d594974,
        type: 3}
      propertyPath: m_AnchoredPosition.x
      value: 0
      objectReference: {fileID: 0}
    - target: {fileID: 224154370690507786, guid: fd744b489a6263d43a8fed568d594974,
        type: 3}
      propertyPath: m_AnchoredPosition.y
      value: 0
      objectReference: {fileID: 0}
    - target: {fileID: 224155367170356194, guid: fd744b489a6263d43a8fed568d594974,
        type: 3}
      propertyPath: m_AnchorMin.y
      value: 0
      objectReference: {fileID: 0}
    - target: {fileID: 224155367170356194, guid: fd744b489a6263d43a8fed568d594974,
        type: 3}
      propertyPath: m_AnchorMax.y
      value: 0
      objectReference: {fileID: 0}
    - target: {fileID: 224155367170356194, guid: fd744b489a6263d43a8fed568d594974,
        type: 3}
      propertyPath: m_AnchoredPosition.x
      value: 0
      objectReference: {fileID: 0}
    - target: {fileID: 224155367170356194, guid: fd744b489a6263d43a8fed568d594974,
        type: 3}
      propertyPath: m_AnchoredPosition.y
      value: 0
      objectReference: {fileID: 0}
    - target: {fileID: 224172789144602184, guid: fd744b489a6263d43a8fed568d594974,
        type: 3}
      propertyPath: m_AnchorMin.y
      value: 0
      objectReference: {fileID: 0}
    - target: {fileID: 224172789144602184, guid: fd744b489a6263d43a8fed568d594974,
        type: 3}
      propertyPath: m_AnchorMax.y
      value: 0
      objectReference: {fileID: 0}
    - target: {fileID: 224172789144602184, guid: fd744b489a6263d43a8fed568d594974,
        type: 3}
      propertyPath: m_AnchoredPosition.x
      value: 0
      objectReference: {fileID: 0}
    - target: {fileID: 224172789144602184, guid: fd744b489a6263d43a8fed568d594974,
        type: 3}
      propertyPath: m_AnchoredPosition.y
      value: 0
      objectReference: {fileID: 0}
    - target: {fileID: 224174662616425786, guid: fd744b489a6263d43a8fed568d594974,
        type: 3}
      propertyPath: m_AnchoredPosition.x
      value: -96.00049
      objectReference: {fileID: 0}
    - target: {fileID: 224175271661499844, guid: fd744b489a6263d43a8fed568d594974,
        type: 3}
      propertyPath: m_AnchorMin.y
      value: 0
      objectReference: {fileID: 0}
    - target: {fileID: 224175271661499844, guid: fd744b489a6263d43a8fed568d594974,
        type: 3}
      propertyPath: m_AnchorMax.y
      value: 0
      objectReference: {fileID: 0}
    - target: {fileID: 224175271661499844, guid: fd744b489a6263d43a8fed568d594974,
        type: 3}
      propertyPath: m_AnchoredPosition.x
      value: 0
      objectReference: {fileID: 0}
    - target: {fileID: 224175271661499844, guid: fd744b489a6263d43a8fed568d594974,
        type: 3}
      propertyPath: m_AnchoredPosition.y
      value: 0
      objectReference: {fileID: 0}
    - target: {fileID: 224189982329342178, guid: fd744b489a6263d43a8fed568d594974,
        type: 3}
      propertyPath: m_AnchorMin.y
      value: 0
      objectReference: {fileID: 0}
    - target: {fileID: 224189982329342178, guid: fd744b489a6263d43a8fed568d594974,
        type: 3}
      propertyPath: m_AnchorMax.y
      value: 0
      objectReference: {fileID: 0}
    - target: {fileID: 224189982329342178, guid: fd744b489a6263d43a8fed568d594974,
        type: 3}
      propertyPath: m_AnchoredPosition.x
      value: 0
      objectReference: {fileID: 0}
    - target: {fileID: 224189982329342178, guid: fd744b489a6263d43a8fed568d594974,
        type: 3}
      propertyPath: m_AnchoredPosition.y
      value: 0
      objectReference: {fileID: 0}
    - target: {fileID: 224192056617040340, guid: fd744b489a6263d43a8fed568d594974,
        type: 3}
      propertyPath: m_AnchorMin.y
      value: 0
      objectReference: {fileID: 0}
    - target: {fileID: 224192056617040340, guid: fd744b489a6263d43a8fed568d594974,
        type: 3}
      propertyPath: m_AnchorMax.y
      value: 0
      objectReference: {fileID: 0}
    - target: {fileID: 224192056617040340, guid: fd744b489a6263d43a8fed568d594974,
        type: 3}
      propertyPath: m_AnchoredPosition.x
      value: 0
      objectReference: {fileID: 0}
    - target: {fileID: 224192056617040340, guid: fd744b489a6263d43a8fed568d594974,
        type: 3}
      propertyPath: m_AnchoredPosition.y
      value: 0
      objectReference: {fileID: 0}
    - target: {fileID: 224208062074885048, guid: fd744b489a6263d43a8fed568d594974,
        type: 3}
      propertyPath: m_AnchorMin.y
      value: 0
      objectReference: {fileID: 0}
    - target: {fileID: 224208062074885048, guid: fd744b489a6263d43a8fed568d594974,
        type: 3}
      propertyPath: m_AnchorMax.y
      value: 0
      objectReference: {fileID: 0}
    - target: {fileID: 224208062074885048, guid: fd744b489a6263d43a8fed568d594974,
        type: 3}
      propertyPath: m_AnchoredPosition.x
      value: 0
      objectReference: {fileID: 0}
    - target: {fileID: 224208062074885048, guid: fd744b489a6263d43a8fed568d594974,
        type: 3}
      propertyPath: m_AnchoredPosition.y
      value: 0
      objectReference: {fileID: 0}
    - target: {fileID: 224234679234394924, guid: fd744b489a6263d43a8fed568d594974,
        type: 3}
      propertyPath: m_AnchorMin.y
      value: 0
      objectReference: {fileID: 0}
    - target: {fileID: 224234679234394924, guid: fd744b489a6263d43a8fed568d594974,
        type: 3}
      propertyPath: m_AnchorMax.y
      value: 0
      objectReference: {fileID: 0}
    - target: {fileID: 224234679234394924, guid: fd744b489a6263d43a8fed568d594974,
        type: 3}
      propertyPath: m_AnchoredPosition.x
      value: 0
      objectReference: {fileID: 0}
    - target: {fileID: 224234679234394924, guid: fd744b489a6263d43a8fed568d594974,
        type: 3}
      propertyPath: m_AnchoredPosition.y
      value: 0
      objectReference: {fileID: 0}
    - target: {fileID: 224241898756420062, guid: fd744b489a6263d43a8fed568d594974,
        type: 3}
      propertyPath: m_AnchorMin.y
      value: 0
      objectReference: {fileID: 0}
    - target: {fileID: 224241898756420062, guid: fd744b489a6263d43a8fed568d594974,
        type: 3}
      propertyPath: m_AnchorMax.y
      value: 0
      objectReference: {fileID: 0}
    - target: {fileID: 224241898756420062, guid: fd744b489a6263d43a8fed568d594974,
        type: 3}
      propertyPath: m_AnchoredPosition.x
      value: 0
      objectReference: {fileID: 0}
    - target: {fileID: 224241898756420062, guid: fd744b489a6263d43a8fed568d594974,
        type: 3}
      propertyPath: m_AnchoredPosition.y
      value: 0
      objectReference: {fileID: 0}
    - target: {fileID: 224287312466089450, guid: fd744b489a6263d43a8fed568d594974,
        type: 3}
      propertyPath: m_AnchorMin.y
      value: 0
      objectReference: {fileID: 0}
    - target: {fileID: 224287312466089450, guid: fd744b489a6263d43a8fed568d594974,
        type: 3}
      propertyPath: m_AnchorMax.y
      value: 0
      objectReference: {fileID: 0}
    - target: {fileID: 224287312466089450, guid: fd744b489a6263d43a8fed568d594974,
        type: 3}
      propertyPath: m_AnchoredPosition.x
      value: 142.5
      objectReference: {fileID: 0}
    - target: {fileID: 224287312466089450, guid: fd744b489a6263d43a8fed568d594974,
        type: 3}
      propertyPath: m_AnchoredPosition.y
      value: 0
      objectReference: {fileID: 0}
    - target: {fileID: 224287312466089450, guid: fd744b489a6263d43a8fed568d594974,
        type: 3}
      propertyPath: m_SizeDelta.x
      value: 0
      objectReference: {fileID: 0}
    - target: {fileID: 224329662634270608, guid: fd744b489a6263d43a8fed568d594974,
        type: 3}
      propertyPath: m_AnchorMin.y
      value: 0
      objectReference: {fileID: 0}
    - target: {fileID: 224329662634270608, guid: fd744b489a6263d43a8fed568d594974,
        type: 3}
      propertyPath: m_AnchorMax.y
      value: 0
      objectReference: {fileID: 0}
    - target: {fileID: 224329662634270608, guid: fd744b489a6263d43a8fed568d594974,
        type: 3}
      propertyPath: m_AnchoredPosition.x
      value: 0
      objectReference: {fileID: 0}
    - target: {fileID: 224329662634270608, guid: fd744b489a6263d43a8fed568d594974,
        type: 3}
      propertyPath: m_AnchoredPosition.y
      value: 0
      objectReference: {fileID: 0}
    - target: {fileID: 224334166091531726, guid: fd744b489a6263d43a8fed568d594974,
        type: 3}
      propertyPath: m_AnchorMin.y
      value: 0
      objectReference: {fileID: 0}
    - target: {fileID: 224334166091531726, guid: fd744b489a6263d43a8fed568d594974,
        type: 3}
      propertyPath: m_AnchorMax.y
      value: 0
      objectReference: {fileID: 0}
    - target: {fileID: 224334166091531726, guid: fd744b489a6263d43a8fed568d594974,
        type: 3}
      propertyPath: m_AnchoredPosition.x
      value: 442.5
      objectReference: {fileID: 0}
    - target: {fileID: 224334166091531726, guid: fd744b489a6263d43a8fed568d594974,
        type: 3}
      propertyPath: m_AnchoredPosition.y
      value: 0
      objectReference: {fileID: 0}
    - target: {fileID: 224334166091531726, guid: fd744b489a6263d43a8fed568d594974,
        type: 3}
      propertyPath: m_SizeDelta.x
      value: 0
      objectReference: {fileID: 0}
    - target: {fileID: 224340876539314218, guid: fd744b489a6263d43a8fed568d594974,
        type: 3}
      propertyPath: m_AnchorMin.y
      value: 0
      objectReference: {fileID: 0}
    - target: {fileID: 224340876539314218, guid: fd744b489a6263d43a8fed568d594974,
        type: 3}
      propertyPath: m_AnchorMax.y
      value: 0
      objectReference: {fileID: 0}
    - target: {fileID: 224340876539314218, guid: fd744b489a6263d43a8fed568d594974,
        type: 3}
      propertyPath: m_AnchoredPosition.x
      value: 0
      objectReference: {fileID: 0}
    - target: {fileID: 224340876539314218, guid: fd744b489a6263d43a8fed568d594974,
        type: 3}
      propertyPath: m_AnchoredPosition.y
      value: 0
      objectReference: {fileID: 0}
    - target: {fileID: 224353067896167202, guid: fd744b489a6263d43a8fed568d594974,
        type: 3}
      propertyPath: m_AnchorMin.y
      value: 0
      objectReference: {fileID: 0}
    - target: {fileID: 224353067896167202, guid: fd744b489a6263d43a8fed568d594974,
        type: 3}
      propertyPath: m_AnchorMax.y
      value: 0
      objectReference: {fileID: 0}
    - target: {fileID: 224353067896167202, guid: fd744b489a6263d43a8fed568d594974,
        type: 3}
      propertyPath: m_AnchoredPosition.x
      value: 0
      objectReference: {fileID: 0}
    - target: {fileID: 224353067896167202, guid: fd744b489a6263d43a8fed568d594974,
        type: 3}
      propertyPath: m_AnchoredPosition.y
      value: 0
      objectReference: {fileID: 0}
    - target: {fileID: 224362078494847088, guid: fd744b489a6263d43a8fed568d594974,
        type: 3}
      propertyPath: m_AnchorMin.y
      value: 0
      objectReference: {fileID: 0}
    - target: {fileID: 224362078494847088, guid: fd744b489a6263d43a8fed568d594974,
        type: 3}
      propertyPath: m_AnchorMax.y
      value: 0
      objectReference: {fileID: 0}
    - target: {fileID: 224362078494847088, guid: fd744b489a6263d43a8fed568d594974,
        type: 3}
      propertyPath: m_AnchoredPosition.x
      value: 0
      objectReference: {fileID: 0}
    - target: {fileID: 224362078494847088, guid: fd744b489a6263d43a8fed568d594974,
        type: 3}
      propertyPath: m_AnchoredPosition.y
      value: 0
      objectReference: {fileID: 0}
    - target: {fileID: 224377656362111552, guid: fd744b489a6263d43a8fed568d594974,
        type: 3}
      propertyPath: m_AnchorMin.y
      value: 0
      objectReference: {fileID: 0}
    - target: {fileID: 224377656362111552, guid: fd744b489a6263d43a8fed568d594974,
        type: 3}
      propertyPath: m_AnchorMax.y
      value: 0
      objectReference: {fileID: 0}
    - target: {fileID: 224377656362111552, guid: fd744b489a6263d43a8fed568d594974,
        type: 3}
      propertyPath: m_AnchoredPosition.x
      value: 0
      objectReference: {fileID: 0}
    - target: {fileID: 224377656362111552, guid: fd744b489a6263d43a8fed568d594974,
        type: 3}
      propertyPath: m_AnchoredPosition.y
      value: 0
      objectReference: {fileID: 0}
    - target: {fileID: 224399649077987062, guid: fd744b489a6263d43a8fed568d594974,
        type: 3}
      propertyPath: m_AnchorMin.y
      value: 0
      objectReference: {fileID: 0}
    - target: {fileID: 224399649077987062, guid: fd744b489a6263d43a8fed568d594974,
        type: 3}
      propertyPath: m_AnchorMax.y
      value: 0
      objectReference: {fileID: 0}
    - target: {fileID: 224399649077987062, guid: fd744b489a6263d43a8fed568d594974,
        type: 3}
      propertyPath: m_AnchoredPosition.x
      value: 0
      objectReference: {fileID: 0}
    - target: {fileID: 224399649077987062, guid: fd744b489a6263d43a8fed568d594974,
        type: 3}
      propertyPath: m_AnchoredPosition.y
      value: 0
      objectReference: {fileID: 0}
    - target: {fileID: 224417830242164748, guid: fd744b489a6263d43a8fed568d594974,
        type: 3}
      propertyPath: m_AnchorMin.y
      value: 0
      objectReference: {fileID: 0}
    - target: {fileID: 224417830242164748, guid: fd744b489a6263d43a8fed568d594974,
        type: 3}
      propertyPath: m_AnchorMax.y
      value: 0
      objectReference: {fileID: 0}
    - target: {fileID: 224417830242164748, guid: fd744b489a6263d43a8fed568d594974,
        type: 3}
      propertyPath: m_AnchoredPosition.x
      value: 0
      objectReference: {fileID: 0}
    - target: {fileID: 224417830242164748, guid: fd744b489a6263d43a8fed568d594974,
        type: 3}
      propertyPath: m_AnchoredPosition.y
      value: 0
      objectReference: {fileID: 0}
    - target: {fileID: 224425636617528694, guid: fd744b489a6263d43a8fed568d594974,
        type: 3}
      propertyPath: m_AnchorMin.y
      value: 0
      objectReference: {fileID: 0}
    - target: {fileID: 224425636617528694, guid: fd744b489a6263d43a8fed568d594974,
        type: 3}
      propertyPath: m_AnchorMax.y
      value: 0
      objectReference: {fileID: 0}
    - target: {fileID: 224425636617528694, guid: fd744b489a6263d43a8fed568d594974,
        type: 3}
      propertyPath: m_AnchoredPosition.x
      value: 0
      objectReference: {fileID: 0}
    - target: {fileID: 224425636617528694, guid: fd744b489a6263d43a8fed568d594974,
        type: 3}
      propertyPath: m_AnchoredPosition.y
      value: 0
      objectReference: {fileID: 0}
    - target: {fileID: 224428604897140376, guid: fd744b489a6263d43a8fed568d594974,
        type: 3}
      propertyPath: m_AnchorMin.y
      value: 0
      objectReference: {fileID: 0}
    - target: {fileID: 224428604897140376, guid: fd744b489a6263d43a8fed568d594974,
        type: 3}
      propertyPath: m_AnchorMax.y
      value: 0
      objectReference: {fileID: 0}
    - target: {fileID: 224428604897140376, guid: fd744b489a6263d43a8fed568d594974,
        type: 3}
      propertyPath: m_AnchoredPosition.x
      value: 0
      objectReference: {fileID: 0}
    - target: {fileID: 224428604897140376, guid: fd744b489a6263d43a8fed568d594974,
        type: 3}
      propertyPath: m_AnchoredPosition.y
      value: 0
      objectReference: {fileID: 0}
    - target: {fileID: 224429879833316108, guid: fd744b489a6263d43a8fed568d594974,
        type: 3}
      propertyPath: m_AnchorMin.y
      value: 0
      objectReference: {fileID: 0}
    - target: {fileID: 224429879833316108, guid: fd744b489a6263d43a8fed568d594974,
        type: 3}
      propertyPath: m_AnchorMax.y
      value: 0
      objectReference: {fileID: 0}
    - target: {fileID: 224429879833316108, guid: fd744b489a6263d43a8fed568d594974,
        type: 3}
      propertyPath: m_AnchoredPosition.x
      value: 0
      objectReference: {fileID: 0}
    - target: {fileID: 224429879833316108, guid: fd744b489a6263d43a8fed568d594974,
        type: 3}
      propertyPath: m_AnchoredPosition.y
      value: 0
      objectReference: {fileID: 0}
    - target: {fileID: 224432591783451208, guid: fd744b489a6263d43a8fed568d594974,
        type: 3}
      propertyPath: m_AnchorMin.y
      value: 0
      objectReference: {fileID: 0}
    - target: {fileID: 224432591783451208, guid: fd744b489a6263d43a8fed568d594974,
        type: 3}
      propertyPath: m_AnchorMax.y
      value: 0
      objectReference: {fileID: 0}
    - target: {fileID: 224432591783451208, guid: fd744b489a6263d43a8fed568d594974,
        type: 3}
      propertyPath: m_AnchoredPosition.x
      value: 0
      objectReference: {fileID: 0}
    - target: {fileID: 224432591783451208, guid: fd744b489a6263d43a8fed568d594974,
        type: 3}
      propertyPath: m_AnchoredPosition.y
      value: 0
      objectReference: {fileID: 0}
    - target: {fileID: 224448879462935238, guid: fd744b489a6263d43a8fed568d594974,
        type: 3}
      propertyPath: m_AnchoredPosition.x
      value: 716
      objectReference: {fileID: 0}
    - target: {fileID: 224472062021726000, guid: fd744b489a6263d43a8fed568d594974,
        type: 3}
      propertyPath: m_AnchorMin.y
      value: 0
      objectReference: {fileID: 0}
    - target: {fileID: 224472062021726000, guid: fd744b489a6263d43a8fed568d594974,
        type: 3}
      propertyPath: m_AnchorMax.y
      value: 0
      objectReference: {fileID: 0}
    - target: {fileID: 224472062021726000, guid: fd744b489a6263d43a8fed568d594974,
        type: 3}
      propertyPath: m_AnchoredPosition.x
      value: 0
      objectReference: {fileID: 0}
    - target: {fileID: 224472062021726000, guid: fd744b489a6263d43a8fed568d594974,
        type: 3}
      propertyPath: m_AnchoredPosition.y
      value: 0
      objectReference: {fileID: 0}
    - target: {fileID: 224496283183805074, guid: fd744b489a6263d43a8fed568d594974,
        type: 3}
      propertyPath: m_AnchorMin.y
      value: 0
      objectReference: {fileID: 0}
    - target: {fileID: 224496283183805074, guid: fd744b489a6263d43a8fed568d594974,
        type: 3}
      propertyPath: m_AnchorMax.y
      value: 0
      objectReference: {fileID: 0}
    - target: {fileID: 224496283183805074, guid: fd744b489a6263d43a8fed568d594974,
        type: 3}
      propertyPath: m_AnchoredPosition.x
      value: 0
      objectReference: {fileID: 0}
    - target: {fileID: 224496283183805074, guid: fd744b489a6263d43a8fed568d594974,
        type: 3}
      propertyPath: m_AnchoredPosition.y
      value: 0
      objectReference: {fileID: 0}
    - target: {fileID: 224501501074614064, guid: fd744b489a6263d43a8fed568d594974,
        type: 3}
      propertyPath: m_AnchorMin.y
      value: 0
      objectReference: {fileID: 0}
    - target: {fileID: 224501501074614064, guid: fd744b489a6263d43a8fed568d594974,
        type: 3}
      propertyPath: m_AnchorMax.y
      value: 0
      objectReference: {fileID: 0}
    - target: {fileID: 224501501074614064, guid: fd744b489a6263d43a8fed568d594974,
        type: 3}
      propertyPath: m_AnchoredPosition.x
      value: 0
      objectReference: {fileID: 0}
    - target: {fileID: 224501501074614064, guid: fd744b489a6263d43a8fed568d594974,
        type: 3}
      propertyPath: m_AnchoredPosition.y
      value: 0
      objectReference: {fileID: 0}
    - target: {fileID: 224519924084220472, guid: fd744b489a6263d43a8fed568d594974,
        type: 3}
      propertyPath: m_AnchorMin.y
      value: 0
      objectReference: {fileID: 0}
    - target: {fileID: 224519924084220472, guid: fd744b489a6263d43a8fed568d594974,
        type: 3}
      propertyPath: m_AnchorMax.y
      value: 0
      objectReference: {fileID: 0}
    - target: {fileID: 224519924084220472, guid: fd744b489a6263d43a8fed568d594974,
        type: 3}
      propertyPath: m_AnchoredPosition.x
      value: 0
      objectReference: {fileID: 0}
    - target: {fileID: 224519924084220472, guid: fd744b489a6263d43a8fed568d594974,
        type: 3}
      propertyPath: m_AnchoredPosition.y
      value: 0
      objectReference: {fileID: 0}
    - target: {fileID: 224529967602664638, guid: fd744b489a6263d43a8fed568d594974,
        type: 3}
      propertyPath: m_AnchorMin.y
      value: 0
      objectReference: {fileID: 0}
    - target: {fileID: 224529967602664638, guid: fd744b489a6263d43a8fed568d594974,
        type: 3}
      propertyPath: m_AnchorMax.y
      value: 0
      objectReference: {fileID: 0}
    - target: {fileID: 224529967602664638, guid: fd744b489a6263d43a8fed568d594974,
        type: 3}
      propertyPath: m_AnchoredPosition.x
      value: 0
      objectReference: {fileID: 0}
    - target: {fileID: 224529967602664638, guid: fd744b489a6263d43a8fed568d594974,
        type: 3}
      propertyPath: m_AnchoredPosition.y
      value: 0
      objectReference: {fileID: 0}
    - target: {fileID: 224543076866294314, guid: fd744b489a6263d43a8fed568d594974,
        type: 3}
      propertyPath: m_AnchorMin.y
      value: 0
      objectReference: {fileID: 0}
    - target: {fileID: 224543076866294314, guid: fd744b489a6263d43a8fed568d594974,
        type: 3}
      propertyPath: m_AnchorMax.y
      value: 0
      objectReference: {fileID: 0}
    - target: {fileID: 224543076866294314, guid: fd744b489a6263d43a8fed568d594974,
        type: 3}
      propertyPath: m_AnchoredPosition.x
      value: 0
      objectReference: {fileID: 0}
    - target: {fileID: 224543076866294314, guid: fd744b489a6263d43a8fed568d594974,
        type: 3}
      propertyPath: m_AnchoredPosition.y
      value: 0
      objectReference: {fileID: 0}
    - target: {fileID: 224561450252600652, guid: fd744b489a6263d43a8fed568d594974,
        type: 3}
      propertyPath: m_AnchorMin.y
      value: 0
      objectReference: {fileID: 0}
    - target: {fileID: 224561450252600652, guid: fd744b489a6263d43a8fed568d594974,
        type: 3}
      propertyPath: m_AnchorMax.y
      value: 0
      objectReference: {fileID: 0}
    - target: {fileID: 224561450252600652, guid: fd744b489a6263d43a8fed568d594974,
        type: 3}
      propertyPath: m_AnchoredPosition.x
      value: 0
      objectReference: {fileID: 0}
    - target: {fileID: 224561450252600652, guid: fd744b489a6263d43a8fed568d594974,
        type: 3}
      propertyPath: m_AnchoredPosition.y
      value: 0
      objectReference: {fileID: 0}
    - target: {fileID: 224582949052591720, guid: fd744b489a6263d43a8fed568d594974,
        type: 3}
      propertyPath: m_AnchorMin.y
      value: 0
      objectReference: {fileID: 0}
    - target: {fileID: 224582949052591720, guid: fd744b489a6263d43a8fed568d594974,
        type: 3}
      propertyPath: m_AnchorMax.y
      value: 0
      objectReference: {fileID: 0}
    - target: {fileID: 224582949052591720, guid: fd744b489a6263d43a8fed568d594974,
        type: 3}
      propertyPath: m_AnchoredPosition.x
      value: 742.5
      objectReference: {fileID: 0}
    - target: {fileID: 224582949052591720, guid: fd744b489a6263d43a8fed568d594974,
        type: 3}
      propertyPath: m_AnchoredPosition.y
      value: 0
      objectReference: {fileID: 0}
    - target: {fileID: 224582949052591720, guid: fd744b489a6263d43a8fed568d594974,
        type: 3}
      propertyPath: m_SizeDelta.x
      value: 0
      objectReference: {fileID: 0}
    - target: {fileID: 224596343160548904, guid: fd744b489a6263d43a8fed568d594974,
        type: 3}
      propertyPath: m_AnchoredPosition.y
      value: -53.80005
      objectReference: {fileID: 0}
    - target: {fileID: 224605553045780972, guid: fd744b489a6263d43a8fed568d594974,
        type: 3}
      propertyPath: m_AnchorMin.y
      value: 0
      objectReference: {fileID: 0}
    - target: {fileID: 224605553045780972, guid: fd744b489a6263d43a8fed568d594974,
        type: 3}
      propertyPath: m_AnchorMax.y
      value: 0
      objectReference: {fileID: 0}
    - target: {fileID: 224605553045780972, guid: fd744b489a6263d43a8fed568d594974,
        type: 3}
      propertyPath: m_AnchoredPosition.x
      value: 0
      objectReference: {fileID: 0}
    - target: {fileID: 224605553045780972, guid: fd744b489a6263d43a8fed568d594974,
        type: 3}
      propertyPath: m_AnchoredPosition.y
      value: 0
      objectReference: {fileID: 0}
    - target: {fileID: 224612680183464858, guid: fd744b489a6263d43a8fed568d594974,
        type: 3}
      propertyPath: m_AnchorMin.y
      value: 0
      objectReference: {fileID: 0}
    - target: {fileID: 224612680183464858, guid: fd744b489a6263d43a8fed568d594974,
        type: 3}
      propertyPath: m_AnchorMax.y
      value: 0
      objectReference: {fileID: 0}
    - target: {fileID: 224612680183464858, guid: fd744b489a6263d43a8fed568d594974,
        type: 3}
      propertyPath: m_AnchoredPosition.x
      value: 0
      objectReference: {fileID: 0}
    - target: {fileID: 224612680183464858, guid: fd744b489a6263d43a8fed568d594974,
        type: 3}
      propertyPath: m_AnchoredPosition.y
      value: 0
      objectReference: {fileID: 0}
    - target: {fileID: 224613322219049770, guid: fd744b489a6263d43a8fed568d594974,
        type: 3}
      propertyPath: m_AnchorMin.y
      value: 0
      objectReference: {fileID: 0}
    - target: {fileID: 224613322219049770, guid: fd744b489a6263d43a8fed568d594974,
        type: 3}
      propertyPath: m_AnchorMax.y
      value: 0
      objectReference: {fileID: 0}
    - target: {fileID: 224613322219049770, guid: fd744b489a6263d43a8fed568d594974,
        type: 3}
      propertyPath: m_AnchoredPosition.x
      value: 0
      objectReference: {fileID: 0}
    - target: {fileID: 224613322219049770, guid: fd744b489a6263d43a8fed568d594974,
        type: 3}
      propertyPath: m_AnchoredPosition.y
      value: 0
      objectReference: {fileID: 0}
    - target: {fileID: 224617802380401874, guid: fd744b489a6263d43a8fed568d594974,
        type: 3}
      propertyPath: m_AnchorMin.y
      value: 0
      objectReference: {fileID: 0}
    - target: {fileID: 224617802380401874, guid: fd744b489a6263d43a8fed568d594974,
        type: 3}
      propertyPath: m_AnchorMax.y
      value: 0
      objectReference: {fileID: 0}
    - target: {fileID: 224617802380401874, guid: fd744b489a6263d43a8fed568d594974,
        type: 3}
      propertyPath: m_AnchoredPosition.x
      value: 0
      objectReference: {fileID: 0}
    - target: {fileID: 224617802380401874, guid: fd744b489a6263d43a8fed568d594974,
        type: 3}
      propertyPath: m_AnchoredPosition.y
      value: 0
      objectReference: {fileID: 0}
    - target: {fileID: 224618741881220996, guid: fd744b489a6263d43a8fed568d594974,
        type: 3}
      propertyPath: m_AnchorMin.y
      value: 0
      objectReference: {fileID: 0}
    - target: {fileID: 224618741881220996, guid: fd744b489a6263d43a8fed568d594974,
        type: 3}
      propertyPath: m_AnchorMax.y
      value: 0
      objectReference: {fileID: 0}
    - target: {fileID: 224618741881220996, guid: fd744b489a6263d43a8fed568d594974,
        type: 3}
      propertyPath: m_AnchoredPosition.x
      value: 0
      objectReference: {fileID: 0}
    - target: {fileID: 224618741881220996, guid: fd744b489a6263d43a8fed568d594974,
        type: 3}
      propertyPath: m_AnchoredPosition.y
      value: 0
      objectReference: {fileID: 0}
    - target: {fileID: 224620064017914518, guid: fd744b489a6263d43a8fed568d594974,
        type: 3}
      propertyPath: m_AnchorMin.y
      value: 0
      objectReference: {fileID: 0}
    - target: {fileID: 224620064017914518, guid: fd744b489a6263d43a8fed568d594974,
        type: 3}
      propertyPath: m_AnchorMax.y
      value: 0
      objectReference: {fileID: 0}
    - target: {fileID: 224620064017914518, guid: fd744b489a6263d43a8fed568d594974,
        type: 3}
      propertyPath: m_AnchoredPosition.x
      value: 0
      objectReference: {fileID: 0}
    - target: {fileID: 224620064017914518, guid: fd744b489a6263d43a8fed568d594974,
        type: 3}
      propertyPath: m_AnchoredPosition.y
      value: 0
      objectReference: {fileID: 0}
    - target: {fileID: 224627162549123756, guid: fd744b489a6263d43a8fed568d594974,
        type: 3}
      propertyPath: m_AnchorMin.y
      value: 0
      objectReference: {fileID: 0}
    - target: {fileID: 224627162549123756, guid: fd744b489a6263d43a8fed568d594974,
        type: 3}
      propertyPath: m_AnchorMax.y
      value: 0
      objectReference: {fileID: 0}
    - target: {fileID: 224627162549123756, guid: fd744b489a6263d43a8fed568d594974,
        type: 3}
      propertyPath: m_AnchoredPosition.x
      value: 0
      objectReference: {fileID: 0}
    - target: {fileID: 224627162549123756, guid: fd744b489a6263d43a8fed568d594974,
        type: 3}
      propertyPath: m_AnchoredPosition.y
      value: 0
      objectReference: {fileID: 0}
    - target: {fileID: 224629198654989026, guid: fd744b489a6263d43a8fed568d594974,
        type: 3}
      propertyPath: m_AnchorMin.y
      value: 0
      objectReference: {fileID: 0}
    - target: {fileID: 224629198654989026, guid: fd744b489a6263d43a8fed568d594974,
        type: 3}
      propertyPath: m_AnchorMax.y
      value: 0
      objectReference: {fileID: 0}
    - target: {fileID: 224629198654989026, guid: fd744b489a6263d43a8fed568d594974,
        type: 3}
      propertyPath: m_AnchoredPosition.x
      value: 0
      objectReference: {fileID: 0}
    - target: {fileID: 224629198654989026, guid: fd744b489a6263d43a8fed568d594974,
        type: 3}
      propertyPath: m_AnchoredPosition.y
      value: 0
      objectReference: {fileID: 0}
    - target: {fileID: 224673392106576306, guid: fd744b489a6263d43a8fed568d594974,
        type: 3}
      propertyPath: m_AnchoredPosition.x
      value: 400
      objectReference: {fileID: 0}
    - target: {fileID: 224679882141439990, guid: fd744b489a6263d43a8fed568d594974,
        type: 3}
      propertyPath: m_AnchorMin.y
      value: 0
      objectReference: {fileID: 0}
    - target: {fileID: 224679882141439990, guid: fd744b489a6263d43a8fed568d594974,
        type: 3}
      propertyPath: m_AnchorMax.y
      value: 0
      objectReference: {fileID: 0}
    - target: {fileID: 224679882141439990, guid: fd744b489a6263d43a8fed568d594974,
        type: 3}
      propertyPath: m_AnchoredPosition.x
      value: 0
      objectReference: {fileID: 0}
    - target: {fileID: 224679882141439990, guid: fd744b489a6263d43a8fed568d594974,
        type: 3}
      propertyPath: m_AnchoredPosition.y
      value: 0
      objectReference: {fileID: 0}
    - target: {fileID: 224680225367495346, guid: fd744b489a6263d43a8fed568d594974,
        type: 3}
      propertyPath: m_AnchorMin.y
      value: 0
      objectReference: {fileID: 0}
    - target: {fileID: 224680225367495346, guid: fd744b489a6263d43a8fed568d594974,
        type: 3}
      propertyPath: m_AnchorMax.y
      value: 0
      objectReference: {fileID: 0}
    - target: {fileID: 224680225367495346, guid: fd744b489a6263d43a8fed568d594974,
        type: 3}
      propertyPath: m_AnchoredPosition.x
      value: 0
      objectReference: {fileID: 0}
    - target: {fileID: 224680225367495346, guid: fd744b489a6263d43a8fed568d594974,
        type: 3}
      propertyPath: m_AnchoredPosition.y
      value: 0
      objectReference: {fileID: 0}
    - target: {fileID: 224681962745775586, guid: fd744b489a6263d43a8fed568d594974,
        type: 3}
      propertyPath: m_AnchorMin.y
      value: 0
      objectReference: {fileID: 0}
    - target: {fileID: 224681962745775586, guid: fd744b489a6263d43a8fed568d594974,
        type: 3}
      propertyPath: m_AnchorMax.y
      value: 0
      objectReference: {fileID: 0}
    - target: {fileID: 224681962745775586, guid: fd744b489a6263d43a8fed568d594974,
        type: 3}
      propertyPath: m_AnchoredPosition.x
      value: 342.5
      objectReference: {fileID: 0}
    - target: {fileID: 224681962745775586, guid: fd744b489a6263d43a8fed568d594974,
        type: 3}
      propertyPath: m_AnchoredPosition.y
      value: 0
      objectReference: {fileID: 0}
    - target: {fileID: 224681962745775586, guid: fd744b489a6263d43a8fed568d594974,
        type: 3}
      propertyPath: m_SizeDelta.x
      value: 0
      objectReference: {fileID: 0}
    - target: {fileID: 224688680254981574, guid: fd744b489a6263d43a8fed568d594974,
        type: 3}
      propertyPath: m_SizeDelta.y
      value: 0
      objectReference: {fileID: 0}
    - target: {fileID: 224694113149798260, guid: fd744b489a6263d43a8fed568d594974,
        type: 3}
      propertyPath: m_AnchorMin.y
      value: 0
      objectReference: {fileID: 0}
    - target: {fileID: 224694113149798260, guid: fd744b489a6263d43a8fed568d594974,
        type: 3}
      propertyPath: m_AnchorMax.y
      value: 0
      objectReference: {fileID: 0}
    - target: {fileID: 224694113149798260, guid: fd744b489a6263d43a8fed568d594974,
        type: 3}
      propertyPath: m_AnchoredPosition.x
      value: 0
      objectReference: {fileID: 0}
    - target: {fileID: 224694113149798260, guid: fd744b489a6263d43a8fed568d594974,
        type: 3}
      propertyPath: m_AnchoredPosition.y
      value: 0
      objectReference: {fileID: 0}
    - target: {fileID: 224706572434726538, guid: fd744b489a6263d43a8fed568d594974,
        type: 3}
      propertyPath: m_AnchorMin.y
      value: 0
      objectReference: {fileID: 0}
    - target: {fileID: 224706572434726538, guid: fd744b489a6263d43a8fed568d594974,
        type: 3}
      propertyPath: m_AnchorMax.y
      value: 0
      objectReference: {fileID: 0}
    - target: {fileID: 224706572434726538, guid: fd744b489a6263d43a8fed568d594974,
        type: 3}
      propertyPath: m_AnchoredPosition.x
      value: 0
      objectReference: {fileID: 0}
    - target: {fileID: 224706572434726538, guid: fd744b489a6263d43a8fed568d594974,
        type: 3}
      propertyPath: m_AnchoredPosition.y
      value: 0
      objectReference: {fileID: 0}
    - target: {fileID: 224713861708145976, guid: fd744b489a6263d43a8fed568d594974,
        type: 3}
      propertyPath: m_AnchorMin.y
      value: 0
      objectReference: {fileID: 0}
    - target: {fileID: 224713861708145976, guid: fd744b489a6263d43a8fed568d594974,
        type: 3}
      propertyPath: m_AnchorMax.y
      value: 0
      objectReference: {fileID: 0}
    - target: {fileID: 224713861708145976, guid: fd744b489a6263d43a8fed568d594974,
        type: 3}
      propertyPath: m_AnchoredPosition.x
      value: 642.5
      objectReference: {fileID: 0}
    - target: {fileID: 224713861708145976, guid: fd744b489a6263d43a8fed568d594974,
        type: 3}
      propertyPath: m_AnchoredPosition.y
      value: 0
      objectReference: {fileID: 0}
    - target: {fileID: 224713861708145976, guid: fd744b489a6263d43a8fed568d594974,
        type: 3}
      propertyPath: m_SizeDelta.x
      value: 0
      objectReference: {fileID: 0}
    - target: {fileID: 224727579762318352, guid: fd744b489a6263d43a8fed568d594974,
        type: 3}
      propertyPath: m_AnchorMin.y
      value: 0
      objectReference: {fileID: 0}
    - target: {fileID: 224727579762318352, guid: fd744b489a6263d43a8fed568d594974,
        type: 3}
      propertyPath: m_AnchorMax.y
      value: 0
      objectReference: {fileID: 0}
    - target: {fileID: 224727579762318352, guid: fd744b489a6263d43a8fed568d594974,
        type: 3}
      propertyPath: m_AnchoredPosition.x
      value: 0
      objectReference: {fileID: 0}
    - target: {fileID: 224727579762318352, guid: fd744b489a6263d43a8fed568d594974,
        type: 3}
      propertyPath: m_AnchoredPosition.y
      value: 0
      objectReference: {fileID: 0}
    - target: {fileID: 224736217350933574, guid: fd744b489a6263d43a8fed568d594974,
        type: 3}
      propertyPath: m_AnchorMin.y
      value: 0
      objectReference: {fileID: 0}
    - target: {fileID: 224736217350933574, guid: fd744b489a6263d43a8fed568d594974,
        type: 3}
      propertyPath: m_AnchorMax.y
      value: 0
      objectReference: {fileID: 0}
    - target: {fileID: 224736217350933574, guid: fd744b489a6263d43a8fed568d594974,
        type: 3}
      propertyPath: m_AnchoredPosition.x
      value: 0
      objectReference: {fileID: 0}
    - target: {fileID: 224736217350933574, guid: fd744b489a6263d43a8fed568d594974,
        type: 3}
      propertyPath: m_AnchoredPosition.y
      value: 0
      objectReference: {fileID: 0}
    - target: {fileID: 224740339251588288, guid: fd744b489a6263d43a8fed568d594974,
        type: 3}
      propertyPath: m_AnchorMin.y
      value: 0
      objectReference: {fileID: 0}
    - target: {fileID: 224740339251588288, guid: fd744b489a6263d43a8fed568d594974,
        type: 3}
      propertyPath: m_AnchorMax.y
      value: 0
      objectReference: {fileID: 0}
    - target: {fileID: 224740339251588288, guid: fd744b489a6263d43a8fed568d594974,
        type: 3}
      propertyPath: m_AnchoredPosition.x
      value: 542.5
      objectReference: {fileID: 0}
    - target: {fileID: 224740339251588288, guid: fd744b489a6263d43a8fed568d594974,
        type: 3}
      propertyPath: m_AnchoredPosition.y
      value: 0
      objectReference: {fileID: 0}
    - target: {fileID: 224740339251588288, guid: fd744b489a6263d43a8fed568d594974,
        type: 3}
      propertyPath: m_SizeDelta.x
      value: 0
      objectReference: {fileID: 0}
    - target: {fileID: 224743898093482822, guid: fd744b489a6263d43a8fed568d594974,
        type: 3}
      propertyPath: m_AnchorMin.y
      value: 0
      objectReference: {fileID: 0}
    - target: {fileID: 224743898093482822, guid: fd744b489a6263d43a8fed568d594974,
        type: 3}
      propertyPath: m_AnchorMax.y
      value: 0
      objectReference: {fileID: 0}
    - target: {fileID: 224743898093482822, guid: fd744b489a6263d43a8fed568d594974,
        type: 3}
      propertyPath: m_AnchoredPosition.x
      value: 0
      objectReference: {fileID: 0}
    - target: {fileID: 224743898093482822, guid: fd744b489a6263d43a8fed568d594974,
        type: 3}
      propertyPath: m_AnchoredPosition.y
      value: 0
      objectReference: {fileID: 0}
    - target: {fileID: 224746827217588252, guid: fd744b489a6263d43a8fed568d594974,
        type: 3}
      propertyPath: m_AnchorMin.y
      value: 0
      objectReference: {fileID: 0}
    - target: {fileID: 224746827217588252, guid: fd744b489a6263d43a8fed568d594974,
        type: 3}
      propertyPath: m_AnchorMax.y
      value: 0
      objectReference: {fileID: 0}
    - target: {fileID: 224746827217588252, guid: fd744b489a6263d43a8fed568d594974,
        type: 3}
      propertyPath: m_AnchoredPosition.x
      value: 0
      objectReference: {fileID: 0}
    - target: {fileID: 224746827217588252, guid: fd744b489a6263d43a8fed568d594974,
        type: 3}
      propertyPath: m_AnchoredPosition.y
      value: 0
      objectReference: {fileID: 0}
    - target: {fileID: 224748230321907336, guid: fd744b489a6263d43a8fed568d594974,
        type: 3}
      propertyPath: m_AnchorMin.y
      value: 0
      objectReference: {fileID: 0}
    - target: {fileID: 224748230321907336, guid: fd744b489a6263d43a8fed568d594974,
        type: 3}
      propertyPath: m_AnchorMax.y
      value: 0
      objectReference: {fileID: 0}
    - target: {fileID: 224748230321907336, guid: fd744b489a6263d43a8fed568d594974,
        type: 3}
      propertyPath: m_AnchoredPosition.x
      value: 0
      objectReference: {fileID: 0}
    - target: {fileID: 224748230321907336, guid: fd744b489a6263d43a8fed568d594974,
        type: 3}
      propertyPath: m_AnchoredPosition.y
      value: 0
      objectReference: {fileID: 0}
    - target: {fileID: 224760191977695792, guid: fd744b489a6263d43a8fed568d594974,
        type: 3}
      propertyPath: m_AnchorMin.y
      value: 0
      objectReference: {fileID: 0}
    - target: {fileID: 224760191977695792, guid: fd744b489a6263d43a8fed568d594974,
        type: 3}
      propertyPath: m_AnchorMax.y
      value: 0
      objectReference: {fileID: 0}
    - target: {fileID: 224760191977695792, guid: fd744b489a6263d43a8fed568d594974,
        type: 3}
      propertyPath: m_AnchoredPosition.x
      value: 0
      objectReference: {fileID: 0}
    - target: {fileID: 224760191977695792, guid: fd744b489a6263d43a8fed568d594974,
        type: 3}
      propertyPath: m_AnchoredPosition.y
      value: 0
      objectReference: {fileID: 0}
    - target: {fileID: 224768175533076392, guid: fd744b489a6263d43a8fed568d594974,
        type: 3}
      propertyPath: m_AnchorMin.y
      value: 0
      objectReference: {fileID: 0}
    - target: {fileID: 224768175533076392, guid: fd744b489a6263d43a8fed568d594974,
        type: 3}
      propertyPath: m_AnchorMax.y
      value: 0
      objectReference: {fileID: 0}
    - target: {fileID: 224768175533076392, guid: fd744b489a6263d43a8fed568d594974,
        type: 3}
      propertyPath: m_AnchoredPosition.x
      value: 0
      objectReference: {fileID: 0}
    - target: {fileID: 224768175533076392, guid: fd744b489a6263d43a8fed568d594974,
        type: 3}
      propertyPath: m_AnchoredPosition.y
      value: 0
      objectReference: {fileID: 0}
    - target: {fileID: 224769495042536086, guid: fd744b489a6263d43a8fed568d594974,
        type: 3}
      propertyPath: m_AnchorMin.y
      value: 0
      objectReference: {fileID: 0}
    - target: {fileID: 224769495042536086, guid: fd744b489a6263d43a8fed568d594974,
        type: 3}
      propertyPath: m_AnchorMax.y
      value: 0
      objectReference: {fileID: 0}
    - target: {fileID: 224769495042536086, guid: fd744b489a6263d43a8fed568d594974,
        type: 3}
      propertyPath: m_AnchoredPosition.x
      value: 0
      objectReference: {fileID: 0}
    - target: {fileID: 224769495042536086, guid: fd744b489a6263d43a8fed568d594974,
        type: 3}
      propertyPath: m_AnchoredPosition.y
      value: 0
      objectReference: {fileID: 0}
    - target: {fileID: 224773778371645518, guid: fd744b489a6263d43a8fed568d594974,
        type: 3}
      propertyPath: m_AnchorMin.y
      value: 0
      objectReference: {fileID: 0}
    - target: {fileID: 224773778371645518, guid: fd744b489a6263d43a8fed568d594974,
        type: 3}
      propertyPath: m_AnchorMax.y
      value: 0
      objectReference: {fileID: 0}
    - target: {fileID: 224773778371645518, guid: fd744b489a6263d43a8fed568d594974,
        type: 3}
      propertyPath: m_AnchoredPosition.x
      value: 0
      objectReference: {fileID: 0}
    - target: {fileID: 224773778371645518, guid: fd744b489a6263d43a8fed568d594974,
        type: 3}
      propertyPath: m_AnchoredPosition.y
      value: 0
      objectReference: {fileID: 0}
    - target: {fileID: 224788898931919126, guid: fd744b489a6263d43a8fed568d594974,
        type: 3}
      propertyPath: m_AnchorMin.y
      value: 0
      objectReference: {fileID: 0}
    - target: {fileID: 224788898931919126, guid: fd744b489a6263d43a8fed568d594974,
        type: 3}
      propertyPath: m_AnchorMax.y
      value: 0
      objectReference: {fileID: 0}
    - target: {fileID: 224788898931919126, guid: fd744b489a6263d43a8fed568d594974,
        type: 3}
      propertyPath: m_AnchoredPosition.x
      value: 0
      objectReference: {fileID: 0}
    - target: {fileID: 224788898931919126, guid: fd744b489a6263d43a8fed568d594974,
        type: 3}
      propertyPath: m_AnchoredPosition.y
      value: 0
      objectReference: {fileID: 0}
    - target: {fileID: 224803274913318080, guid: fd744b489a6263d43a8fed568d594974,
        type: 3}
      propertyPath: m_AnchorMin.y
      value: 0
      objectReference: {fileID: 0}
    - target: {fileID: 224803274913318080, guid: fd744b489a6263d43a8fed568d594974,
        type: 3}
      propertyPath: m_AnchorMax.y
      value: 0
      objectReference: {fileID: 0}
    - target: {fileID: 224803274913318080, guid: fd744b489a6263d43a8fed568d594974,
        type: 3}
      propertyPath: m_AnchoredPosition.x
      value: 0
      objectReference: {fileID: 0}
    - target: {fileID: 224803274913318080, guid: fd744b489a6263d43a8fed568d594974,
        type: 3}
      propertyPath: m_AnchoredPosition.y
      value: 0
      objectReference: {fileID: 0}
    - target: {fileID: 224882392586507058, guid: fd744b489a6263d43a8fed568d594974,
        type: 3}
      propertyPath: m_AnchorMin.y
      value: 0
      objectReference: {fileID: 0}
    - target: {fileID: 224882392586507058, guid: fd744b489a6263d43a8fed568d594974,
        type: 3}
      propertyPath: m_AnchorMax.y
      value: 0
      objectReference: {fileID: 0}
    - target: {fileID: 224882392586507058, guid: fd744b489a6263d43a8fed568d594974,
        type: 3}
      propertyPath: m_AnchoredPosition.x
      value: 0
      objectReference: {fileID: 0}
    - target: {fileID: 224882392586507058, guid: fd744b489a6263d43a8fed568d594974,
        type: 3}
      propertyPath: m_AnchoredPosition.y
      value: 0
      objectReference: {fileID: 0}
    - target: {fileID: 224892519928532446, guid: fd744b489a6263d43a8fed568d594974,
        type: 3}
      propertyPath: m_AnchorMin.y
      value: 0
      objectReference: {fileID: 0}
    - target: {fileID: 224892519928532446, guid: fd744b489a6263d43a8fed568d594974,
        type: 3}
      propertyPath: m_AnchorMax.y
      value: 0
      objectReference: {fileID: 0}
    - target: {fileID: 224892519928532446, guid: fd744b489a6263d43a8fed568d594974,
        type: 3}
      propertyPath: m_AnchoredPosition.x
      value: 0
      objectReference: {fileID: 0}
    - target: {fileID: 224892519928532446, guid: fd744b489a6263d43a8fed568d594974,
        type: 3}
      propertyPath: m_AnchoredPosition.y
      value: 0
      objectReference: {fileID: 0}
    - target: {fileID: 224905015997406208, guid: fd744b489a6263d43a8fed568d594974,
        type: 3}
      propertyPath: m_AnchoredPosition.y
      value: -33
      objectReference: {fileID: 0}
    - target: {fileID: 224914647376291322, guid: fd744b489a6263d43a8fed568d594974,
        type: 3}
      propertyPath: m_AnchorMin.y
      value: 0
      objectReference: {fileID: 0}
    - target: {fileID: 224914647376291322, guid: fd744b489a6263d43a8fed568d594974,
        type: 3}
      propertyPath: m_AnchorMax.y
      value: 0
      objectReference: {fileID: 0}
    - target: {fileID: 224914647376291322, guid: fd744b489a6263d43a8fed568d594974,
        type: 3}
      propertyPath: m_AnchoredPosition.x
      value: 0
      objectReference: {fileID: 0}
    - target: {fileID: 224914647376291322, guid: fd744b489a6263d43a8fed568d594974,
        type: 3}
      propertyPath: m_AnchoredPosition.y
      value: 0
      objectReference: {fileID: 0}
    - target: {fileID: 224918382087356778, guid: fd744b489a6263d43a8fed568d594974,
        type: 3}
      propertyPath: m_AnchorMin.y
      value: 0
      objectReference: {fileID: 0}
    - target: {fileID: 224918382087356778, guid: fd744b489a6263d43a8fed568d594974,
        type: 3}
      propertyPath: m_AnchorMax.y
      value: 0
      objectReference: {fileID: 0}
    - target: {fileID: 224918382087356778, guid: fd744b489a6263d43a8fed568d594974,
        type: 3}
      propertyPath: m_AnchoredPosition.x
      value: 0
      objectReference: {fileID: 0}
    - target: {fileID: 224918382087356778, guid: fd744b489a6263d43a8fed568d594974,
        type: 3}
      propertyPath: m_AnchoredPosition.y
      value: 0
      objectReference: {fileID: 0}
    - target: {fileID: 224927704528978488, guid: fd744b489a6263d43a8fed568d594974,
        type: 3}
      propertyPath: m_AnchorMin.y
      value: 0
      objectReference: {fileID: 0}
    - target: {fileID: 224927704528978488, guid: fd744b489a6263d43a8fed568d594974,
        type: 3}
      propertyPath: m_AnchorMax.y
      value: 0
      objectReference: {fileID: 0}
    - target: {fileID: 224927704528978488, guid: fd744b489a6263d43a8fed568d594974,
        type: 3}
      propertyPath: m_AnchoredPosition.x
      value: 0
      objectReference: {fileID: 0}
    - target: {fileID: 224927704528978488, guid: fd744b489a6263d43a8fed568d594974,
        type: 3}
      propertyPath: m_AnchoredPosition.y
      value: 0
      objectReference: {fileID: 0}
    - target: {fileID: 224937074882546804, guid: fd744b489a6263d43a8fed568d594974,
        type: 3}
      propertyPath: m_AnchoredPosition.x
      value: -44.51001
      objectReference: {fileID: 0}
    - target: {fileID: 224937074882546804, guid: fd744b489a6263d43a8fed568d594974,
        type: 3}
      propertyPath: m_AnchoredPosition.y
      value: 0.01499939
      objectReference: {fileID: 0}
    - target: {fileID: 224945729996965866, guid: fd744b489a6263d43a8fed568d594974,
        type: 3}
      propertyPath: m_AnchorMin.y
      value: 0
      objectReference: {fileID: 0}
    - target: {fileID: 224945729996965866, guid: fd744b489a6263d43a8fed568d594974,
        type: 3}
      propertyPath: m_AnchorMax.y
      value: 0
      objectReference: {fileID: 0}
    - target: {fileID: 224945729996965866, guid: fd744b489a6263d43a8fed568d594974,
        type: 3}
      propertyPath: m_AnchoredPosition.x
      value: 0
      objectReference: {fileID: 0}
    - target: {fileID: 224945729996965866, guid: fd744b489a6263d43a8fed568d594974,
        type: 3}
      propertyPath: m_AnchoredPosition.y
      value: 0
      objectReference: {fileID: 0}
    - target: {fileID: 224950672277633082, guid: fd744b489a6263d43a8fed568d594974,
        type: 3}
      propertyPath: m_AnchorMin.y
      value: 0
      objectReference: {fileID: 0}
    - target: {fileID: 224950672277633082, guid: fd744b489a6263d43a8fed568d594974,
        type: 3}
      propertyPath: m_AnchorMax.y
      value: 0
      objectReference: {fileID: 0}
    - target: {fileID: 224950672277633082, guid: fd744b489a6263d43a8fed568d594974,
        type: 3}
      propertyPath: m_AnchoredPosition.x
      value: 842.5
      objectReference: {fileID: 0}
    - target: {fileID: 224950672277633082, guid: fd744b489a6263d43a8fed568d594974,
        type: 3}
      propertyPath: m_AnchoredPosition.y
      value: 0
      objectReference: {fileID: 0}
    - target: {fileID: 224950672277633082, guid: fd744b489a6263d43a8fed568d594974,
        type: 3}
      propertyPath: m_SizeDelta.x
      value: 0
      objectReference: {fileID: 0}
    - target: {fileID: 224962366008046016, guid: fd744b489a6263d43a8fed568d594974,
        type: 3}
      propertyPath: m_AnchorMin.y
      value: 0
      objectReference: {fileID: 0}
    - target: {fileID: 224962366008046016, guid: fd744b489a6263d43a8fed568d594974,
        type: 3}
      propertyPath: m_AnchorMax.y
      value: 0
      objectReference: {fileID: 0}
    - target: {fileID: 224962366008046016, guid: fd744b489a6263d43a8fed568d594974,
        type: 3}
      propertyPath: m_AnchoredPosition.x
      value: 0
      objectReference: {fileID: 0}
    - target: {fileID: 224962366008046016, guid: fd744b489a6263d43a8fed568d594974,
        type: 3}
      propertyPath: m_AnchoredPosition.y
      value: 0
      objectReference: {fileID: 0}
    - target: {fileID: 224975239204261344, guid: fd744b489a6263d43a8fed568d594974,
        type: 3}
      propertyPath: m_AnchorMin.y
      value: 0
      objectReference: {fileID: 0}
    - target: {fileID: 224975239204261344, guid: fd744b489a6263d43a8fed568d594974,
        type: 3}
      propertyPath: m_AnchorMax.y
      value: 0
      objectReference: {fileID: 0}
    - target: {fileID: 224975239204261344, guid: fd744b489a6263d43a8fed568d594974,
        type: 3}
      propertyPath: m_AnchoredPosition.x
      value: 0
      objectReference: {fileID: 0}
    - target: {fileID: 224975239204261344, guid: fd744b489a6263d43a8fed568d594974,
        type: 3}
      propertyPath: m_AnchoredPosition.y
      value: 0
      objectReference: {fileID: 0}
    - target: {fileID: 224977129389567022, guid: fd744b489a6263d43a8fed568d594974,
        type: 3}
      propertyPath: m_AnchorMin.y
      value: 0
      objectReference: {fileID: 0}
    - target: {fileID: 224977129389567022, guid: fd744b489a6263d43a8fed568d594974,
        type: 3}
      propertyPath: m_AnchorMax.y
      value: 0
      objectReference: {fileID: 0}
    - target: {fileID: 224977129389567022, guid: fd744b489a6263d43a8fed568d594974,
        type: 3}
      propertyPath: m_AnchoredPosition.x
      value: 0
      objectReference: {fileID: 0}
    - target: {fileID: 224977129389567022, guid: fd744b489a6263d43a8fed568d594974,
        type: 3}
      propertyPath: m_AnchoredPosition.y
      value: 0
      objectReference: {fileID: 0}
    - target: {fileID: 224986909360040466, guid: fd744b489a6263d43a8fed568d594974,
        type: 3}
      propertyPath: m_AnchorMin.y
      value: 0
      objectReference: {fileID: 0}
    - target: {fileID: 224986909360040466, guid: fd744b489a6263d43a8fed568d594974,
        type: 3}
      propertyPath: m_AnchorMax.y
      value: 0
      objectReference: {fileID: 0}
    - target: {fileID: 224986909360040466, guid: fd744b489a6263d43a8fed568d594974,
        type: 3}
      propertyPath: m_AnchoredPosition.x
      value: 242.5
      objectReference: {fileID: 0}
    - target: {fileID: 224986909360040466, guid: fd744b489a6263d43a8fed568d594974,
        type: 3}
      propertyPath: m_AnchoredPosition.y
      value: 0
      objectReference: {fileID: 0}
    - target: {fileID: 224986909360040466, guid: fd744b489a6263d43a8fed568d594974,
        type: 3}
      propertyPath: m_SizeDelta.x
      value: 0
      objectReference: {fileID: 0}
    - target: {fileID: 224987687297754008, guid: fd744b489a6263d43a8fed568d594974,
        type: 3}
      propertyPath: m_AnchorMin.y
      value: 0
      objectReference: {fileID: 0}
    - target: {fileID: 224987687297754008, guid: fd744b489a6263d43a8fed568d594974,
        type: 3}
      propertyPath: m_AnchorMax.y
      value: 0
      objectReference: {fileID: 0}
    - target: {fileID: 224987687297754008, guid: fd744b489a6263d43a8fed568d594974,
        type: 3}
      propertyPath: m_AnchoredPosition.x
      value: 0
      objectReference: {fileID: 0}
    - target: {fileID: 224987687297754008, guid: fd744b489a6263d43a8fed568d594974,
        type: 3}
      propertyPath: m_AnchoredPosition.y
      value: 0
      objectReference: {fileID: 0}
    - target: {fileID: 224998827850780806, guid: fd744b489a6263d43a8fed568d594974,
        type: 3}
      propertyPath: m_AnchorMin.y
      value: 0
      objectReference: {fileID: 0}
    - target: {fileID: 224998827850780806, guid: fd744b489a6263d43a8fed568d594974,
        type: 3}
      propertyPath: m_AnchorMax.y
      value: 0
      objectReference: {fileID: 0}
    - target: {fileID: 224998827850780806, guid: fd744b489a6263d43a8fed568d594974,
        type: 3}
      propertyPath: m_AnchoredPosition.x
      value: 0
      objectReference: {fileID: 0}
    - target: {fileID: 224998827850780806, guid: fd744b489a6263d43a8fed568d594974,
        type: 3}
      propertyPath: m_AnchoredPosition.y
      value: 0
      objectReference: {fileID: 0}
    m_RemovedComponents: []
  m_SourcePrefab: {fileID: 100100000, guid: fd744b489a6263d43a8fed568d594974, type: 3}
